\relax 
\providecommand\hyper@newdestlabel[2]{}
\providecommand\HyperFirstAtBeginDocument{\AtBeginDocument}
\HyperFirstAtBeginDocument{\ifx\hyper@anchor\@undefined
\global\let\oldcontentsline\contentsline
\gdef\contentsline#1#2#3#4{\oldcontentsline{#1}{#2}{#3}}
\global\let\oldnewlabel\newlabel
\gdef\newlabel#1#2{\newlabelxx{#1}#2}
\gdef\newlabelxx#1#2#3#4#5#6{\oldnewlabel{#1}{{#2}{#3}}}
\AtEndDocument{\ifx\hyper@anchor\@undefined
\let\contentsline\oldcontentsline
\let\newlabel\oldnewlabel
\fi}
\fi}
\global\let\hyper@last\relax 
\gdef\HyperFirstAtBeginDocument#1{#1}
\providecommand\HyField@AuxAddToFields[1]{}
\providecommand\HyField@AuxAddToCoFields[2]{}
\catcode `:\active 
\catcode `;\active 
\catcode `!\active 
\catcode `?\active 
\providecommand \oddpage@label [2]{}
\babel@aux{french}{}
\@writefile{toc}{\contentsline {chapter}{Sommaire}{ii}{Doc-Start}}
\@writefile{toc}{\contentsline {chapter}{\numberline {1}Introduction}{1}{chapter.1}}
\@writefile{lof}{\addvspace {10\p@ }}
\@writefile{lot}{\addvspace {10\p@ }}
\@writefile{loa}{\addvspace {10\p@ }}
\@writefile{lof}{\contentsline {figure}{\numberline {1.1}{\ignorespaces Sch\IeC {\'e}ma de communication}}{2}{figure.caption.6}}
\providecommand*\caption@xref[2]{\@setref\relax\@undefined{#1}}
\newlabel{fig:comm}{{1.1}{2}{Schéma de communication}{figure.caption.6}{}}
\citation{bioglio_design_2018}
\@writefile{toc}{\contentsline {chapter}{\numberline {2}Th\IeC {\'e}orie et mise en contexte}{5}{chapter.2}}
\@writefile{lof}{\addvspace {10\p@ }}
\@writefile{lot}{\addvspace {10\p@ }}
\@writefile{loa}{\addvspace {10\p@ }}
\@writefile{toc}{\contentsline {section}{\numberline {2.1}Th\IeC {\'e}orie des codes}{5}{section.2.1}}
\@writefile{toc}{\contentsline {subsection}{\numberline {2.1.1}Les codes lin\IeC {\'e}aires}{6}{subsection.2.1.1}}
\newlabel{def1}{{1}{6}{Les codes linéaires}{defi.1}{}}
\citation{hamming_error_1950}
\@writefile{toc}{\contentsline {subsection}{\numberline {2.1.2}Un exemple: Le code de Hamming}{10}{subsection.2.1.2}}
\newlabel{hamming}{{2.1.2}{10}{Un exemple: Le code de Hamming}{subsection.2.1.2}{}}
\@writefile{lof}{\contentsline {figure}{\numberline {2.1}{\ignorespaces Code de Hamming}}{11}{figure.caption.7}}
\newlabel{fig:hamming}{{2.1}{11}{Code de Hamming}{figure.caption.7}{}}
\@writefile{lot}{\contentsline {table}{\numberline {2.1}{\ignorespaces Table de syndromes correspondant \IeC {\`a} la parit\IeC {\'e} des 3 cercles pour les erreurs de poids 1.\relax }}{11}{table.caption.8}}
\newlabel{parit\IeC {\'e}}{{2.1}{11}{Table de syndromes correspondant à la parité des 3 cercles pour les erreurs de poids 1.\relax }{table.caption.8}{}}
\citation{macwilliams_theory_1977}
\citation{gallager_information_1968}
\citation{berrou_codes_2010}
\citation{lin_error_2004}
\citation{shannon_mathematical_nodate}
\@writefile{toc}{\contentsline {section}{\numberline {2.2}Th\IeC {\'e}orie de l'information}{13}{section.2.2}}
\@writefile{toc}{\contentsline {subsection}{\numberline {2.2.1}L'entropie au sens de Shannon}{13}{subsection.2.2.1}}
\newlabel{entropie}{{2.2.1}{13}{L'entropie au sens de Shannon}{subsection.2.2.1}{}}
\newlabel{prop2}{{2.10}{14}{L'entropie au sens de Shannon}{equation.2.2.10}{}}
\@writefile{lof}{\contentsline {figure}{\numberline {2.2}{\ignorespaces Relation entre l'entropie et l'information mutuelle}}{16}{figure.caption.9}}
\newlabel{fig:venn}{{2.2}{16}{Relation entre l'entropie et l'information mutuelle}{figure.caption.9}{}}
\@writefile{toc}{\contentsline {subsection}{\numberline {2.2.2}Canal bruyant}{16}{subsection.2.2.2}}
\@writefile{lof}{\contentsline {figure}{\numberline {2.3}{\ignorespaces Canal binaire sym\IeC {\'e}trique et canal binaire \IeC {\`a} effacement}}{17}{figure.caption.10}}
\newlabel{fig:canaux}{{2.3}{17}{Canal binaire symétrique et canal binaire à effacement}{figure.caption.10}{}}
\@writefile{lof}{\contentsline {subfigure}{\numberline{(a)}{\ignorespaces {$BSC(p)$}}}{17}{subfigure.3.1}}
\@writefile{lof}{\contentsline {subfigure}{\numberline{(b)}{\ignorespaces {$BEC(p)$}}}{17}{subfigure.3.2}}
\@writefile{lof}{\contentsline {figure}{\numberline {2.4}{\ignorespaces Canal parfait et canal poubelle}}{18}{figure.caption.11}}
\newlabel{fig:parfmauvais}{{2.4}{18}{Canal parfait et canal poubelle}{figure.caption.11}{}}
\@writefile{lof}{\contentsline {subfigure}{\numberline{(a)}{\ignorespaces {Canal parfait}}}{18}{subfigure.4.1}}
\@writefile{lof}{\contentsline {subfigure}{\numberline{(b)}{\ignorespaces {Canal poubelle}}}{18}{subfigure.4.2}}
\@writefile{toc}{\contentsline {subsection}{\numberline {2.2.3}Second th\IeC {\'e}or\IeC {\`e}me de Shannon}{18}{subsection.2.2.3}}
\citation{arikan_channel_2009}
\citation{shannon_mathematical_nodate}
\citation{cover_elements_2006}
\citation{rice_k-band_1996}
\@writefile{toc}{\contentsline {section}{\numberline {2.3}Canal avec m\IeC {\'e}moire et technique de codage}{20}{section.2.3}}
\@writefile{toc}{\contentsline {subsection}{\numberline {2.3.1}Canal avec m\IeC {\'e}moire \IeC {\`a} \IeC {\'e}tats finis}{20}{subsection.2.3.1}}
\newlabel{bruitmemoire}{{2.3.1}{20}{Canal avec mémoire à états finis}{subsection.2.3.1}{}}
\citation{gallager_information_1968}
\citation{goldsmith_capacity_1996}
\@writefile{toc}{\contentsline {subsection}{\numberline {2.3.2}Capacit\IeC {\'e} du canal avec m\IeC {\'e}moire \IeC {\`a} \IeC {\'e}tats fini}{22}{subsection.2.3.2}}
\newlabel{indec}{{15}{22}{Capacité du canal avec mémoire à états fini}{defi.15}{}}
\citation{arnold_computing_2003}
\citation{blackwell_proof_1958}
\citation{gilbert_capacity_1960}
\citation{elliott_estimates_1963}
\newlabel{capa_fsc}{{2.30}{23}{Capacité du canal avec mémoire à états fini}{equation.2.3.30}{}}
\@writefile{toc}{\contentsline {subsection}{\numberline {2.3.3}Mod\IeC {\`e}le de Gilbert-Elliott}{23}{subsection.2.3.3}}
\@writefile{lof}{\contentsline {figure}{\numberline {2.5}{\ignorespaces Graphe de transition du mod\IeC {\`e}le de Gilbert-Elliott\relax }}{23}{figure.caption.12}}
\newlabel{burstchannel}{{2.5}{23}{Graphe de transition du modèle de Gilbert-Elliott\relax }{figure.caption.12}{}}
\newlabel{lcorr}{{2.33}{24}{Modèle de Gilbert-Elliott}{equation.2.3.33}{}}
\citation{mushkin_capacity_1989}
\citation{rezaeian_computation_2005}
\citation{yun_q.shi_interleaving_2004}
\citation{yee_evaluation_1995}
\newlabel{capagilbert}{{2.34}{25}{Modèle de Gilbert-Elliott}{equation.2.3.34}{}}
\@writefile{toc}{\contentsline {subsection}{\numberline {2.3.4}Technique d'entrelacement}{25}{subsection.2.3.4}}
\citation{arikan_channel_2009}
\citation{bioglio_design_2018}
\@writefile{toc}{\contentsline {section}{\numberline {2.4}Les codes polaires}{27}{section.2.4}}
\@writefile{toc}{\contentsline {subsection}{\numberline {2.4.1}L'id\IeC {\'e}e de base}{27}{subsection.2.4.1}}
\@writefile{lof}{\contentsline {figure}{\numberline {2.6}{\ignorespaces Transformation de base du code polaire}}{28}{figure.caption.13}}
\newlabel{fig:transf}{{2.6}{28}{Transformation de base du code polaire}{figure.caption.13}{}}
\@writefile{lot}{\contentsline {table}{\numberline {2.2}{\ignorespaces Table de v\IeC {\'e}rit\IeC {\'e} pour la porte \emph  {non contr\IeC {\^o}l\IeC {\'e}} de la figure \ref  {fig:transf}.\relax }}{28}{table.caption.14}}
\newlabel{v\IeC {\'e}rit\IeC {\'e}}{{2.2}{28}{Table de vérité pour la porte \emph {non contrôlé} de la figure \ref {fig:transf}.\relax }{table.caption.14}{}}
\citation{arikan_source_2010}
\citation{sasoglu_polarization_2011}
\newlabel{transfopc}{{2.35}{29}{L'idée de base}{equation.2.4.35}{}}
\newlabel{inegal1}{{2.38}{29}{L'idée de base}{equation.2.4.38}{}}
\newlabel{inegal2}{{2.39}{29}{L'idée de base}{equation.2.4.39}{}}
\newlabel{inegalcp}{{2.40}{29}{L'idée de base}{equation.2.4.40}{}}
\@writefile{toc}{\contentsline {subsection}{\numberline {2.4.2}Le cas simple du canal \IeC {\`a} effacement}{30}{subsection.2.4.2}}
\@writefile{lof}{\contentsline {figure}{\numberline {2.7}{\ignorespaces Code polaire \IeC {\`a} 2 couches}}{32}{figure.caption.15}}
\newlabel{fig:2layers}{{2.7}{32}{Code polaire à 2 couches}{figure.caption.15}{}}
\@writefile{lof}{\contentsline {figure}{\numberline {2.8}{\ignorespaces Polarisation du canal \IeC {\`a} effacement}}{32}{figure.caption.16}}
\newlabel{fig:pol}{{2.8}{32}{Polarisation du canal à effacement}{figure.caption.16}{}}
\@writefile{lof}{\contentsline {subfigure}{\numberline{(a)}{\ignorespaces {Code polaire de 32 bits.}}}{32}{subfigure.8.1}}
\@writefile{lof}{\contentsline {subfigure}{\numberline{(b)}{\ignorespaces {Code polaire de 256 bits.}}}{32}{subfigure.8.2}}
\@writefile{toc}{\contentsline {subsection}{\numberline {2.4.3}Th\IeC {\'e}or\IeC {\`e}me de polarisation}{33}{subsection.2.4.3}}
\@writefile{toc}{\contentsline {subsection}{\numberline {2.4.4}Circuit d'encodage}{34}{subsection.2.4.4}}
\@writefile{lof}{\contentsline {figure}{\numberline {2.9}{\ignorespaces Construction du circuit d'encodage d'un code polaire}}{35}{figure.caption.17}}
\newlabel{fig:const_cp}{{2.9}{35}{Construction du circuit d'encodage d'un code polaire}{figure.caption.17}{}}
\@writefile{toc}{\contentsline {subsection}{\numberline {2.4.5}D\IeC {\'e}codeur par annulation successive}{35}{subsection.2.4.5}}
\newlabel{decodeurannulationsuccessive}{{2.4.5}{35}{Décodeur par annulation successive}{subsection.2.4.5}{}}
\newlabel{decodeuroptimal}{{2.41}{35}{Décodeur par annulation successive}{equation.2.4.41}{}}
\citation{sasoglu_polarization_2011}
\citation{sasoglu_polarization_2011-1}
\citation{sasoglu_polar_2016}
\citation{wang_construction_2015}
\@writefile{toc}{\contentsline {subsection}{\numberline {2.4.6}Polarisation du bruit avec m\IeC {\'e}moire}{36}{subsection.2.4.6}}
\citation{shi_classical_2006}
\citation{poulin_quantum_2011}
\citation{markov_simulating_2008}
\citation{darmawan_2017}
\citation{darmawan_2018}
\citation{Pastawski2015}
\citation{bravyi}
\citation{stoudenmire_supervised_2016}
\citation{orus_practical_2014}
\citation{bridgeman_hand-waving_2017}
\@writefile{toc}{\contentsline {section}{\numberline {2.5}Les r\IeC {\'e}seaux de tenseurs}{37}{section.2.5}}
\@writefile{toc}{\contentsline {subsection}{\numberline {2.5.1}D\IeC {\'e}finition}{38}{subsection.2.5.1}}
\@writefile{lof}{\contentsline {figure}{\numberline {2.10}{\ignorespaces Un tenseur et un r\IeC {\'e}seau de tenseurs}}{38}{figure.caption.18}}
\newlabel{fig:tenseur}{{2.10}{38}{Un tenseur et un réseau de tenseurs}{figure.caption.18}{}}
\@writefile{lof}{\contentsline {subfigure}{\numberline{(a)}{\ignorespaces {Un tenseur de rang 4.}}}{38}{subfigure.10.1}}
\@writefile{lof}{\contentsline {subfigure}{\numberline{(b)}{\ignorespaces {R\IeC {\'e}seau de tenseurs constitu\IeC {\'e} de 5 tenseurs.}}}{38}{subfigure.10.2}}
\@writefile{toc}{\contentsline {subsection}{\numberline {2.5.2}Remodelage}{38}{subsection.2.5.2}}
\@writefile{lof}{\contentsline {figure}{\numberline {2.11}{\ignorespaces Remodelage d'un tenseur}}{39}{figure.caption.19}}
\newlabel{fig:remode}{{2.11}{39}{Remodelage d'un tenseur}{figure.caption.19}{}}
\@writefile{lof}{\contentsline {subfigure}{\numberline{(a)}{\ignorespaces {Remodelage par groupement d'indices d'un tenseur de rang 3.}}}{39}{subfigure.11.1}}
\@writefile{lof}{\contentsline {subfigure}{\numberline{(b)}{\ignorespaces {Remodelage par extension d'indices d'un tenseur de rang 2.}}}{39}{subfigure.11.2}}
\@writefile{toc}{\contentsline {subsection}{\numberline {2.5.3}Permutation des indices}{39}{subsection.2.5.3}}
\citation{arad_quantum_2008}
\@writefile{lof}{\contentsline {figure}{\numberline {2.12}{\ignorespaces Permutation des indices d'un tenseur}}{40}{figure.caption.20}}
\newlabel{fig:permute}{{2.12}{40}{Permutation des indices d'un tenseur}{figure.caption.20}{}}
\@writefile{lof}{\contentsline {figure}{\numberline {2.13}{\ignorespaces Contraction de tenseurs}}{40}{figure.caption.21}}
\newlabel{fig:contract}{{2.13}{40}{Contraction de tenseurs}{figure.caption.21}{}}
\@writefile{toc}{\contentsline {subsection}{\numberline {2.5.4}Contraction d'un r\IeC {\'e}seau de tenseurs}{40}{subsection.2.5.4}}
\citation{ferris_tensor_2014}
\citation{evenbly_class_2014}
\citation{ferris_convolutional_2017}
\citation{ferris_convolutional_2017}
\citation{tremblay_depth_2018}
\citation{Morozov2018}
\citation{bourassa_convolutional_2018}
\@writefile{toc}{\contentsline {subsection}{\numberline {2.5.5}L'ordre de contraction}{41}{subsection.2.5.5}}
\@writefile{lof}{\contentsline {figure}{\numberline {2.14}{\ignorespaces Exemple de contraction}}{42}{figure.caption.22}}
\newlabel{fig:echelle}{{2.14}{42}{Exemple de contraction}{figure.caption.22}{}}
\@writefile{lof}{\contentsline {figure}{\numberline {2.15}{\ignorespaces Contraction sous-optimale}}{42}{figure.caption.23}}
\newlabel{fig:bad_contract}{{2.15}{42}{Contraction sous-optimale}{figure.caption.23}{}}
\@writefile{lof}{\contentsline {figure}{\numberline {2.16}{\ignorespaces Contraction optimale}}{42}{figure.caption.24}}
\newlabel{fig:good_contract}{{2.16}{42}{Contraction optimale}{figure.caption.24}{}}
\@writefile{toc}{\contentsline {section}{\numberline {2.6}Les codes polaires convolutifs}{43}{section.2.6}}
\@writefile{lof}{\contentsline {figure}{\numberline {2.17}{\ignorespaces Couche d'un code polaire}}{44}{figure.caption.25}}
\newlabel{fig:couchepc}{{2.17}{44}{Couche d'un code polaire}{figure.caption.25}{}}
\@writefile{lof}{\contentsline {figure}{\numberline {2.18}{\ignorespaces Couche d'un code polaire convolutif}}{44}{figure.caption.26}}
\newlabel{fig:couchecpc}{{2.18}{44}{Couche d'un code polaire convolutif}{figure.caption.26}{}}
\@writefile{lof}{\contentsline {figure}{\numberline {2.19}{\ignorespaces Codes polaires convolutifs 2 couches}}{44}{figure.caption.27}}
\newlabel{fig:2lpolconv}{{2.19}{44}{Codes polaires convolutifs 2 couches}{figure.caption.27}{}}
\@writefile{lof}{\contentsline {figure}{\numberline {2.20}{\ignorespaces Codes polaires convolutifs 3 couches}}{45}{figure.caption.28}}
\newlabel{fig:3lpolconv}{{2.20}{45}{Codes polaires convolutifs 3 couches}{figure.caption.28}{}}
\@writefile{toc}{\contentsline {chapter}{\numberline {3}M\IeC {\'e}thodologie}{46}{chapter.3}}
\@writefile{lof}{\addvspace {10\p@ }}
\@writefile{lot}{\addvspace {10\p@ }}
\@writefile{loa}{\addvspace {10\p@ }}
\newlabel{metho}{{3}{46}{Méthodologie}{chapter.3}{}}
\@writefile{toc}{\contentsline {section}{\numberline {3.1}Formulation d'un circuit en termes des r\IeC {\'e}seaux de tenseurs}{46}{section.3.1}}
\@writefile{toc}{\contentsline {section}{\numberline {3.2}Le d\IeC {\'e}codage, un probl\IeC {\`e}me de contraction}{48}{section.3.2}}
\@writefile{toc}{\contentsline {subsection}{\numberline {3.2.1}Calculs sur une densit\IeC {\'e} de probabilit\IeC {\'e}}{48}{subsection.3.2.1}}
\@writefile{toc}{\contentsline {subsection}{\numberline {3.2.2}D\IeC {\'e}codeur par annulation successive}{49}{subsection.3.2.2}}
\@writefile{toc}{\contentsline {subsection}{\numberline {3.2.3}L'obtention de la densit\IeC {\'e} de probabilit\IeC {\'e}}{50}{subsection.3.2.3}}
\@writefile{toc}{\contentsline {section}{\numberline {3.3}Mod\IeC {\`e}le de r\IeC {\'e}seaux de tenseurs pour canal bruyant}{51}{section.3.3}}
\@writefile{toc}{\contentsline {subsection}{\numberline {3.3.1}Canaux sans m\IeC {\'e}moire}{51}{subsection.3.3.1}}
\@writefile{toc}{\contentsline {subsection}{\numberline {3.3.2}Canaux avec m\IeC {\'e}moire}{52}{subsection.3.3.2}}
\citation{mpo}
\@writefile{toc}{\contentsline {section}{\numberline {3.4}Algorithme de d\IeC {\'e}codage}{54}{section.3.4}}
\newlabel{decodage}{{3.4}{54}{Algorithme de décodage}{section.3.4}{}}
\@writefile{lof}{\contentsline {figure}{\numberline {3.1}{\ignorespaces R\IeC {\'e}seau de tenseurs utile pour le d\IeC {\'e}codage du bit $u_5$}}{55}{figure.caption.29}}
\newlabel{fig:dec16bits}{{3.1}{55}{Réseau de tenseurs utile pour le décodage du bit $u_5$}{figure.caption.29}{}}
\@writefile{lof}{\contentsline {figure}{\numberline {3.2}{\ignorespaces Simplification du r\IeC {\'e}seau de tenseurs}}{55}{figure.caption.30}}
\newlabel{fig:cpc8bits_simp}{{3.2}{55}{Simplification du réseau de tenseurs}{figure.caption.30}{}}
\@writefile{lof}{\contentsline {figure}{\numberline {3.3}{\ignorespaces Structure d'arbre avec des feuilles connect\IeC {\'e}es}}{56}{figure.caption.31}}
\newlabel{fig:arbre_tn}{{3.3}{56}{Structure d'arbre avec des feuilles connectées}{figure.caption.31}{}}
\@writefile{toc}{\contentsline {section}{\numberline {3.5}S\IeC {\'e}lection des bits gel\IeC {\'e}s}{60}{section.3.5}}
\newlabel{eq:algo_gele}{{3.23}{61}{Sélection des bits gelés}{equation.3.5.23}{}}
\@writefile{toc}{\contentsline {chapter}{\numberline {4}R\IeC {\'e}sultats et analyse}{62}{chapter.4}}
\@writefile{lof}{\addvspace {10\p@ }}
\@writefile{lot}{\addvspace {10\p@ }}
\@writefile{loa}{\addvspace {10\p@ }}
\@writefile{toc}{\contentsline {section}{\numberline {4.1}Simulations}{62}{section.4.1}}
\@writefile{toc}{\contentsline {section}{\numberline {4.2}R\IeC {\'e}sultats}{63}{section.4.2}}
\citation{ferris_branching_2013}
\citation{ferris_convolutional_2017}
\citation{prinz_successive_2018-1}
\citation{ferris_branching_2013}
\citation{ferris_convolutional_2017}
\@writefile{lot}{\contentsline {table}{\numberline {4.1}{\ignorespaces Diff\IeC {\'e}rents param\IeC {\`e}tres pour les canaux \IeC {\'e}tudi\IeC {\'e}s dans la figure \ref  {fig:plots} \rm  a), c) et d) o\IeC {\`u} le ratio $\rho = 5$.\relax }}{64}{table.caption.32}}
\newlabel{noise_param}{{4.1}{64}{Différents paramètres pour les canaux étudiés dans la figure \ref {fig:plots} \rm a), c) et d) où le ratio $\rho = 5$.\relax }{table.caption.32}{}}
\@writefile{toc}{\contentsline {section}{\numberline {4.3}Analyse}{64}{section.4.3}}
\@writefile{lof}{\contentsline {figure}{\numberline {4.1}{\ignorespaces Pr\IeC {\'e}sentation des r\IeC {\'e}sultats}}{65}{figure.caption.33}}
\newlabel{fig:plots}{{4.1}{65}{Présentation des résultats}{figure.caption.33}{}}
\@writefile{toc}{\contentsline {chapter}{Conclusion}{66}{section.4.3}}
\@writefile{toc}{\contentsline {chapter}{\numberline {A}Cha\IeC {\^\i }nes de Markov}{68}{appendix.A}}
\@writefile{lof}{\addvspace {10\p@ }}
\@writefile{lot}{\addvspace {10\p@ }}
\@writefile{loa}{\addvspace {10\p@ }}
\newlabel{markov}{{A}{68}{Chaînes de Markov}{appendix.A}{}}
\@writefile{lof}{\contentsline {figure}{\numberline {A.1}{\ignorespaces Processus de Markov}}{71}{figure.caption.35}}
\newlabel{fig:markov}{{A.1}{71}{Processus de Markov}{figure.caption.35}{}}
\@writefile{toc}{\contentsline {chapter}{\numberline {B}Calcul de la capacit\IeC {\'e} du canal de Gilbert-Elliott}{72}{appendix.B}}
\@writefile{lof}{\addvspace {10\p@ }}
\@writefile{lot}{\addvspace {10\p@ }}
\@writefile{loa}{\addvspace {10\p@ }}
\bibstyle{plain}
\bibdata{biblio}
\@writefile{toc}{\contentsline {chapter}{Bibliographie}{73}{equation.B.0.3}}
\bibcite{arad_quantum_2008}{1}
\bibcite{arikan_source_2010}{2}
\bibcite{arikan_channel_2009}{3}
\bibcite{arnold_computing_2003}{4}
\bibcite{berrou_codes_2010}{5}
\bibcite{bioglio_design_2018}{6}
\bibcite{blackwell_proof_1958}{7}
\bibcite{bourassa_convolutional_2018}{8}
\bibcite{bravyi}{9}
\bibcite{bridgeman_hand-waving_2017}{10}
\bibcite{cover_elements_2006}{11}
\bibcite{darmawan_2017}{12}
\bibcite{darmawan_2018}{13}
\bibcite{elliott_estimates_1963}{14}
\bibcite{evenbly_class_2014}{15}
\bibcite{ferris_branching_2013}{16}
\bibcite{ferris_tensor_2014}{17}
\bibcite{ferris_convolutional_2017}{18}
\bibcite{gallager_information_1968}{19}
\bibcite{gilbert_capacity_1960}{20}
\bibcite{goldsmith_capacity_1996}{21}
\bibcite{hamming_error_1950}{22}
\bibcite{lin_error_2004}{23}
\bibcite{macwilliams_theory_1977}{24}
\bibcite{markov_simulating_2008}{25}
\bibcite{Morozov2018}{26}
\bibcite{mushkin_capacity_1989}{27}
\bibcite{orus_practical_2014}{28}
\bibcite{Pastawski2015}{29}
\bibcite{mpo}{30}
\bibcite{poulin_quantum_2011}{31}
\bibcite{prinz_successive_2018-1}{32}
\bibcite{rezaeian_computation_2005}{33}
\bibcite{rice_k-band_1996}{34}
\bibcite{sasoglu_polar_2016}{35}
\bibcite{shannon_mathematical_nodate}{36}
\bibcite{shi_classical_2006}{37}
\bibcite{stoudenmire_supervised_2016}{38}
\bibcite{tremblay_depth_2018}{39}
\bibcite{wang_construction_2015}{40}
\bibcite{yee_evaluation_1995}{41}
\bibcite{yun_q.shi_interleaving_2004}{42}
\bibcite{sasoglu_polarization_2011-1}{43}
\bibcite{sasoglu_polarization_2011}{44}
