# Fdb version 3
["bibtex memoire"] 1548234136 "memoire.aux" "memoire.bbl" "memoire" 1548253937
  "/usr/share/texlive/texmf-dist/bibtex/bst/base/plain.bst" 1480098433 20613 bd3fbfa9f64872b81ac57a0dd2ed855f ""
  "biblio.bib" 1547842453 99988 855b72775745f3703466b42e7f40750d ""
  "memoire.aux" 1548253828 20256 18b8fe9139ce12bfc52102973bbc264a ""
  "memoire.bcf" 0 -1 0 ""
  (generated)
  "memoire.blg"
  "memoire.bbl"
["pdflatex"] 1548253825 "memoire.tex" "/home/ben/Dropbox/mémoire/memoire.pdf" "memoire" 1548253937
  "./figs/0.pdf" 1539640202 2334 693930fed4df22c605d7f704d3f97e36 ""
  "./figs/0_simplification.pdf" 1539658844 2002 529bfd0fda2294385bfcd1f8cb0b6c76 ""
  "./figs/1.pdf" 1539640244 2198 c7925698dd1d24d9cca53932f47f2ce8 ""
  "./figs/1_simplification.pdf" 1539658734 1863 fdfb179d7bced24311b8c83cbede4baf ""
  "./figs/2layers.pdf" 1539626441 17914 1804a1475e1bcfb2d552a20224417249 ""
  "./figs/2layersconv.pdf" 1539626662 4504 3ca9905594be6c1759d0ffecf80ceb7a ""
  "./figs/algo_gele.pdf" 1540482176 10151 27025d646324cc3c233b6a2615a1691b ""
  "./figs/bad_escalier_contract.pdf" 1539547251 8685 186bd3a412b5af02ec733236b681868a ""
  "./figs/bec.pdf" 1539114104 6241 0d1e375c4c38e48b44c35857c5607ff7 ""
  "./figs/bon_cnot.pdf" 1539639960 2330 a77bd7a8303b47d72774dd76e3f54300 ""
  "./figs/bsc.pdf" 1539114094 5870 f8fe00f5d603ebbb5a48b46b132958b5 ""
  "./figs/canal_2_etats.pdf" 1541540309 4471 6c1eaca452bec6789cd0d6a36a310360 ""
  "./figs/canal_binaire.pdf" 1541537129 2222 f0001d04ad8f25df42c287306847671d ""
  "./figs/canal_binaire_ex.pdf" 1541537268 1615 4519cfdee8107c7919d5da28a1491aaa ""
  "./figs/canal_iid.pdf" 1541537792 11268 8145a5a3d7d94aba0b6bc56b4ac0dd2e ""
  "./figs/canal_mauvais.pdf" 1539115691 2205 a52417b9d08e71ce23005416e5690963 ""
  "./figs/canal_parfait.pdf" 1539115363 2357 ba14498df4550011195a244ed5cdce58 ""
  "./figs/chaine_markov.pdf" 1540327428 17970 b73b8de58f0c5ee01d4dfcc8e844a722 ""
  "./figs/circuit_construction.pdf" 1541521877 11861 c490b8f4274545ae87792372f766584a ""
  "./figs/cnot.pdf" 1527692406 10364 7d71dcda8669828889c1c89384aa4bfc ""
  "./figs/communication.pdf" 1538756381 9655 00a25a9dc5cbd74c38f4c781c9e87d26 ""
  "./figs/contract_6.pdf" 1540842460 7621 3c7124418d12386096a894ba087b1211 ""
  "./figs/contract_noise.pdf" 1540827841 1485 3696a6ff3d4014f752891d01a38defe2 ""
  "./figs/contraction.pdf" 1541527765 2490 d0f41d51be781bf07dd301a489a4862d ""
  "./figs/corr.pdf" 1541539719 7728 f5015e90259c989fea9bdbfae8ab69f4 ""
  "./figs/cpc-8bits.pdf" 1539626540 8710 c917991496b671b18ba841c0ef47e4de ""
  "./figs/density.pdf" 1539718184 3643 bb7faccad702e910a3cc35a9b45ea68e ""
  "./figs/e.pdf" 1539701756 2133 341e81b22dbc4d9f06719c6344574970 ""
  "./figs/e_simplification.pdf" 1539658318 1956 ff0bae302db8a50f660fdfd61b0bce04 ""
  "./figs/enc_noise.pdf" 1539792329 9881 3e87ccc77f8e15656b7499e76b20585f ""
  "./figs/encodage.pdf" 1539655700 3841 b8c3698ba7dfd79243e9cd8a27a2468f ""
  "./figs/encodage_tn.pdf" 1539798101 10341 3a3e70c7f9b5f60521e35b95b7ed6f7a ""
  "./figs/eqthree.pdf" 1541548813 14703 0a91559f5c86b155d107393ab2dc7006 ""
  "./figs/escalier.pdf" 1539545966 1666 3d3543bd0095d9bfdcdf145b65e35973 ""
  "./figs/fsc_markov_tn.pdf" 1538506163 9134 620094fd8e6ce83b27b1d050e55f552b ""
  "./figs/fsc_tn.pdf" 1538505697 20893 e6403869f52257b88427b308d288198e ""
  "./figs/good_escalier_contract.pdf" 1539548313 11413 b551521eaaa23745f14ac114cc7a48f8 ""
  "./figs/hamming.pdf" 1533652003 8661 b7aa907e40e851a4f2c6171708ff635f ""
  "./figs/left_state.pdf" 1538575487 5884 4d6fdb07c8652332451b0af8fbe465c2 ""
  "./figs/mauvais_cnot.pdf" 1539639943 2311 332f65492ada820eb7b1b830e8544e19 ""
  "./figs/modeleGE.pdf" 1539200875 8897 31d118dfa220ba17f48148c02228f271 ""
  "./figs/permute.pdf" 1539376143 3004 342f62fbf456d8c45d84f9d6821a1313 ""
  "./figs/plots.pdf" 1540911077 25625 61ca4dbe6c0e03d7eb80b851ba1e7a09 ""
  "./figs/proba.pdf" 1539718213 10594 d6af49382b2994039a055446c14de729 ""
  "./figs/qthree.pdf" 1541548408 7842 469caf00c702ad22979938b449c7843d ""
  "./figs/reshape.pdf" 1539376613 2643 cf265fdba6f3eaf9a115f23a66fd5e60 ""
  "./figs/right_state.pdf" 1541538949 2135 0d0c71222b2fad17144ed7d0319f75f9 ""
  "./figs/sorted_pol_4layers.pdf" 1542829111 45052 fd0b4b61781fa0891537f9d509ab17d7 ""
  "./figs/sorted_pol_8layers.pdf" 1542829056 268991 e0a15a62cb1ccdafca7355047fc76c91 ""
  "./figs/sous_couche_cpc.pdf" 1538770849 2613 96c212dec8c2a9141ebb5e03a7f27248 ""
  "./figs/sous_couche_pc.pdf" 1538770742 2007 4931377c34a8d50d18904db5f2977d3a ""
  "./figs/tenseur.pdf" 1535741903 1104 adc18bdd7f9a00a6d252e2fee25ea7ad ""
  "./figs/venn_diagram.pdf" 1527606039 19774 f0b1dae0222e685431f43ff15e4245b8 ""
  "/etc/texmf/web2c/texmf.cnf" 1513872268 1101 af7716885e081ab43982cab7b4672c1a ""
  "/home/ben/Dropbox/mémoire/memoire.aux" 1548253828 20256 18b8fe9139ce12bfc52102973bbc264a ""
  "/usr/share/texlive/texmf-dist/fonts/map/fontname/texfonts.map" 1511824771 3332 103109f5612ad95229751940c61aada0 ""
  "/usr/share/texlive/texmf-dist/fonts/tfm/jknappen/ec/ecrm1200.tfm" 1480098696 3584 f80ddd985bd00e29e9a6047ebd9d4781 ""
  "/usr/share/texlive/texmf-dist/fonts/tfm/jknappen/ec/ecss1200.tfm" 1480098696 3584 db562fb1d1c474cc55f0ce8a1dd94fe7 ""
  "/usr/share/texlive/texmf-dist/fonts/tfm/jknappen/ec/ecss1440.tfm" 1480098696 3584 861af00b50f6fb3ae4544a29a04a7577 ""
  "/usr/share/texlive/texmf-dist/fonts/tfm/jknappen/ec/ecss1728.tfm" 1480098696 3584 18bb954c8c3b95c57368f4d9f3439ce6 ""
  "/usr/share/texlive/texmf-dist/fonts/tfm/jknappen/ec/ecss2488.tfm" 1480098696 3584 35554f1c76e12d64b184420fc7dc5758 ""
  "/usr/share/texlive/texmf-dist/fonts/tfm/public/amsfonts/cmextra/cmbsy5.tfm" 1480098698 1120 1e8878807317373affa7f7bba4cf2f6a ""
  "/usr/share/texlive/texmf-dist/fonts/tfm/public/amsfonts/cmextra/cmbsy6.tfm" 1480098698 1124 14ccf5552bc7f77ca02a8a402bea8bfb ""
  "/usr/share/texlive/texmf-dist/fonts/tfm/public/amsfonts/cmextra/cmbsy7.tfm" 1480098698 1120 7f9f170e8aa57527ad6c49feafd45d54 ""
  "/usr/share/texlive/texmf-dist/fonts/tfm/public/amsfonts/cmextra/cmbsy8.tfm" 1480098698 1120 200be8b775682cdf80acad4be5ef57e4 ""
  "/usr/share/texlive/texmf-dist/fonts/tfm/public/amsfonts/cmextra/cmex7.tfm" 1480098698 1004 54797486969f23fa377b128694d548df ""
  "/usr/share/texlive/texmf-dist/fonts/tfm/public/amsfonts/cmextra/cmex8.tfm" 1480098698 988 bdf658c3bfc2d96d3c8b02cfc1c94c20 ""
  "/usr/share/texlive/texmf-dist/fonts/tfm/public/amsfonts/cmextra/cmmib5.tfm" 1480098698 1496 c79f6914c6d39ffb3759967363d1be79 ""
  "/usr/share/texlive/texmf-dist/fonts/tfm/public/amsfonts/cmextra/cmmib6.tfm" 1480098698 1516 a3bf6a5e7ec4401b1f52092dfaaed242 ""
  "/usr/share/texlive/texmf-dist/fonts/tfm/public/amsfonts/cmextra/cmmib7.tfm" 1480098698 1508 6e807ff901c35a5f1fde0ca275533df8 ""
  "/usr/share/texlive/texmf-dist/fonts/tfm/public/amsfonts/cmextra/cmmib8.tfm" 1480098698 1528 dab402b9d3774ca98baa037071cee7ae ""
  "/usr/share/texlive/texmf-dist/fonts/tfm/public/amsfonts/symbols/msam10.tfm" 1480098698 916 f87d7c45f9c908e672703b83b72241a3 ""
  "/usr/share/texlive/texmf-dist/fonts/tfm/public/amsfonts/symbols/msam5.tfm" 1480098698 924 9904cf1d39e9767e7a3622f2a125a565 ""
  "/usr/share/texlive/texmf-dist/fonts/tfm/public/amsfonts/symbols/msam7.tfm" 1480098698 928 2dc8d444221b7a635bb58038579b861a ""
  "/usr/share/texlive/texmf-dist/fonts/tfm/public/amsfonts/symbols/msbm10.tfm" 1480098698 908 2921f8a10601f252058503cc6570e581 ""
  "/usr/share/texlive/texmf-dist/fonts/tfm/public/amsfonts/symbols/msbm5.tfm" 1480098698 940 75ac932a52f80982a9f8ea75d03a34cf ""
  "/usr/share/texlive/texmf-dist/fonts/tfm/public/amsfonts/symbols/msbm7.tfm" 1480098698 940 228d6584342e91276bf566bcf9716b83 ""
  "/usr/share/texlive/texmf-dist/fonts/tfm/public/cm/cmbsy10.tfm" 1480098701 1116 4e6ba9d7914baa6482fd69f67d126380 ""
  "/usr/share/texlive/texmf-dist/fonts/tfm/public/cm/cmbx10.tfm" 1480098701 1328 c834bbb027764024c09d3d2bf908b5f0 ""
  "/usr/share/texlive/texmf-dist/fonts/tfm/public/cm/cmbx12.tfm" 1480098701 1324 c910af8c371558dc20f2d7822f66fe64 ""
  "/usr/share/texlive/texmf-dist/fonts/tfm/public/cm/cmbx5.tfm" 1480098701 1332 f817c21a1ba54560425663374f1b651a ""
  "/usr/share/texlive/texmf-dist/fonts/tfm/public/cm/cmbx6.tfm" 1480098701 1344 8a0be4fe4d376203000810ad4dc81558 ""
  "/usr/share/texlive/texmf-dist/fonts/tfm/public/cm/cmbx7.tfm" 1480098701 1336 3125ccb448c1a09074e3aa4a9832f130 ""
  "/usr/share/texlive/texmf-dist/fonts/tfm/public/cm/cmbx8.tfm" 1480098701 1332 1fde11373e221473104d6cc5993f046e ""
  "/usr/share/texlive/texmf-dist/fonts/tfm/public/cm/cmex10.tfm" 1480098701 992 662f679a0b3d2d53c1b94050fdaa3f50 ""
  "/usr/share/texlive/texmf-dist/fonts/tfm/public/cm/cmmi10.tfm" 1480098701 1528 abec98dbc43e172678c11b3b9031252a ""
  "/usr/share/texlive/texmf-dist/fonts/tfm/public/cm/cmmi12.tfm" 1480098701 1524 4414a8315f39513458b80dfc63bff03a ""
  "/usr/share/texlive/texmf-dist/fonts/tfm/public/cm/cmmi6.tfm" 1480098701 1512 f21f83efb36853c0b70002322c1ab3ad ""
  "/usr/share/texlive/texmf-dist/fonts/tfm/public/cm/cmmi8.tfm" 1480098701 1520 eccf95517727cb11801f4f1aee3a21b4 ""
  "/usr/share/texlive/texmf-dist/fonts/tfm/public/cm/cmmib10.tfm" 1480098701 1524 554068197b70979a55370e6c6495f441 ""
  "/usr/share/texlive/texmf-dist/fonts/tfm/public/cm/cmr10.tfm" 1480098701 1296 45809c5a464d5f32c8f98ba97c1bb47f ""
  "/usr/share/texlive/texmf-dist/fonts/tfm/public/cm/cmr12.tfm" 1480098701 1288 655e228510b4c2a1abe905c368440826 ""
  "/usr/share/texlive/texmf-dist/fonts/tfm/public/cm/cmr6.tfm" 1480098701 1300 b62933e007d01cfd073f79b963c01526 ""
  "/usr/share/texlive/texmf-dist/fonts/tfm/public/cm/cmr8.tfm" 1480098701 1292 21c1c5bfeaebccffdb478fd231a0997d ""
  "/usr/share/texlive/texmf-dist/fonts/tfm/public/cm/cmsy10.tfm" 1480098701 1124 6c73e740cf17375f03eec0ee63599741 ""
  "/usr/share/texlive/texmf-dist/fonts/tfm/public/cm/cmsy6.tfm" 1480098701 1116 933a60c408fc0a863a92debe84b2d294 ""
  "/usr/share/texlive/texmf-dist/fonts/tfm/public/cm/cmsy8.tfm" 1480098701 1120 8b7d695260f3cff42e636090a8002094 ""
  "/usr/share/texlive/texmf-dist/fonts/tfm/public/rsfs/rsfs10.tfm" 1480098717 688 37338d6ab346c2f1466b29e195316aa4 ""
  "/usr/share/texlive/texmf-dist/fonts/tfm/public/rsfs/rsfs5.tfm" 1480098717 684 3a51bd4fd9600428d5264cf25f04bb9a ""
  "/usr/share/texlive/texmf-dist/fonts/tfm/public/rsfs/rsfs7.tfm" 1480098717 692 1b6510779f0f05e9cbf03e0f6c8361e6 ""
  "/usr/share/texlive/texmf-dist/fonts/type1/public/amsfonts/cm/cmex10.pfb" 1480098733 30251 6afa5cb1d0204815a708a080681d4674 ""
  "/usr/share/texlive/texmf-dist/fonts/type1/public/amsfonts/cm/cmmi10.pfb" 1480098733 36299 5f9df58c2139e7edcf37c8fca4bd384d ""
  "/usr/share/texlive/texmf-dist/fonts/type1/public/amsfonts/cm/cmmi12.pfb" 1480098733 36741 fa121aac0049305630cf160b86157ee4 ""
  "/usr/share/texlive/texmf-dist/fonts/type1/public/amsfonts/cm/cmmi6.pfb" 1480098733 37166 8ab3487cbe3ab49ebce74c29ea2418db ""
  "/usr/share/texlive/texmf-dist/fonts/type1/public/amsfonts/cm/cmmi7.pfb" 1480098733 36281 c355509802a035cadc5f15869451dcee ""
  "/usr/share/texlive/texmf-dist/fonts/type1/public/amsfonts/cm/cmmi8.pfb" 1480098733 35469 70d41d2b9ea31d5d813066df7c99281c ""
  "/usr/share/texlive/texmf-dist/fonts/type1/public/amsfonts/cm/cmr10.pfb" 1480098733 35752 024fb6c41858982481f6968b5fc26508 ""
  "/usr/share/texlive/texmf-dist/fonts/type1/public/amsfonts/cm/cmr12.pfb" 1480098733 32722 d7379af29a190c3f453aba36302ff5a9 ""
  "/usr/share/texlive/texmf-dist/fonts/type1/public/amsfonts/cm/cmr6.pfb" 1480098733 32734 69e00a6b65cedb993666e42eedb3d48f ""
  "/usr/share/texlive/texmf-dist/fonts/type1/public/amsfonts/cm/cmr7.pfb" 1480098733 32762 224316ccc9ad3ca0423a14971cfa7fc1 ""
  "/usr/share/texlive/texmf-dist/fonts/type1/public/amsfonts/cm/cmr8.pfb" 1480098733 32726 0a1aea6fcd6468ee2cf64d891f5c43c8 ""
  "/usr/share/texlive/texmf-dist/fonts/type1/public/amsfonts/cm/cmsy10.pfb" 1480098733 32569 5e5ddc8df908dea60932f3c484a54c0d ""
  "/usr/share/texlive/texmf-dist/fonts/type1/public/amsfonts/cm/cmsy6.pfb" 1480098733 32587 1788b0c1c5b39540c96f5e42ccd6dae8 ""
  "/usr/share/texlive/texmf-dist/fonts/type1/public/amsfonts/cm/cmsy7.pfb" 1480098733 32716 08e384dc442464e7285e891af9f45947 ""
  "/usr/share/texlive/texmf-dist/fonts/type1/public/amsfonts/cm/cmsy8.pfb" 1480098733 32626 4f5c1b83753b1dd3a97d1b399a005b4b ""
  "/usr/share/texlive/texmf-dist/fonts/type1/public/amsfonts/symbols/msbm10.pfb" 1480098734 34694 ad62b13721ee8eda1dcc8993c8bd7041 ""
  "/usr/share/texlive/texmf-dist/fonts/type1/public/rsfs/rsfs10.pfb" 1480098744 16077 4737ac34f0fb5608550f3780a0202c22 ""
  "/usr/share/texlive/texmf-dist/tex/context/base/mkii/supp-pdf.mkii" 1480098806 71627 94eb9990bed73c364d7f53f960cc8c5b ""
  "/usr/share/texlive/texmf-dist/tex/generic/babel-french/french.ldf" 1517780329 65383 41122389b773143b8838359cdbd9aa14 ""
  "/usr/share/texlive/texmf-dist/tex/generic/babel/babel.def" 1518644053 67244 2dce3d67c354c8d92f638d0f8682fb73 ""
  "/usr/share/texlive/texmf-dist/tex/generic/babel/babel.sty" 1518644053 15861 065fe343082d0cd2428cf984d6b2ef66 ""
  "/usr/share/texlive/texmf-dist/tex/generic/babel/switch.def" 1518644053 12523 d80bc74bf5e02fe4304443a6de8d01be ""
  "/usr/share/texlive/texmf-dist/tex/generic/babel/txtbabel.def" 1518644053 7434 1b3955075683beb1c883a0fcf92ed2d5 ""
  "/usr/share/texlive/texmf-dist/tex/generic/ifxetex/ifxetex.sty" 1480098815 1458 43ab4710dc82f3edeabecd0d099626b2 ""
  "/usr/share/texlive/texmf-dist/tex/generic/oberdiek/gettitlestring.sty" 1480098815 8237 3b62ef1f7e2c23a328c814b3893bc11f ""
  "/usr/share/texlive/texmf-dist/tex/generic/oberdiek/hobsub-generic.sty" 1517006633 185082 6c11d4e30ed78e2a12957b7e77030856 ""
  "/usr/share/texlive/texmf-dist/tex/generic/oberdiek/hobsub-hyperref.sty" 1480098815 70864 bcd5b216757bd619ae692a151d90085d ""
  "/usr/share/texlive/texmf-dist/tex/generic/oberdiek/ifluatex.sty" 1480098815 7324 2310d1247db0114eb4726807c8837a0e ""
  "/usr/share/texlive/texmf-dist/tex/generic/oberdiek/se-pdfdoc.def" 1480098815 5005 8b43cdae0e9306c67c5c3e4195c67dfc ""
  "/usr/share/texlive/texmf-dist/tex/generic/oberdiek/stringenc.sty" 1480098815 21411 4c6135fd98dd4f5499becbfc9a323deb ""
  "/usr/share/texlive/texmf-dist/tex/generic/pdftex/glyphtounicode.tex" 1480098815 216747 92ec6cf8e39216b4894417b5aa6f057a ""
  "/usr/share/texlive/texmf-dist/tex/latex/algorithm2e/algorithm2e.sty" 1500498588 167160 d91cee26d3ef5727644d2110445741dd ""
  "/usr/share/texlive/texmf-dist/tex/latex/amsfonts/amsfonts.sty" 1480098820 5949 3f3fd50a8cc94c3d4cbf4fc66cd3df1c ""
  "/usr/share/texlive/texmf-dist/tex/latex/amsfonts/umsa.fd" 1480098820 961 6518c6525a34feb5e8250ffa91731cff ""
  "/usr/share/texlive/texmf-dist/tex/latex/amsfonts/umsb.fd" 1480098820 961 d02606146ba5601b5645f987c92e6193 ""
  "/usr/share/texlive/texmf-dist/tex/latex/amsmath/amsbsy.sty" 1480098820 2210 5c54ab129b848a5071554186d0168766 ""
  "/usr/share/texlive/texmf-dist/tex/latex/amsmath/amsgen.sty" 1480098820 4160 c115536cf8d4ff25aa8c1c9bc4ecb79a ""
  "/usr/share/texlive/texmf-dist/tex/latex/amsmath/amsmath.sty" 1504905757 84352 897a476d96a0681047a5b0f91178a3d2 ""
  "/usr/share/texlive/texmf-dist/tex/latex/amsmath/amsopn.sty" 1480098820 4115 318a66090112f3aa3f415aeb6fe8540f ""
  "/usr/share/texlive/texmf-dist/tex/latex/amsmath/amstext.sty" 1480098820 2431 fe3078ec12fc30287f568596f8e0b948 ""
  "/usr/share/texlive/texmf-dist/tex/latex/base/bk12.clo" 1480098821 8139 b9d9424b409fe55c665eac87eba27e54 ""
  "/usr/share/texlive/texmf-dist/tex/latex/base/book.cls" 1480098821 22945 7df8250bf76418cf651c357d3631fbc3 ""
  "/usr/share/texlive/texmf-dist/tex/latex/base/fontenc.sty" 1492297155 4571 13977df0eda144b93597fc709035ad1f ""
  "/usr/share/texlive/texmf-dist/tex/latex/base/ifthen.sty" 1480098821 5159 a08c9bbd48fc492f15b22e458bef961f ""
  "/usr/share/texlive/texmf-dist/tex/latex/base/inputenc.sty" 1480098821 4732 d63eda807ac82cca2ca8488efd31a966 ""
  "/usr/share/texlive/texmf-dist/tex/latex/base/omsenc.dfu" 1487721667 2004 ac51aeac484f08c01026120d62677eca ""
  "/usr/share/texlive/texmf-dist/tex/latex/base/ot1enc.dfu" 1487721667 3181 1cb3e9ad01f4a01127b2ffd821bfeec7 ""
  "/usr/share/texlive/texmf-dist/tex/latex/base/t1cmss.fd" 1480098821 2408 9332529df2b0aa93e638793f315828fc ""
  "/usr/share/texlive/texmf-dist/tex/latex/base/t1enc.def" 1492297155 10006 a90ba4035cf778f32f424e297d92e235 ""
  "/usr/share/texlive/texmf-dist/tex/latex/base/t1enc.dfu" 1487721667 11255 9d97362866549d3d3c994b5f28d1b9b5 ""
  "/usr/share/texlive/texmf-dist/tex/latex/base/utf8.def" 1487721667 7784 325a2a09984cb5c4ff230f9867145ad3 ""
  "/usr/share/texlive/texmf-dist/tex/latex/braket/braket.sty" 1480098823 3601 193635d942bc4777a5acaaeeffdce692 ""
  "/usr/share/texlive/texmf-dist/tex/latex/caption/caption.sty" 1480098823 66233 8b81cfab95a1f8fc2f0f6c89415b087a ""
  "/usr/share/texlive/texmf-dist/tex/latex/caption/caption3.sty" 1480098823 64866 1ea74c5f2d1685881497f021b8f186b2 ""
  "/usr/share/texlive/texmf-dist/tex/latex/carlisle/scalefnt.sty" 1480098823 1360 df2086bf924b14b72d6121fe9502fcdb ""
  "/usr/share/texlive/texmf-dist/tex/latex/fancybox/fancybox.sty" 1480098827 27261 5ae6156674330dc345adb79b6e5d8966 ""
  "/usr/share/texlive/texmf-dist/tex/latex/geometry/geometry.sty" 1480098829 40502 e003406220954b0716679d7928aedd8a ""
  "/usr/share/texlive/texmf-dist/tex/latex/graphics-cfg/color.cfg" 1480098830 1213 620bba36b25224fa9b7e1ccb4ecb76fd ""
  "/usr/share/texlive/texmf-dist/tex/latex/graphics-cfg/graphics.cfg" 1480098830 1224 978390e9c2234eab29404bc21b268d1e ""
  "/usr/share/texlive/texmf-dist/tex/latex/graphics-def/pdftex.def" 1515537368 17334 520b9b85ad8a2a48eda3f643e27a5179 ""
  "/usr/share/texlive/texmf-dist/tex/latex/graphics/graphics.sty" 1498427532 15275 7d676729b1bedd3e7f3c6717affb366c ""
  "/usr/share/texlive/texmf-dist/tex/latex/graphics/graphicx.sty" 1498427532 9066 649f2ccf62888e3d8c3e57256b70b8e1 ""
  "/usr/share/texlive/texmf-dist/tex/latex/graphics/keyval.sty" 1480098830 2594 d18d5e19aa8239cf867fa670c556d2e9 ""
  "/usr/share/texlive/texmf-dist/tex/latex/graphics/trig.sty" 1480098830 3980 0a268fbfda01e381fa95821ab13b6aee ""
  "/usr/share/texlive/texmf-dist/tex/latex/hyperref/hpdftex.def" 1518041854 51699 9069fc983fff0db91d59a15af144ad62 ""
  "/usr/share/texlive/texmf-dist/tex/latex/hyperref/hyperref.sty" 1518041854 234088 2c849389d62d41c593d9f5176c4116ab ""
  "/usr/share/texlive/texmf-dist/tex/latex/hyperref/nameref.sty" 1480098831 12949 81e4e808884a8f0e276b69410e234656 ""
  "/usr/share/texlive/texmf-dist/tex/latex/hyperref/pd1enc.def" 1518041854 14098 4e70bf396c7c265bd8b0e5cab3fd3d4d ""
  "/usr/share/texlive/texmf-dist/tex/latex/hyperref/psdextra.def" 1518041854 37360 753ee18af731d058a9ccd35ca1466bae ""
  "/usr/share/texlive/texmf-dist/tex/latex/hyperref/puenc.def" 1518041854 122411 10b605a58a28bbe5d61db37da4a85beb ""
  "/usr/share/texlive/texmf-dist/tex/latex/ifoddpage/ifoddpage.sty" 1480098831 2148 0426cd8bb94163c1e23726d0c15e2c21 ""
  "/usr/share/texlive/texmf-dist/tex/latex/jknapltx/mathrsfs.sty" 1480098831 300 12fa6f636b617656f2810ee82cb05015 ""
  "/usr/share/texlive/texmf-dist/tex/latex/jknapltx/ursfs.fd" 1480098831 548 cc4e3557704bfed27c7002773fad6c90 ""
  "/usr/share/texlive/texmf-dist/tex/latex/koma-script/scrpage2.sty" 1505340412 40220 6694ac980f526e56975c61fca4fd0a46 ""
  "/usr/share/texlive/texmf-dist/tex/latex/latexconfig/epstopdf-sys.cfg" 1480098833 678 4792914a8f45be57bb98413425e4c7af ""
  "/usr/share/texlive/texmf-dist/tex/latex/latexconfig/hyperref.cfg" 1480098833 235 6031e5765137be07eed51a510b2b8fb7 ""
  "/usr/share/texlive/texmf-dist/tex/latex/microtype/microtype-pdftex.def" 1516054892 48846 b8c9ed2ca71a7e344e0f79f738d33d61 ""
  "/usr/share/texlive/texmf-dist/tex/latex/microtype/microtype.cfg" 1516054892 24263 58b62b9b15af10c2a301a884405289a4 ""
  "/usr/share/texlive/texmf-dist/tex/latex/microtype/microtype.sty" 1516054892 71031 8c1efead07338247d562f79303165b66 ""
  "/usr/share/texlive/texmf-dist/tex/latex/microtype/mt-cmr.cfg" 1516054892 22870 180ea2dc1e81d6b0ff570aa0250865ae ""
  "/usr/share/texlive/texmf-dist/tex/latex/microtype/mt-msa.cfg" 1516054892 5893 b1115f9ad37c7e9840952f06293b6f67 ""
  "/usr/share/texlive/texmf-dist/tex/latex/microtype/mt-msb.cfg" 1516054892 5558 dabcbec7f6275abd8697b8330d706a08 ""
  "/usr/share/texlive/texmf-dist/tex/latex/microtype/mt-ppl.cfg" 1516054892 6338 386e877f0677973bec9f202c717f342a ""
  "/usr/share/texlive/texmf-dist/tex/latex/oberdiek/auxhook.sty" 1480098836 3834 4363110eb0ef1eb2b71c8fcbcdb6c357 ""
  "/usr/share/texlive/texmf-dist/tex/latex/oberdiek/epstopdf-base.sty" 1480098836 12095 5337833c991d80788a43d3ce26bd1c46 ""
  "/usr/share/texlive/texmf-dist/tex/latex/oberdiek/grfext.sty" 1480098836 7075 2fe3d848bba95f139de11ded085e74aa ""
  "/usr/share/texlive/texmf-dist/tex/latex/oberdiek/kvoptions.sty" 1480098836 22417 1d9df1eb66848aa31b18a593099cf45c ""
  "/usr/share/texlive/texmf-dist/tex/latex/oberdiek/rerunfilecheck.sty" 1480098836 9581 023642318cef9f4677efe364de1e2a27 ""
  "/usr/share/texlive/texmf-dist/tex/latex/pdfx/8bit.def" 1480098837 5962 2aa7a2da2d9394f9da33cf2a55c50b0a ""
  "/usr/share/texlive/texmf-dist/tex/latex/pdfx/AdobeColorProfiles.tex" 1480098837 15733 9b9f68c034cc81527a5c2b0162f322e3 ""
  "/usr/share/texlive/texmf-dist/tex/latex/pdfx/glyphtounicode-cmr.tex" 1480098837 11885 489d9d2b52f284b3aa9bd3bc5f49597c ""
  "/usr/share/texlive/texmf-dist/tex/latex/pdfx/l8uenc.def" 1495143880 162974 2b29772244c6a903d39a05ac5de0187c ""
  "/usr/share/texlive/texmf-dist/tex/latex/pdfx/pdfa.xmp" 1480098837 14437 342502a726576ec1046fd0319ddb2f29 ""
  "/usr/share/texlive/texmf-dist/tex/latex/pdfx/pdfx.sty" 1495143880 69200 60b4d5e119bfc7e70678aa466f829654 ""
  "/usr/share/texlive/texmf-dist/tex/latex/pdfx/sRGB_IEC61966-2-1_black_scaled.icc" 1496184133 3048 060e79448f1454582be37b3de490da2f ""
  "/usr/share/texlive/texmf-dist/tex/latex/relsize/relsize.sty" 1480098838 15542 c4cc3164fe24f2f2fbb06eb71b1da4c4 ""
  "/usr/share/texlive/texmf-dist/tex/latex/setspace/setspace.sty" 1480098838 22913 a27d7908fc6f0385466454a966a316eb ""
  "/usr/share/texlive/texmf-dist/tex/latex/subfig/subfig.sty" 1480098839 21369 9ef165ca6df8815c92e693146a376c92 ""
  "/usr/share/texlive/texmf-dist/tex/latex/titlesec/titlesec.sty" 1480098841 37387 afa86533e532701faf233f3f592c61e0 ""
  "/usr/share/texlive/texmf-dist/tex/latex/tools/array.sty" 1485129666 12396 d41f82b039f900e95f351e54ae740f31 ""
  "/usr/share/texlive/texmf-dist/tex/latex/tools/bm.sty" 1485129666 12628 f9caa46b01869ce6fad7de6138318b70 ""
  "/usr/share/texlive/texmf-dist/tex/latex/tools/dcolumn.sty" 1480098841 2757 c5b68c40b2b33cff6b22d86273d37e2f ""
  "/usr/share/texlive/texmf-dist/tex/latex/tools/xspace.sty" 1480098841 4544 8b8f59969458e1c25e0559e8e0ced1a4 ""
  "/usr/share/texlive/texmf-dist/tex/latex/url/url.sty" 1480098842 12796 8edb7d69a20b857904dd0ea757c14ec9 ""
  "/usr/share/texlive/texmf-dist/tex/latex/xcolor/svgnam.def" 1480098843 4620 ef4794ae13f75d0c199ba494bc41ff4b ""
  "/usr/share/texlive/texmf-dist/tex/latex/xcolor/x11nam.def" 1480098843 9040 8a9e316ccf1f74e192adb7eb7f3d0f07 ""
  "/usr/share/texlive/texmf-dist/tex/latex/xcolor/xcolor.sty" 1480098843 55589 34128738f682d033422ca125f82e5d62 ""
  "/usr/share/texlive/texmf-dist/tex/latex/xmpincl/xmpincl.sty" 1480098843 2846 ba6fcee8a9557055874a16b76a0c5f4b ""
  "/usr/share/texlive/texmf-dist/web2c/texmf.cnf" 1520210507 32485 c64754543d8ac501bea6e75e209ea521 ""
  "/usr/share/texmf/fonts/enc/dvips/cm-super/cm-super-t1.enc" 1497858081 2971 def0b6c1f0b107b3b936def894055589 ""
  "/usr/share/texmf/fonts/enc/dvips/tex-gyre/q-ec-sc.enc" 1254269485 2882 c3e71e002ade88b8fd1e94dd67df9b91 ""
  "/usr/share/texmf/fonts/enc/dvips/tex-gyre/q-ec.enc" 1254269485 2458 3b98c7cf30777b7803f362f19b1b8e68 ""
  "/usr/share/texmf/fonts/tfm/public/tex-gyre/ec-qplb-sc.tfm" 1254269485 13060 cfe173c92ebb7656e39f3855a1edf0e7 ""
  "/usr/share/texmf/fonts/tfm/public/tex-gyre/ec-qplb.tfm" 1254269485 11284 a40a722a7c898c230f85524d5f1bf6e9 ""
  "/usr/share/texmf/fonts/tfm/public/tex-gyre/ec-qplr-sc.tfm" 1254269485 13232 26fce4e4fa34952aae528f519602218e ""
  "/usr/share/texmf/fonts/tfm/public/tex-gyre/ec-qplr.tfm" 1254269485 11920 d36f8bcfa64fbcad202e18c2b8adfa71 ""
  "/usr/share/texmf/fonts/tfm/public/tex-gyre/ec-qplri.tfm" 1255129411 11668 fbddcf4276a036d40539fa42d2419594 ""
  "/usr/share/texmf/fonts/type1/public/cm-super/sfss1440.pfb" 1513872504 90944 dacec9e1206365a1c204a7fc6d00fb08 ""
  "/usr/share/texmf/fonts/type1/public/cm-super/sfss1728.pfb" 1513872504 91468 74533647d615f4cea328e39d71fe88e4 ""
  "/usr/share/texmf/fonts/type1/public/cm-super/sfss2488.pfb" 1513872504 92148 18573ce27bce4dc95c4a90c3b84bd0d7 ""
  "/usr/share/texmf/fonts/type1/public/tex-gyre/qhvr.pfb" 1257299502 110045 c159829aa6d7d99f1777bb40c90b8157 ""
  "/usr/share/texmf/fonts/type1/public/tex-gyre/qplb.pfb" 1255129411 136487 92573cfc80eca925b4409b6e7b4f910a ""
  "/usr/share/texmf/fonts/type1/public/tex-gyre/qplr.pfb" 1255129411 135666 b55329880281d733ea35d6aea5c7261d ""
  "/usr/share/texmf/fonts/type1/public/tex-gyre/qplri.pfb" 1255129411 135821 09d74b78a21c71a95300023a0c9fcb49 ""
  "/usr/share/texmf/tex/latex/tex-gyre/t1qpl.fd" 1254269485 1640 e3069415f0401b1e6e2d69bd4f2f0a7b ""
  "/usr/share/texmf/tex/latex/tex-gyre/tgpagella.sty" 1254269485 2230 fc853fd117e6b73f5d6716214d3abb3c ""
  "/usr/share/texmf/web2c/texmf.cnf" 1520210507 32485 c64754543d8ac501bea6e75e209ea521 ""
  "/var/lib/texmf/fonts/map/pdftex/updmap/pdftex.map" 1534277046 2700761 ac0584cc9514ab21918550a6948c4ee2 ""
  "/var/lib/texmf/web2c/pdftex/pdflatex.fmt" 1540752694 4127672 6a20eee0e7dfa394413a693f5c10282c ""
  "annexe1.tex" 1543608420 10921 4bf8e39530b9be3f423f70f120c608cd ""
  "chapitre1.tex" 1543608357 12182 c2748d4b2249ed621eeaaf8e5c07f565 ""
  "chapitre2.tex" 1547842731 98805 f96c8c1f3ca761e41a0f8982fec88f85 ""
  "chapitre4.tex" 1547843404 28473 4dd07bbe6851ad5a4c5345d0541ae540 ""
  "chapitre5.tex" 1543608396 10846 f5d093a1f4d117200cb6b144a3ae6e18 ""
  "conclusion.tex" 1543606692 1299 23e55e14c2e11aceeac6ff1177b5e75a ""
  "figs/0.pdf" 1539640202 2334 693930fed4df22c605d7f704d3f97e36 ""
  "figs/0_simplification.pdf" 1539658844 2002 529bfd0fda2294385bfcd1f8cb0b6c76 ""
  "figs/1.pdf" 1539640244 2198 c7925698dd1d24d9cca53932f47f2ce8 ""
  "figs/1_simplification.pdf" 1539658734 1863 fdfb179d7bced24311b8c83cbede4baf ""
  "figs/2layers.pdf" 1539626441 17914 1804a1475e1bcfb2d552a20224417249 ""
  "figs/2layersconv.pdf" 1539626662 4504 3ca9905594be6c1759d0ffecf80ceb7a ""
  "figs/algo_gele.pdf" 1540482176 10151 27025d646324cc3c233b6a2615a1691b ""
  "figs/arbre_tn.pdf" 1540825991 9581 c131c5ed8566be62d59738fbe4db8320 ""
  "figs/bad_escalier_contract.pdf" 1539547251 8685 186bd3a412b5af02ec733236b681868a ""
  "figs/bec.pdf" 1539114104 6241 0d1e375c4c38e48b44c35857c5607ff7 ""
  "figs/bon_cnot.pdf" 1539639960 2330 a77bd7a8303b47d72774dd76e3f54300 ""
  "figs/bsc.pdf" 1539114094 5870 f8fe00f5d603ebbb5a48b46b132958b5 ""
  "figs/canal_2_etats.pdf" 1541540309 4471 6c1eaca452bec6789cd0d6a36a310360 ""
  "figs/canal_binaire.pdf" 1541537129 2222 f0001d04ad8f25df42c287306847671d ""
  "figs/canal_binaire_ex.pdf" 1541537268 1615 4519cfdee8107c7919d5da28a1491aaa ""
  "figs/canal_iid.pdf" 1541537792 11268 8145a5a3d7d94aba0b6bc56b4ac0dd2e ""
  "figs/canal_mauvais.pdf" 1539115691 2205 a52417b9d08e71ce23005416e5690963 ""
  "figs/canal_parfait.pdf" 1539115363 2357 ba14498df4550011195a244ed5cdce58 ""
  "figs/chaine_markov.pdf" 1540327428 17970 b73b8de58f0c5ee01d4dfcc8e844a722 ""
  "figs/circuit_construction.pdf" 1541521877 11861 c490b8f4274545ae87792372f766584a ""
  "figs/cnot.pdf" 1527692406 10364 7d71dcda8669828889c1c89384aa4bfc ""
  "figs/communication.pdf" 1538756381 9655 00a25a9dc5cbd74c38f4c781c9e87d26 ""
  "figs/conditional.pdf" 1539719342 9173 62b794fb806d3284eea37da9949e6156 ""
  "figs/contract_1.pdf" 1540837434 3073 6d5c19d4a3ecc9b05c0669494f863e90 ""
  "figs/contract_2.pdf" 1540837909 3042 2e2ce14162ccff19f3427b9a84459625 ""
  "figs/contract_3.pdf" 1540840408 2807 69693f67ab983d5b51d1a0150b393745 ""
  "figs/contract_4.pdf" 1540840814 2387 0ceeaec7ca4055ddb74c4151ddfe3e8c ""
  "figs/contract_5.pdf" 1540841007 2150 83994dbc130eb968dfac7ed099a05a18 ""
  "figs/contract_6.pdf" 1540842460 7621 3c7124418d12386096a894ba087b1211 ""
  "figs/contract_noise.pdf" 1540827841 1485 3696a6ff3d4014f752891d01a38defe2 ""
  "figs/contraction.pdf" 1541527765 2490 d0f41d51be781bf07dd301a489a4862d ""
  "figs/conv_pc.pdf" 1539657361 15934 3c8fbf7521a684b64cfc785d2ae3c7ed ""
  "figs/conv_pc_simplification.pdf" 1539875618 15217 112c308c2331f644e93e83bcef9bb4d9 ""
  "figs/corr.pdf" 1541539719 7728 f5015e90259c989fea9bdbfae8ab69f4 ""
  "figs/cpc-8bits.pdf" 1539626540 8710 c917991496b671b18ba841c0ef47e4de ""
  "figs/density.pdf" 1539718184 3643 bb7faccad702e910a3cc35a9b45ea68e ""
  "figs/e.pdf" 1539701756 2133 341e81b22dbc4d9f06719c6344574970 ""
  "figs/e_simplification.pdf" 1539658318 1956 ff0bae302db8a50f660fdfd61b0bce04 ""
  "figs/enc_noise.pdf" 1539792329 9881 3e87ccc77f8e15656b7499e76b20585f ""
  "figs/encodage.pdf" 1539655700 3841 b8c3698ba7dfd79243e9cd8a27a2468f ""
  "figs/encodage_tn.pdf" 1539798101 10341 3a3e70c7f9b5f60521e35b95b7ed6f7a ""
  "figs/eqthree.pdf" 1541548813 14703 0a91559f5c86b155d107393ab2dc7006 ""
  "figs/escalier.pdf" 1539545966 1666 3d3543bd0095d9bfdcdf145b65e35973 ""
  "figs/fsc_markov_tn.pdf" 1538506163 9134 620094fd8e6ce83b27b1d050e55f552b ""
  "figs/fsc_tn.pdf" 1538505697 20893 e6403869f52257b88427b308d288198e ""
  "figs/good_escalier_contract.pdf" 1539548313 11413 b551521eaaa23745f14ac114cc7a48f8 ""
  "figs/hamming.pdf" 1533652003 8661 b7aa907e40e851a4f2c6171708ff635f ""
  "figs/left_state.pdf" 1538575487 5884 4d6fdb07c8652332451b0af8fbe465c2 ""
  "figs/marginal.pdf" 1539721825 6377 df742f1bd55a6497c7db4d82164a04f3 ""
  "figs/mauvais_cnot.pdf" 1539639943 2311 332f65492ada820eb7b1b830e8544e19 ""
  "figs/modeleGE.pdf" 1539200875 8897 31d118dfa220ba17f48148c02228f271 ""
  "figs/permute.pdf" 1539376143 3004 342f62fbf456d8c45d84f9d6821a1313 ""
  "figs/plots.pdf" 1540911077 25625 61ca4dbe6c0e03d7eb80b851ba1e7a09 ""
  "figs/proba.pdf" 1539718213 10594 d6af49382b2994039a055446c14de729 ""
  "figs/qthree.pdf" 1541548408 7842 469caf00c702ad22979938b449c7843d ""
  "figs/reseautenseur.pdf" 1535741927 1399 3b16096cefcbb4e2bde0380487577565 ""
  "figs/reshape.pdf" 1539376613 2643 cf265fdba6f3eaf9a115f23a66fd5e60 ""
  "figs/reshape_ext.pdf" 1539376984 2540 a453aa767be3f178f1f79b37924337b6 ""
  "figs/right_state.pdf" 1541538949 2135 0d0c71222b2fad17144ed7d0319f75f9 ""
  "figs/scd_tn.pdf" 1543266596 11573 66d70fc3b1cb51f355ec4ce7fa5135a2 ""
  "figs/sorted_pol_4layers.pdf" 1542829111 45052 fd0b4b61781fa0891537f9d509ab17d7 ""
  "figs/sorted_pol_8layers.pdf" 1542829056 268991 e0a15a62cb1ccdafca7355047fc76c91 ""
  "figs/sous_couche_cpc.pdf" 1538770849 2613 96c212dec8c2a9141ebb5e03a7f27248 ""
  "figs/sous_couche_pc.pdf" 1538770742 2007 4931377c34a8d50d18904db5f2977d3a ""
  "figs/tenseur.pdf" 1535741903 1104 adc18bdd7f9a00a6d252e2fee25ea7ad ""
  "figs/venn_diagram.pdf" 1527606039 19774 f0b1dae0222e685431f43ff15e4245b8 ""
  "macros.tex" 1360008437 7164 3fa56c23b8cef5a15a62d86cfecdec43 ""
  "memoire.aux" 1548253828 20256 18b8fe9139ce12bfc52102973bbc264a ""
  "memoire.bbl" 1548234136 9972 e8fddb8fd2c4dad9572a07542bea83a2 "bibtex memoire"
  "memoire.lof" 1548253828 4361 039618b53c48e21d9416693eb4883e55 ""
  "memoire.lot" 1548253828 785 096bc14d48c519661ee1180625c41821 ""
  "memoire.out" 1548253828 3999 c5c2d53c286cd3d971c236610e3ba46d ""
  "memoire.tex" 1548253936 9698 614bd712115f91aea0df4a7ed1891db9 ""
  "memoire.toc" 1548253828 4664 6adfa71e056599492db27bc678890938 ""
  "memoire.xmpdata" 1548235571 1752 39b0172eaace79e5b64de2e12ef36d91 ""
  "remerciements.tex" 1548206118 1608 ce385967686260a69f0fae1f720f9dcb ""
  "sommaire.tex" 1548207854 1927 352e383a522e1e7bda29f4e0039bf396 ""
  (generated)
  "memoire.out"
  "/home/ben/Dropbox/mémoire/memoire.pdf"
  "memoire.toc"
  "/home/ben/Dropbox/mémoire/memoire.log"
  "memoire.lof"
  "memoire.pdf"
  "pdfa.xmpi"
  "memoire.lot"
  "memoire.aux"
  "memoire.log"
