\babel@toc {french}{}
\addvspace {10\p@ }
\contentsline {figure}{\numberline {1.1}{\ignorespaces Sch\IeC {\'e}ma de communication}}{2}{figure.caption.6}
\addvspace {10\p@ }
\contentsline {figure}{\numberline {2.1}{\ignorespaces Code de Hamming}}{11}{figure.caption.7}
\contentsline {figure}{\numberline {2.2}{\ignorespaces Relation entre l'entropie et l'information mutuelle}}{16}{figure.caption.9}
\contentsline {figure}{\numberline {2.3}{\ignorespaces Canal binaire sym\IeC {\'e}trique et canal binaire \IeC {\`a} effacement}}{17}{figure.caption.10}
\contentsline {subfigure}{\numberline {(a)}{\ignorespaces {$BSC(p)$}}}{17}{subfigure.3.1}
\contentsline {subfigure}{\numberline {(b)}{\ignorespaces {$BEC(p)$}}}{17}{subfigure.3.2}
\contentsline {figure}{\numberline {2.4}{\ignorespaces Canal parfait et canal poubelle}}{18}{figure.caption.11}
\contentsline {subfigure}{\numberline {(a)}{\ignorespaces {Canal parfait}}}{18}{subfigure.4.1}
\contentsline {subfigure}{\numberline {(b)}{\ignorespaces {Canal poubelle}}}{18}{subfigure.4.2}
\contentsline {figure}{\numberline {2.5}{\ignorespaces Graphe de transition du mod\IeC {\`e}le de Gilbert-Elliott\relax }}{23}{figure.caption.12}
\contentsline {figure}{\numberline {2.6}{\ignorespaces Transformation de base du code polaire}}{28}{figure.caption.13}
\contentsline {figure}{\numberline {2.7}{\ignorespaces Code polaire \IeC {\`a} 2 couches}}{32}{figure.caption.15}
\contentsline {figure}{\numberline {2.8}{\ignorespaces Polarisation du canal \IeC {\`a} effacement}}{32}{figure.caption.16}
\contentsline {subfigure}{\numberline {(a)}{\ignorespaces {Code polaire de 32 bits.}}}{32}{subfigure.8.1}
\contentsline {subfigure}{\numberline {(b)}{\ignorespaces {Code polaire de 256 bits.}}}{32}{subfigure.8.2}
\contentsline {figure}{\numberline {2.9}{\ignorespaces Construction du circuit d'encodage d'un code polaire}}{35}{figure.caption.17}
\contentsline {figure}{\numberline {2.10}{\ignorespaces Un tenseur et un r\IeC {\'e}seau de tenseurs}}{38}{figure.caption.18}
\contentsline {subfigure}{\numberline {(a)}{\ignorespaces {Un tenseur de rang 4.}}}{38}{subfigure.10.1}
\contentsline {subfigure}{\numberline {(b)}{\ignorespaces {R\IeC {\'e}seau de tenseurs constitu\IeC {\'e} de 5 tenseurs.}}}{38}{subfigure.10.2}
\contentsline {figure}{\numberline {2.11}{\ignorespaces Remodelage d'un tenseur}}{39}{figure.caption.19}
\contentsline {subfigure}{\numberline {(a)}{\ignorespaces {Remodelage par groupement d'indices d'un tenseur de rang 3.}}}{39}{subfigure.11.1}
\contentsline {subfigure}{\numberline {(b)}{\ignorespaces {Remodelage par extension d'indices d'un tenseur de rang 2.}}}{39}{subfigure.11.2}
\contentsline {figure}{\numberline {2.12}{\ignorespaces Permutation des indices d'un tenseur}}{40}{figure.caption.20}
\contentsline {figure}{\numberline {2.13}{\ignorespaces Contraction de tenseurs}}{40}{figure.caption.21}
\contentsline {figure}{\numberline {2.14}{\ignorespaces Exemple de contraction}}{42}{figure.caption.22}
\contentsline {figure}{\numberline {2.15}{\ignorespaces Contraction sous-optimale}}{42}{figure.caption.23}
\contentsline {figure}{\numberline {2.16}{\ignorespaces Contraction optimale}}{42}{figure.caption.24}
\contentsline {figure}{\numberline {2.17}{\ignorespaces Couche d'un code polaire}}{44}{figure.caption.25}
\contentsline {figure}{\numberline {2.18}{\ignorespaces Couche d'un code polaire convolutif}}{44}{figure.caption.26}
\contentsline {figure}{\numberline {2.19}{\ignorespaces Codes polaires convolutifs 2 couches}}{44}{figure.caption.27}
\contentsline {figure}{\numberline {2.20}{\ignorespaces Codes polaires convolutifs 3 couches}}{45}{figure.caption.28}
\addvspace {10\p@ }
\contentsline {figure}{\numberline {3.1}{\ignorespaces R\IeC {\'e}seau de tenseurs utile pour le d\IeC {\'e}codage du bit $u_5$}}{55}{figure.caption.29}
\contentsline {figure}{\numberline {3.2}{\ignorespaces Simplification du r\IeC {\'e}seau de tenseurs}}{55}{figure.caption.30}
\contentsline {figure}{\numberline {3.3}{\ignorespaces Structure d'arbre avec des feuilles connect\IeC {\'e}es}}{56}{figure.caption.31}
\addvspace {10\p@ }
\contentsline {figure}{\numberline {4.1}{\ignorespaces Pr\IeC {\'e}sentation des r\IeC {\'e}sultats}}{65}{figure.caption.33}
\addvspace {10\p@ }
\contentsline {figure}{\numberline {A.1}{\ignorespaces Processus de Markov}}{71}{figure.caption.35}
\addvspace {10\p@ }
