<?xml version="1.0" encoding="UTF-8" standalone="no"?>
<!-- Created with Inkscape (http://www.inkscape.org/) -->

<svg
   xmlns:dc="http://purl.org/dc/elements/1.1/"
   xmlns:cc="http://creativecommons.org/ns#"
   xmlns:rdf="http://www.w3.org/1999/02/22-rdf-syntax-ns#"
   xmlns:svg="http://www.w3.org/2000/svg"
   xmlns="http://www.w3.org/2000/svg"
   xmlns:sodipodi="http://sodipodi.sourceforge.net/DTD/sodipodi-0.dtd"
   xmlns:inkscape="http://www.inkscape.org/namespaces/inkscape"
   width="65mm"
   height="23mm"
   viewBox="0 0 65 23"
   version="1.1"
   id="svg8"
   inkscape:version="0.92.3 (2405546, 2018-03-11)"
   sodipodi:docname="1_simplification.svg">
  <defs
     id="defs2" />
  <sodipodi:namedview
     id="base"
     pagecolor="#ffffff"
     bordercolor="#666666"
     borderopacity="1.0"
     inkscape:pageopacity="0.0"
     inkscape:pageshadow="2"
     inkscape:zoom="1.979899"
     inkscape:cx="280.79777"
     inkscape:cy="75.126778"
     inkscape:document-units="mm"
     inkscape:current-layer="layer1"
     showgrid="false"
     inkscape:window-width="1920"
     inkscape:window-height="1025"
     inkscape:window-x="0"
     inkscape:window-y="27"
     inkscape:window-maximized="1" />
  <metadata
     id="metadata5">
    <rdf:RDF>
      <cc:Work
         rdf:about="">
        <dc:format>image/svg+xml</dc:format>
        <dc:type
           rdf:resource="http://purl.org/dc/dcmitype/StillImage" />
        <dc:title></dc:title>
      </cc:Work>
    </rdf:RDF>
  </metadata>
  <g
     inkscape:label="Layer 1"
     inkscape:groupmode="layer"
     id="layer1"
     transform="translate(0,-274)">
    <g
       transform="translate(-110.00772,91.830595)"
       id="g1085">
      <g
         transform="translate(43.55958,-11.205639)"
         inkscape:export-ydpi="318.13501"
         inkscape:export-xdpi="318.13501"
         id="g864">
        <path
           style="fill:none;stroke:#000000;stroke-width:1;stroke-linecap:butt;stroke-linejoin:miter;stroke-miterlimit:4;stroke-dasharray:none;stroke-opacity:1"
           d="M 71.05886,208.55361 H 90.110512"
           id="path900-6-7-43-6-5-4-6-5"
           inkscape:connector-curvature="0" />
        <ellipse
           transform="matrix(-0.70463838,0.70956659,-0.70467595,-0.70952928,0,0)"
           cx="96.413422"
           cy="-197.51379"
           rx="1.063405"
           ry="1.0633992"
           id="ellipse778-6-3-5-0-4-4-1-6-0-3-3-94"
           style="fill:#000000;fill-opacity:1;stroke:#000000;stroke-width:1.00001192;stroke-miterlimit:4;stroke-dasharray:none;stroke-opacity:1" />
        <ellipse
           transform="matrix(-0.70463838,0.70956659,-0.70467595,-0.70952928,0,0)"
           cx="84.909332"
           cy="-209.01849"
           rx="2.5559568"
           ry="2.5559433"
           id="ellipse778-6-3-5-0-4-4-5-4-4-9-3-1-6"
           style="fill:none;fill-opacity:1;stroke:#000000;stroke-width:1.13726926;stroke-miterlimit:4;stroke-dasharray:none;stroke-opacity:1" />
        <path
           style="fill:none;stroke:#000000;stroke-width:1;stroke-linecap:round;stroke-linejoin:miter;stroke-miterlimit:4;stroke-dasharray:none;stroke-opacity:1"
           d="m 87.459931,201.65554 v 13.79613"
           id="path900-6-7-43-6-5-4-6-5-3"
           inkscape:connector-curvature="0" />
        <path
           style="fill:none;stroke:#000000;stroke-width:1;stroke-linecap:round;stroke-linejoin:miter;stroke-miterlimit:4;stroke-dasharray:none;stroke-opacity:1"
           d="m 71.246623,201.65554 v 13.79613"
           id="path900-6-7-43-6-5-4-6-5-3-6"
           inkscape:connector-curvature="0" />
      </g>
      <rect
         style="opacity:1;fill:#d58384;fill-opacity:1;fill-rule:nonzero;stroke:#d58384;stroke-width:5.28501129;stroke-linecap:round;stroke-linejoin:round;stroke-miterlimit:4;stroke-dasharray:none;stroke-dashoffset:0;stroke-opacity:1;paint-order:markers stroke fill"
         id="rect815-3-6-1-3-6-2-9-5-2"
         width="3.1355963"
         height="2.3968327"
         x="113.2384"
         y="185.47166" />
      <g
         transform="matrix(0.52905014,0,0,-0.52905014,130.16063,188.4201)"
         id="g10-6">
        <g
           transform="scale(0.1)"
           id="g12-7">
          <path
             inkscape:connector-curvature="0"
             id="path14-5"
             style="fill:#000000;fill-opacity:1;fill-rule:nonzero;stroke:none;stroke-width:1.14285719"
             d="m -285.69069,67.93526 c 0,2.714286 0,2.946514 -2.60709,2.946514 -7.03577,-7.267885 -17.03573,-7.267885 -20.66074,-7.267885 V 60.09606 c 2.26786,0 8.96429,0 14.87503,2.9464 V 4.2388597 c 0,-4.08928 -0.33932,-5.4464229 -10.57145,-5.4464229 h -3.62501 V -4.725426 c 3.96429,0.3392857 13.85714,0.3392857 18.39292,0.3392857 4.53565,0 14.41062,0 18.3928,-0.3392857 v 3.5178628 h -3.64286 c -10.21429,0 -10.5536,1.25 -10.5536,5.4464229 V 67.93526" />
        </g>
      </g>
    </g>
    <g
       id="g1096"
       transform="translate(-104.8875,92.376217)">
      <g
         transform="translate(78.623858,-11.75126)"
         inkscape:export-ydpi="318.13501"
         inkscape:export-xdpi="318.13501"
         id="g864-0">
        <path
           style="fill:none;stroke:#000000;stroke-width:1;stroke-linecap:butt;stroke-linejoin:miter;stroke-miterlimit:4;stroke-dasharray:none;stroke-opacity:1"
           d="m 85.138473,208.55361 h 4.972039"
           id="path900-6-7-43-6-5-4-6-5-9"
           inkscape:connector-curvature="0" />
        <ellipse
           transform="matrix(-0.70463838,0.70956659,-0.70467595,-0.70952928,0,0)"
           cx="84.909332"
           cy="-209.01849"
           rx="2.5559568"
           ry="2.5559433"
           id="ellipse778-6-3-5-0-4-4-5-4-4-9-3-1-6-6"
           style="fill:none;fill-opacity:1;stroke:#000000;stroke-width:1.13726926;stroke-miterlimit:4;stroke-dasharray:none;stroke-opacity:1" />
        <path
           style="fill:none;stroke:#000000;stroke-width:1;stroke-linecap:round;stroke-linejoin:miter;stroke-miterlimit:4;stroke-dasharray:none;stroke-opacity:1"
           d="m 87.459931,201.65554 v 13.79613"
           id="path900-6-7-43-6-5-4-6-5-3-0"
           inkscape:connector-curvature="0" />
        <path
           style="fill:none;stroke:#000000;stroke-width:1;stroke-linecap:round;stroke-linejoin:miter;stroke-miterlimit:4;stroke-dasharray:none;stroke-opacity:1"
           d="m 71.246623,201.65554 v 13.79613"
           id="path900-6-7-43-6-5-4-6-5-3-6-6"
           inkscape:connector-curvature="0" />
      </g>
      <rect
         style="opacity:1;fill:#d58384;fill-opacity:1;fill-rule:nonzero;stroke:#d58384;stroke-width:5.28501129;stroke-linecap:round;stroke-linejoin:round;stroke-miterlimit:4;stroke-dasharray:none;stroke-dashoffset:0;stroke-opacity:1;paint-order:markers stroke fill"
         id="rect815-3-6-1-3-6-2-9-5-2-2"
         width="3.1355963"
         height="2.3968327"
         x="148.30267"
         y="184.92604" />
      <g
         transform="matrix(0.52905014,0,0,-0.52905014,165.22491,187.87448)"
         id="g10-6-6">
        <g
           transform="scale(0.1)"
           id="g12-7-1">
          <path
             inkscape:connector-curvature="0"
             id="path14-5-8"
             style="fill:#000000;fill-opacity:1;fill-rule:nonzero;stroke:none;stroke-width:1.14285719"
             d="m -285.69069,67.93526 c 0,2.714286 0,2.946514 -2.60709,2.946514 -7.03577,-7.267885 -17.03573,-7.267885 -20.66074,-7.267885 V 60.09606 c 2.26786,0 8.96429,0 14.87503,2.9464 V 4.2388597 c 0,-4.08928 -0.33932,-5.4464229 -10.57145,-5.4464229 h -3.62501 V -4.725426 c 3.96429,0.3392857 13.85714,0.3392857 18.39292,0.3392857 4.53565,0 14.41062,0 18.3928,-0.3392857 v 3.5178628 h -3.64286 c -10.21429,0 -10.5536,1.25 -10.5536,5.4464229 V 67.93526" />
        </g>
      </g>
    </g>
    <path
       inkscape:connector-curvature="0"
       id="path14-4-9-7"
       style="fill:#000000;fill-opacity:1;fill-rule:nonzero;stroke:none;stroke-width:0.11147761"
       d="m 35.753312,288.32593 c 0.165478,0 0.37624,0 0.37624,-0.22121 0,-0.22121 -0.210762,-0.22121 -0.365781,-0.22121 h -6.632929 c -0.15502,0 -0.365782,0 -0.365782,0.22121 0,0.22121 0.210762,0.22121 0.376241,0.22121 z m 0.0105,2.14769 c 0.155022,0 0.365781,0 0.365781,-0.22121 0,-0.22121 -0.210759,-0.22121 -0.37624,-0.22121 h -6.612009 c -0.165481,0 -0.37624,0 -0.37624,0.22121 0,0.22121 0.210759,0.22121 0.365779,0.22121 h 6.632929" />
  </g>
</svg>
