<?xml version="1.0" encoding="UTF-8" standalone="no"?>
<!-- Created with Inkscape (http://www.inkscape.org/) -->

<svg
   xmlns:dc="http://purl.org/dc/elements/1.1/"
   xmlns:cc="http://creativecommons.org/ns#"
   xmlns:rdf="http://www.w3.org/1999/02/22-rdf-syntax-ns#"
   xmlns:svg="http://www.w3.org/2000/svg"
   xmlns="http://www.w3.org/2000/svg"
   xmlns:sodipodi="http://sodipodi.sourceforge.net/DTD/sodipodi-0.dtd"
   xmlns:inkscape="http://www.inkscape.org/namespaces/inkscape"
   width="100mm"
   height="44mm"
   viewBox="0 0 100 44"
   version="1.1"
   id="svg957"
   inkscape:version="0.92.3 (2405546, 2018-03-11)"
   sodipodi:docname="canal_2_etats.svg">
  <defs
     id="defs951" />
  <sodipodi:namedview
     id="base"
     pagecolor="#ffffff"
     bordercolor="#666666"
     borderopacity="1.0"
     inkscape:pageopacity="0.0"
     inkscape:pageshadow="2"
     inkscape:zoom="2.8"
     inkscape:cx="207.32692"
     inkscape:cy="35.018038"
     inkscape:document-units="mm"
     inkscape:current-layer="layer1"
     showgrid="false"
     showguides="true"
     inkscape:guide-bbox="true"
     inkscape:window-width="1920"
     inkscape:window-height="1172"
     inkscape:window-x="0"
     inkscape:window-y="0"
     inkscape:window-maximized="1" />
  <metadata
     id="metadata954">
    <rdf:RDF>
      <cc:Work
         rdf:about="">
        <dc:format>image/svg+xml</dc:format>
        <dc:type
           rdf:resource="http://purl.org/dc/dcmitype/StillImage" />
        <dc:title></dc:title>
      </cc:Work>
    </rdf:RDF>
  </metadata>
  <g
     inkscape:label="Layer 1"
     inkscape:groupmode="layer"
     id="layer1"
     transform="translate(0,-253)">
    <g
       id="g1835"
       transform="translate(-2.1166667,2.1166667)">
      <g
         transform="translate(-26.987511,5.2916667)"
         id="g1637">
        <path
           style="fill:none;stroke:#000000;stroke-width:1;stroke-linecap:round;stroke-linejoin:miter;stroke-miterlimit:4;stroke-dasharray:none;stroke-opacity:1"
           d="M 30.379156,269.02993 H 61.264155"
           id="path900-6-9-3-5-3-7"
           inkscape:connector-curvature="0" />
        <g
           transform="translate(10.007539,111.74498)"
           id="g1360">
          <path
             style="fill:none;stroke:#000000;stroke-width:1;stroke-linecap:round;stroke-linejoin:miter;stroke-miterlimit:4;stroke-dasharray:none;stroke-opacity:1"
             d="M 35.861154,173.91741 V 162.67953"
             id="path900-6-9-3-5"
             inkscape:connector-curvature="0" />
          <path
             style="fill:none;stroke:#000000;stroke-width:1;stroke-linecap:round;stroke-linejoin:miter;stroke-miterlimit:4;stroke-dasharray:none;stroke-opacity:1"
             d="M 35.861155,151.89016 V 140.65228"
             id="path900-6-9-3"
             inkscape:connector-curvature="0" />
          <rect
             y="151.35561"
             x="29.511848"
             height="12.604538"
             width="12.604537"
             id="rect815-7-9-7"
             style="opacity:1;fill:#47bb7e;fill-opacity:1;fill-rule:nonzero;stroke:#009647;stroke-width:5;stroke-linecap:round;stroke-linejoin:round;stroke-miterlimit:4;stroke-dasharray:none;stroke-dashoffset:0;stroke-opacity:1;paint-order:markers stroke fill" />
          <g
             word-spacing="normal"
             letter-spacing="normal"
             font-size-adjust="none"
             font-stretch="normal"
             font-weight="normal"
             font-variant="normal"
             font-style="normal"
             stroke-miterlimit="10.433"
             xml:space="preserve"
             transform="matrix(0.1668584,0,0,-0.1668584,-44.615924,228.47114)"
             id="content-5"
             style="font-style:normal;font-variant:normal;font-weight:normal;font-stretch:normal;letter-spacing:normal;word-spacing:normal;text-anchor:start;fill:none;fill-opacity:1;fill-rule:evenodd;stroke:#000000;stroke-linecap:butt;stroke-linejoin:miter;stroke-miterlimit:10.43299961;stroke-dasharray:none;stroke-dashoffset:0;stroke-opacity:1" />        </g>
      </g>
      <g
         word-spacing="normal"
         letter-spacing="normal"
         font-size-adjust="none"
         font-stretch="normal"
         font-weight="normal"
         font-variant="normal"
         font-style="normal"
         stroke-miterlimit="10.433"
         xml:space="preserve"
         transform="matrix(0.34275498,0,0,-0.34275498,-115.45486,417.53727)"
         id="g937-7"
         style="font-style:normal;font-variant:normal;font-weight:normal;font-stretch:normal;letter-spacing:normal;word-spacing:normal;text-anchor:start;fill:none;fill-opacity:1;fill-rule:evenodd;stroke:#000000;stroke-linecap:butt;stroke-linejoin:miter;stroke-miterlimit:10.43299961;stroke-dasharray:none;stroke-dashoffset:0;stroke-opacity:1" />      <polygon
         transform="matrix(0.35053118,0,0,-0.35053118,-159.01708,412.20848)"
         style="font-style:normal;font-variant:normal;font-weight:normal;font-stretch:normal;letter-spacing:normal;word-spacing:normal;text-anchor:start;fill:#000000;fill-opacity:1;fill-rule:evenodd;stroke:#000000;stroke-width:0;stroke-linecap:butt;stroke-linejoin:miter;stroke-miterlimit:10.43299961;stroke-dasharray:none;stroke-dashoffset:0;stroke-opacity:1"
         points="727.66,453.21 738.02,453.21 738.02,339.18 727.66,339.18 727.66,336.43 740.76,336.43 740.76,455.96 727.66,455.96 "
         id="polygon872" />
      <g
         id="g1335"
         transform="matrix(12.859375,0,0,12.859375,15.212999,-865.73963)">
        <g
           style="font-style:normal;font-variant:normal;font-weight:normal;font-stretch:normal;letter-spacing:normal;word-spacing:normal;text-anchor:start;fill:none;fill-opacity:1;fill-rule:evenodd;stroke:#000000;stroke-linecap:butt;stroke-linejoin:miter;stroke-miterlimit:10.43299961;stroke-dasharray:none;stroke-dashoffset:0;stroke-opacity:1"
           id="content-7"
           transform="matrix(0.02,0,0,-0.02,-3.5,96)"
           xml:space="preserve"
           stroke-miterlimit="10.433"
           font-style="normal"
           font-variant="normal"
           font-weight="normal"
           font-stretch="normal"
           font-size-adjust="none"
           letter-spacing="normal"
           word-spacing="normal"><path
             style="fill:#000000;stroke-width:0"
             inkscape:connector-curvature="0"
             d="m 478.44,422.14 v 0.74 l -0.01,0.75 -0.02,0.75 -0.04,0.74 -0.04,0.75 -0.06,0.74 -0.08,0.74 -0.09,0.73 -0.12,0.73 -0.14,0.73 -0.16,0.72 -0.19,0.72 -0.21,0.72 -0.25,0.7 -0.28,0.7 -0.15,0.35 -0.16,0.34 c -2.28,4.8 -6.37,5.6 -8.47,5.6 -2.98,0 -6.62,-1.3 -8.67,-5.94 -1.59,-3.44 -1.84,-7.33 -1.84,-11.31 0,-3.74 0.2,-8.22 2.25,-12 2.14,-4.03 5.78,-5.03 8.22,-5.03 v 1.09 c -1.94,0 -4.89,1.25 -5.79,6.03 -0.54,2.98 -0.54,7.56 -0.54,10.52 0,3.18 0,6.46 0.4,9.15 0.94,5.94 4.68,6.38 5.93,6.38 1.64,0 4.93,-0.89 5.87,-5.83 0.5,-2.78 0.5,-6.58 0.5,-9.7 0,-3.75 0,-7.13 -0.55,-10.32 -0.75,-4.73 -3.59,-6.23 -5.82,-6.23 v 0 -1.09 c 2.68,0 6.46,1.04 8.67,5.78 1.59,3.43 1.84,7.31 1.84,11.25 z"
             id="path1332" /></g>      </g>
      <g
         id="g1335-2"
         transform="matrix(12.859375,0,0,12.859375,-4.8631614,-840.89609)">
        <g
           style="font-style:normal;font-variant:normal;font-weight:normal;font-stretch:normal;letter-spacing:normal;word-spacing:normal;text-anchor:start;fill:none;fill-opacity:1;fill-rule:evenodd;stroke:#000000;stroke-linecap:butt;stroke-linejoin:miter;stroke-miterlimit:10.43299961;stroke-dasharray:none;stroke-dashoffset:0;stroke-opacity:1"
           id="content-7-9"
           transform="matrix(0.02,0,0,-0.02,-3.5,96)"
           xml:space="preserve"
           stroke-miterlimit="10.433"
           font-style="normal"
           font-variant="normal"
           font-weight="normal"
           font-stretch="normal"
           font-size-adjust="none"
           letter-spacing="normal"
           word-spacing="normal"><path
             style="fill:#000000;stroke-width:0"
             inkscape:connector-curvature="0"
             d="m 478.44,422.14 v 0.74 l -0.01,0.75 -0.02,0.75 -0.04,0.74 -0.04,0.75 -0.06,0.74 -0.08,0.74 -0.09,0.73 -0.12,0.73 -0.14,0.73 -0.16,0.72 -0.19,0.72 -0.21,0.72 -0.25,0.7 -0.28,0.7 -0.15,0.35 -0.16,0.34 c -2.28,4.8 -6.37,5.6 -8.47,5.6 -2.98,0 -6.62,-1.3 -8.67,-5.94 -1.59,-3.44 -1.84,-7.33 -1.84,-11.31 0,-3.74 0.2,-8.22 2.25,-12 2.14,-4.03 5.78,-5.03 8.22,-5.03 v 1.09 c -1.94,0 -4.89,1.25 -5.79,6.03 -0.54,2.98 -0.54,7.56 -0.54,10.52 0,3.18 0,6.46 0.4,9.15 0.94,5.94 4.68,6.38 5.93,6.38 1.64,0 4.93,-0.89 5.87,-5.83 0.5,-2.78 0.5,-6.58 0.5,-9.7 0,-3.75 0,-7.13 -0.55,-10.32 -0.75,-4.73 -3.59,-6.23 -5.82,-6.23 v 0 -1.09 c 2.68,0 6.46,1.04 8.67,5.78 1.59,3.43 1.84,7.31 1.84,11.25 z"
             id="path1332-1" /></g>      </g>
      <line
         id="line668-5-4-3-3-3"
         style="stroke:#242423;stroke-width:1;stroke-linecap:round;stroke-miterlimit:4;stroke-dasharray:none;stroke-opacity:1"
         y2="260.00134"
         x2="70.437553"
         y1="253.9861"
         x1="70.437553" />
      <line
         id="line668-5-4-3-3-3-2"
         style="stroke:#242423;stroke-width:1;stroke-linecap:round;stroke-miterlimit:4;stroke-dasharray:none;stroke-opacity:1"
         y2="277.1582"
         x2="70.437553"
         y1="271.14319"
         x1="70.437553" />
      <polygon
         transform="matrix(0.35053096,0,0,-0.35053096,-106.00032,412.20836)"
         style="font-style:normal;font-variant:normal;font-weight:normal;font-stretch:normal;letter-spacing:normal;word-spacing:normal;text-anchor:start;fill:#000000;fill-opacity:1;fill-rule:evenodd;stroke:#000000;stroke-width:0;stroke-linecap:butt;stroke-linejoin:miter;stroke-miterlimit:10.43299961;stroke-dasharray:none;stroke-dashoffset:0;stroke-opacity:1"
         points="481.08,336.43 481.08,339.18 470.72,339.18 470.72,453.21 481.08,453.21 481.08,455.96 467.97,455.96 467.97,336.43 "
         id="polygon846-6" />
      <line
         id="line668-5-4-3-3-3-6"
         style="stroke:#242423;stroke-width:1;stroke-linecap:round;stroke-miterlimit:4;stroke-dasharray:none;stroke-opacity:1"
         y2="274.84979"
         x2="91.057785"
         y1="268.83453"
         x1="91.057785" />
      <line
         id="line668-5-4-3-3-3-2-7"
         style="stroke:#242423;stroke-width:1;stroke-linecap:round;stroke-miterlimit:4;stroke-dasharray:none;stroke-opacity:1"
         y2="292.00662"
         x2="91.057785"
         y1="285.99164"
         x1="91.057785" />
      <g
         transform="translate(0.59164238,0.06019402)"
         id="g1745">
        <rect
           y="260.7818"
           x="65.115753"
           height="9.4603157"
           width="9.4603157"
           id="rect815-7-9-7-5"
           style="opacity:1;fill:#47bb7e;fill-opacity:1;fill-rule:nonzero;stroke:#009647;stroke-width:3;stroke-linecap:round;stroke-linejoin:round;stroke-miterlimit:4;stroke-dasharray:none;stroke-dashoffset:0;stroke-opacity:1;paint-order:markers stroke fill" />
        <g
           word-spacing="normal"
           letter-spacing="normal"
           font-size-adjust="none"
           font-stretch="normal"
           font-weight="normal"
           font-variant="normal"
           font-style="normal"
           stroke-miterlimit="10.433"
           xml:space="preserve"
           transform="matrix(0.12523531,0,0,-0.12523531,9.4792677,318.66073)"
           id="content-5-3"
           style="font-style:normal;font-variant:normal;font-weight:normal;font-stretch:normal;letter-spacing:normal;word-spacing:normal;text-anchor:start;fill:none;fill-opacity:1;fill-rule:evenodd;stroke:#000000;stroke-linecap:butt;stroke-linejoin:miter;stroke-miterlimit:10.43299961;stroke-dasharray:none;stroke-dashoffset:0;stroke-opacity:1"><path
             id="path963-3-5"
             d="m 501.21,434.45 0.23,0.4 0.24,0.4 0.24,0.38 0.24,0.37 0.13,0.18 0.13,0.17 0.14,0.17 0.13,0.16 0.14,0.16 0.15,0.16 0.15,0.15 0.16,0.14 0.16,0.14 0.17,0.13 0.17,0.13 0.18,0.12 0.19,0.11 0.19,0.11 0.2,0.1 0.21,0.09 0.22,0.09 0.23,0.08 0.24,0.07 0.25,0.06 0.25,0.05 0.27,0.05 0.28,0.04 0.29,0.02 c 0.45,0.05 0.95,0.05 0.95,1 0,0.19 -0.2,0.55 -0.61,0.55 -1.19,0 -2.58,-0.16 -3.83,-0.16 -1.7,0 -3.55,0.16 -5.19,0.16 -0.29,0 -0.93,0 -0.93,-0.95 0,-0.55 0.43,-0.6 0.73,-0.6 1.2,-0.04 2.95,-0.45 2.95,-1.93 0,-0.55 -0.25,-0.96 -0.65,-1.66 l -13.46,-23.45 -1.84,24.7 c -0.05,1 -0.14,2.3 3.48,2.34 0.86,0 1.36,0 1.36,1 0,0.5 -0.56,0.55 -0.75,0.55 -2,0 -4.09,-0.16 -6.07,-0.16 -1.16,0 -4.1,0.16 -5.24,0.16 -0.3,0 -0.95,0 -0.95,-1 0,-0.55 0.5,-0.55 1.2,-0.55 2.19,0 2.53,-0.29 2.64,-1.25 l 0.3,-3.82 -12.61,-21.97 -1.89,25.25 c 0,0.59 0,1.75 3.78,1.79 0.5,0 1.05,0 1.05,1 0,0.55 -0.6,0.55 -0.69,0.55 -2,0 -4.09,-0.16 -6.13,-0.16 -1.75,0 -3.54,0.16 -5.23,0.16 -0.25,0 -0.91,0 -0.91,-0.95 0,-0.6 0.46,-0.6 1.25,-0.6 2.5,0 2.55,-0.45 2.64,-1.84 l 2.25,-30.44 c 0.05,-0.9 0.1,-1.29 0.8,-1.29 0.6,0 0.74,0.29 1.19,1.04 l 14.66,25.41 1.84,-25.16 c 0.09,-1.04 0.19,-1.29 0.8,-1.29 0.64,0 0.93,0.5 1.18,0.93 z"
             inkscape:connector-curvature="0"
             style="fill:#000000;stroke-width:0" /></g>      </g>
      <g
         transform="translate(21.211874,14.908621)"
         id="g1745-6">
        <rect
           y="260.7818"
           x="65.115753"
           height="9.4603157"
           width="9.4603157"
           id="rect815-7-9-7-5-2"
           style="opacity:1;fill:#47bb7e;fill-opacity:1;fill-rule:nonzero;stroke:#009647;stroke-width:3;stroke-linecap:round;stroke-linejoin:round;stroke-miterlimit:4;stroke-dasharray:none;stroke-dashoffset:0;stroke-opacity:1;paint-order:markers stroke fill" />
        <g
           word-spacing="normal"
           letter-spacing="normal"
           font-size-adjust="none"
           font-stretch="normal"
           font-weight="normal"
           font-variant="normal"
           font-style="normal"
           stroke-miterlimit="10.433"
           xml:space="preserve"
           transform="matrix(0.12523531,0,0,-0.12523531,9.4792677,318.66073)"
           id="content-5-3-9"
           style="font-style:normal;font-variant:normal;font-weight:normal;font-stretch:normal;letter-spacing:normal;word-spacing:normal;text-anchor:start;fill:none;fill-opacity:1;fill-rule:evenodd;stroke:#000000;stroke-linecap:butt;stroke-linejoin:miter;stroke-miterlimit:10.43299961;stroke-dasharray:none;stroke-dashoffset:0;stroke-opacity:1"><path
             id="path963-3-5-1"
             d="m 501.21,434.45 0.23,0.4 0.24,0.4 0.24,0.38 0.24,0.37 0.13,0.18 0.13,0.17 0.14,0.17 0.13,0.16 0.14,0.16 0.15,0.16 0.15,0.15 0.16,0.14 0.16,0.14 0.17,0.13 0.17,0.13 0.18,0.12 0.19,0.11 0.19,0.11 0.2,0.1 0.21,0.09 0.22,0.09 0.23,0.08 0.24,0.07 0.25,0.06 0.25,0.05 0.27,0.05 0.28,0.04 0.29,0.02 c 0.45,0.05 0.95,0.05 0.95,1 0,0.19 -0.2,0.55 -0.61,0.55 -1.19,0 -2.58,-0.16 -3.83,-0.16 -1.7,0 -3.55,0.16 -5.19,0.16 -0.29,0 -0.93,0 -0.93,-0.95 0,-0.55 0.43,-0.6 0.73,-0.6 1.2,-0.04 2.95,-0.45 2.95,-1.93 0,-0.55 -0.25,-0.96 -0.65,-1.66 l -13.46,-23.45 -1.84,24.7 c -0.05,1 -0.14,2.3 3.48,2.34 0.86,0 1.36,0 1.36,1 0,0.5 -0.56,0.55 -0.75,0.55 -2,0 -4.09,-0.16 -6.07,-0.16 -1.16,0 -4.1,0.16 -5.24,0.16 -0.3,0 -0.95,0 -0.95,-1 0,-0.55 0.5,-0.55 1.2,-0.55 2.19,0 2.53,-0.29 2.64,-1.25 l 0.3,-3.82 -12.61,-21.97 -1.89,25.25 c 0,0.59 0,1.75 3.78,1.79 0.5,0 1.05,0 1.05,1 0,0.55 -0.6,0.55 -0.69,0.55 -2,0 -4.09,-0.16 -6.13,-0.16 -1.75,0 -3.54,0.16 -5.23,0.16 -0.25,0 -0.91,0 -0.91,-0.95 0,-0.6 0.46,-0.6 1.25,-0.6 2.5,0 2.55,-0.45 2.64,-1.84 l 2.25,-30.44 c 0.05,-0.9 0.1,-1.29 0.8,-1.29 0.6,0 0.74,0.29 1.19,1.04 l 14.66,25.41 1.84,-25.16 c 0.09,-1.04 0.19,-1.29 0.8,-1.29 0.64,0 0.93,0.5 1.18,0.93 z"
             inkscape:connector-curvature="0"
             style="fill:#000000;stroke-width:0" /></g>      </g>
    </g>
    <g
       id="g10"
       transform="matrix(0.42701028,0,0,-0.42701028,69.623712,272.32594)">
      <g
         id="g12"
         transform="scale(0.1)">
        <path
           d="M 12.8906,7.75 C 11.9063,3.875 11.7031,3.07813 3.85938,3.07813 c -1.6875,0 -2.6875,0 -2.6875,-1.98438 C 1.17188,0 2.0625,0 3.85938,0 H 39.3125 c 15.7031,0 27.4219,11.7188 27.4219,21.4531 0,7.1563 -5.7656,12.9219 -15.3906,14.0157 10.3281,1.875 20.75,9.2343 20.75,18.6718 0,7.3438 -6.5469,13.7032 -18.4688,13.7032 H 20.25 c -1.8906,0 -2.8906,0 -2.8906,-1.9844 0,-1.0938 0.9062,-1.0938 2.7812,-1.0938 0.2032,0 2.0938,0 3.7813,-0.2031 1.7812,-0.1875 2.6875,-0.2969 2.6875,-1.5781 0,-0.4063 -0.1094,-0.7031 -0.4063,-1.8906 z m 15,28.6094 L 34.0469,61 c 0.9062,3.4688 1.0937,3.7656 5.375,3.7656 h 12.8125 c 8.7344,0 10.8281,-5.8593 10.8281,-10.2343 0,-8.7344 -8.5469,-18.1719 -20.6719,-18.1719 z M 23.4219,3.07813 c -1.3906,0 -1.5938,0 -2.1875,0.09375 -0.9844,0.10937 -1.2813,0.20312 -1.2813,1 0,0.29687 0,0.5 0.4844,2.28125 L 27.2969,34.1719 H 46.0781 C 55.6094,34.1719 57.5,26.8281 57.5,22.5469 57.5,12.7188 48.6563,3.07813 36.9375,3.07813 H 23.4219"
           style="fill:#000000;fill-opacity:1;fill-rule:nonzero;stroke:none"
           id="path14"
           inkscape:connector-curvature="0" />
      </g>
    </g>
    <g
       id="g10-3"
       transform="matrix(0.42701028,0,0,-0.42701028,89.385552,287.26258)">
      <g
         id="g12-6"
         transform="scale(0.1)">
        <path
           d="m 87.9844,60.2031 c 0.8906,3.5782 1.0937,4.5625 8.5469,4.5625 2.2812,0 3.1718,0 3.1718,1.9844 0,1.0938 -0.9843,1.0938 -2.6718,1.0938 h -13.125 c -2.5782,0 -2.6719,0 -3.8594,-1.8907 L 43.7813,9.34375 36.0313,65.5625 c -0.2969,2.2813 -0.5,2.2813 -3.0782,2.2813 H 19.3438 c -1.8907,0 -2.9844,0 -2.9844,-1.8907 0,-1.1875 0.9062,-1.1875 2.8906,-1.1875 1.2813,0 3.0781,-0.0937 4.2656,-0.2031 1.5938,-0.1875 2.1875,-0.4844 2.1875,-1.5781 0,-0.4063 -0.0937,-0.7031 -0.4062,-1.8906 L 12.6875,10.5313 C 11.6875,6.5625 10,3.375 1.95313,3.07813 1.46875,3.07813 0.171875,2.98438 0.171875,1.1875 0.171875,0.296875 0.765625,0 1.5625,0 4.73438,0 8.21875,0.296875 11.5,0.296875 14.875,0.296875 18.4531,0 21.7344,0 c 0.4844,0 1.7812,0 1.7812,1.98438 0,1.09375 -1.0937,1.09375 -1.7812,1.09375 -5.6719,0.09375 -6.7656,2.09375 -6.7656,4.375 0,0.6875 0.1093,1.1875 0.4062,2.28125 l 13.5,54.14062 h 0.1094 L 37.5156,2.28125 C 37.7188,1.09375 37.8281,0 39.0156,0 c 1.0938,0 1.6875,1.09375 2.1875,1.78125 l 40.125,62.89065 h 0.1094 L 67.2188,7.75 C 66.2344,3.875 66.0313,3.07813 58.1875,3.07813 c -1.6875,0 -2.7812,0 -2.7812,-1.89063 C 55.4063,0 56.5938,0 56.8906,0 59.6719,0 66.4375,0.296875 69.2188,0.296875 73.2813,0.296875 77.5625,0 81.625,0 c 0.5938,0 1.8906,0 1.8906,1.98438 0,1.09375 -0.8906,1.09375 -2.7812,1.09375 -3.6719,0 -6.4531,0 -6.4531,1.79687 0,0.39063 0,0.59375 0.5,2.375 l 13.2031,52.9531"
           style="fill:#000000;fill-opacity:1;fill-rule:nonzero;stroke:none"
           id="path14-7"
           inkscape:connector-curvature="0" />
      </g>
    </g>
    <path
       inkscape:connector-curvature="0"
       id="path14-5"
       style="fill:#000000;fill-opacity:1;fill-rule:nonzero;stroke:none;stroke-width:0.08414972"
       d="m 45.301367,275.79469 c 0.124912,0 0.284005,0 0.284005,-0.16704 0,-0.16695 -0.159093,-0.16695 -0.276112,-0.16695 h -5.006912 c -0.11702,0 -0.276116,0 -0.276116,0.16695 0,0.16704 0.159096,0.16704 0.284005,0.16704 z m 0.0079,1.62114 c 0.117019,0 0.276112,0 0.276112,-0.16695 0,-0.16704 -0.159093,-0.16704 -0.284005,-0.16704 h -4.991127 c -0.124909,0 -0.284005,0 -0.284005,0.16704 0,0.16695 0.159096,0.16695 0.276116,0.16695 h 5.006912" />
  </g>
</svg>
