<?xml version="1.0" encoding="UTF-8" standalone="no"?>
<!-- Created with Inkscape (http://www.inkscape.org/) -->

<svg
   xmlns:dc="http://purl.org/dc/elements/1.1/"
   xmlns:cc="http://creativecommons.org/ns#"
   xmlns:rdf="http://www.w3.org/1999/02/22-rdf-syntax-ns#"
   xmlns:svg="http://www.w3.org/2000/svg"
   xmlns="http://www.w3.org/2000/svg"
   xmlns:sodipodi="http://sodipodi.sourceforge.net/DTD/sodipodi-0.dtd"
   xmlns:inkscape="http://www.inkscape.org/namespaces/inkscape"
   width="99mm"
   height="36mm"
   viewBox="0 0 99 36"
   version="1.1"
   id="svg8"
   inkscape:version="0.92.2 (5c3e80d, 2017-08-06)"
   sodipodi:docname="circuit.svg">
  <defs
     id="defs2">
    <inkscape:path-effect
       effect="spiro"
       id="path-effect847"
       is_visible="true" />
    <inkscape:path-effect
       effect="spiro"
       id="path-effect823"
       is_visible="true" />
    <inkscape:path-effect
       effect="spiro"
       id="path-effect823-3"
       is_visible="true" />
    <inkscape:path-effect
       effect="spiro"
       id="path-effect847-7"
       is_visible="true" />
    <inkscape:path-effect
       effect="spiro"
       id="path-effect823-3-3"
       is_visible="true" />
    <inkscape:path-effect
       effect="spiro"
       id="path-effect847-7-6"
       is_visible="true" />
    <inkscape:path-effect
       effect="spiro"
       id="path-effect823-3-3-9"
       is_visible="true" />
    <inkscape:path-effect
       effect="spiro"
       id="path-effect847-7-6-2"
       is_visible="true" />
    <inkscape:path-effect
       effect="spiro"
       id="path-effect823-3-3-9-0"
       is_visible="true" />
  </defs>
  <sodipodi:namedview
     id="base"
     pagecolor="#ffffff"
     bordercolor="#666666"
     borderopacity="1.0"
     inkscape:pageopacity="0.0"
     inkscape:pageshadow="2"
     inkscape:zoom="4.3292731"
     inkscape:cx="42.910785"
     inkscape:cy="55.877478"
     inkscape:document-units="mm"
     inkscape:current-layer="layer1"
     showgrid="false"
     showguides="true"
     inkscape:guide-bbox="true"
     inkscape:window-width="1920"
     inkscape:window-height="1052"
     inkscape:window-x="0"
     inkscape:window-y="0"
     inkscape:window-maximized="1" />
  <metadata
     id="metadata5">
    <rdf:RDF>
      <cc:Work
         rdf:about="">
        <dc:format>image/svg+xml</dc:format>
        <dc:type
           rdf:resource="http://purl.org/dc/dcmitype/StillImage" />
        <dc:title></dc:title>
      </cc:Work>
    </rdf:RDF>
  </metadata>
  <g
     inkscape:label="Layer 1"
     inkscape:groupmode="layer"
     id="layer1"
     transform="translate(0,-261)">
    <path
       style="fill:none;stroke:#000000;stroke-width:0.5;stroke-linecap:butt;stroke-linejoin:miter;stroke-miterlimit:4;stroke-dasharray:none;stroke-opacity:1"
       d="M 0.230099,264.83607 H 98.026976"
       id="path821"
       inkscape:connector-curvature="0"
       inkscape:path-effect="#path-effect823"
       inkscape:original-d="m 0.230099,264.83607 c 32.599201,-2.7e-4 65.198158,-2.7e-4 97.796877,0" />
    <path
       style="fill:none;stroke:#000000;stroke-width:0.5;stroke-linecap:butt;stroke-linejoin:miter;stroke-miterlimit:4;stroke-dasharray:none;stroke-opacity:1"
       d="m 0.230096,272.10975 h 97.79688"
       id="path821-6"
       inkscape:connector-curvature="0"
       inkscape:path-effect="#path-effect823-3"
       inkscape:original-d="m 0.230096,272.10975 c 32.599202,-2.7e-4 65.19816,-2.7e-4 97.79688,0" />
    <path
       style="fill:none;stroke:#000000;stroke-width:0.5;stroke-linecap:butt;stroke-linejoin:miter;stroke-miterlimit:4;stroke-dasharray:none;stroke-opacity:1"
       d="m 0.230096,279.38343 h 97.79688"
       id="path821-6-5"
       inkscape:connector-curvature="0"
       inkscape:path-effect="#path-effect823-3-3"
       inkscape:original-d="m 0.230096,279.38343 c 32.599202,-2.6e-4 65.19816,-2.6e-4 97.79688,0" />
    <path
       style="fill:none;stroke:#000000;stroke-width:0.5;stroke-linecap:butt;stroke-linejoin:miter;stroke-miterlimit:4;stroke-dasharray:none;stroke-opacity:1"
       d="M 0.230093,286.65711 H 98.026976"
       id="path821-6-5-1"
       inkscape:connector-curvature="0"
       inkscape:path-effect="#path-effect823-3-3-9"
       inkscape:original-d="m 0.230093,286.65711 c 32.599202,-2.6e-4 65.19816,-2.6e-4 97.796883,0" />
    <path
       style="fill:none;stroke:#000000;stroke-width:0.5;stroke-linecap:butt;stroke-linejoin:miter;stroke-miterlimit:4;stroke-dasharray:none;stroke-opacity:1"
       d="M 0.23009,293.93079 H 98.026976"
       id="path821-6-5-1-9"
       inkscape:connector-curvature="0"
       inkscape:path-effect="#path-effect823-3-3-9-0"
       inkscape:original-d="m 0.23009,293.93079 c 32.599205,-2.6e-4 65.198166,-2.6e-4 97.796886,0" />
    <rect
       style="opacity:1;fill:#9ee493;fill-opacity:1;stroke:#47c433;stroke-width:0.57494205;stroke-linecap:round;stroke-linejoin:round;stroke-miterlimit:4;stroke-dasharray:none;stroke-opacity:1;paint-order:normal"
       id="rect5442-2-2-06-6-2-36-6"
       width="5.605267"
       height="19.207743"
       x="25.799549"
       y="277.39215" />
    <rect
       style="opacity:1;fill:#bfdbf7;fill-opacity:1;stroke:#5796cc;stroke-width:0.565;stroke-linecap:round;stroke-linejoin:round;stroke-miterlimit:4;stroke-dasharray:none;stroke-opacity:1;paint-order:normal"
       id="rect5442-2-2-06-6-2-3-6"
       width="5.3508697"
       height="5.3878288"
       x="26.053947"
       y="269.33328" />
    <rect
       style="opacity:1;fill:#bfdbf7;fill-opacity:1;stroke:#5796cc;stroke-width:0.565;stroke-linecap:round;stroke-linejoin:round;stroke-miterlimit:4;stroke-dasharray:none;stroke-opacity:1;paint-order:normal"
       id="rect5442-2-2-06-6-2-3-6-0"
       width="5.3508697"
       height="5.3878288"
       x="10.728601"
       y="262.08008" />
    <rect
       style="opacity:1;fill:#ff8b8f;fill-opacity:0.92156863;stroke:#ff5a5f;stroke-width:0.42550975;stroke-linecap:round;stroke-linejoin:round;stroke-miterlimit:4;stroke-dasharray:none;stroke-opacity:0.92156863;paint-order:normal"
       id="rect5442-2-2-06-6-2-36-6-6"
       width="5.7447534"
       height="10.265313"
       x="43.572807"
       y="270.5827" />
    <rect
       style="opacity:1;fill:#ff8b8f;fill-opacity:0.92156863;stroke:#ff5a5f;stroke-width:0.565;stroke-linecap:round;stroke-linejoin:round;stroke-miterlimit:4;stroke-dasharray:none;stroke-opacity:0.92156863;paint-order:normal"
       id="rect5442-2-2-06-6-2-36-6-6-1"
       width="5.7447534"
       height="10.265313"
       x="43.572807"
       y="270.5827"
       inkscape:transform-center-y="1.580427" />
    <rect
       style="opacity:1;fill:#ff8b8f;fill-opacity:0.92156863;stroke:#ff5a5f;stroke-width:0.42550975;stroke-linecap:round;stroke-linejoin:round;stroke-miterlimit:4;stroke-dasharray:none;stroke-opacity:0.92156863;paint-order:normal"
       id="rect5442-2-2-06-6-2-36-6-6-1-8"
       width="5.7447534"
       height="10.265313"
       x="10.334718"
       y="277.71033"
       inkscape:transform-center-y="1.580427" />
    <rect
       style="opacity:1;fill:#ff8b8f;fill-opacity:0.92156863;stroke:#ff5a5f;stroke-width:0.565;stroke-linecap:round;stroke-linejoin:round;stroke-miterlimit:4;stroke-dasharray:none;stroke-opacity:0.92156863;paint-order:normal"
       id="rect5442-2-2-06-6-2-36-6-6-1-8-7"
       width="5.7447534"
       height="10.265313"
       x="10.334718"
       y="277.71033"
       inkscape:transform-center-y="1.580427" />
    <rect
       style="opacity:1;fill:#9ee493;fill-opacity:1;stroke:#47c433;stroke-width:0.565;stroke-linecap:round;stroke-linejoin:round;stroke-miterlimit:4;stroke-dasharray:none;stroke-opacity:1;paint-order:normal"
       id="rect5442-2-2-06-6-2-36-6-9"
       width="5.605267"
       height="18.548931"
       x="62.023102"
       y="262.76895" />
    <rect
       style="opacity:1;fill:#bfdbf7;fill-opacity:1;stroke:#5796cc;stroke-width:0.565;stroke-linecap:round;stroke-linejoin:round;stroke-miterlimit:4;stroke-dasharray:none;stroke-opacity:1;paint-order:normal"
       id="rect5442-2-2-06-6-2-3-6-2"
       width="5.3508697"
       height="5.3878288"
       x="62.277496"
       y="291.21207" />
    <rect
       style="opacity:1;fill:#bfdbf7;fill-opacity:1;stroke:#5796cc;stroke-width:0.565;stroke-linecap:round;stroke-linejoin:round;stroke-miterlimit:4;stroke-dasharray:none;stroke-opacity:1;paint-order:normal"
       id="rect5442-2-2-06-6-2-3-6-0-0"
       width="5.3508697"
       height="5.3878288"
       x="62.277504"
       y="284.04309" />
    <rect
       style="opacity:1;fill:#9ee493;fill-opacity:1;stroke:#47c433;stroke-width:0.57499778;stroke-linecap:round;stroke-linejoin:round;stroke-miterlimit:4;stroke-dasharray:none;stroke-opacity:1;paint-order:normal"
       id="rect5442-2-2-06-6-2-36-6-9-2"
       width="5.605267"
       height="19.211468"
       x="80.930992"
       y="277.38843" />
    <rect
       style="opacity:1;fill:#ff8b8f;fill-opacity:0.92156863;stroke:#ff5a5f;stroke-width:0.42550975;stroke-linecap:round;stroke-linejoin:round;stroke-miterlimit:4;stroke-dasharray:none;stroke-opacity:0.92156863;paint-order:normal"
       id="rect5442-2-2-06-6-2-36-6-6-1-3"
       width="5.7447534"
       height="10.265313"
       x="80.791512"
       y="263.03635"
       inkscape:transform-center-y="1.580427" />
    <rect
       style="opacity:1;fill:#ff8b8f;fill-opacity:0.92156863;stroke:#ff5a5f;stroke-width:0.565;stroke-linecap:round;stroke-linejoin:round;stroke-miterlimit:4;stroke-dasharray:none;stroke-opacity:0.92156863;paint-order:normal"
       id="rect5442-2-2-06-6-2-36-6-6-1-3-7"
       width="5.7447534"
       height="10.265313"
       x="80.791512"
       y="263.03635"
       inkscape:transform-center-y="1.580427" />
  </g>
</svg>
