<?xml version="1.0" encoding="UTF-8" standalone="no"?>
<!-- Created with Inkscape (http://www.inkscape.org/) -->

<svg
   xmlns:dc="http://purl.org/dc/elements/1.1/"
   xmlns:cc="http://creativecommons.org/ns#"
   xmlns:rdf="http://www.w3.org/1999/02/22-rdf-syntax-ns#"
   xmlns:svg="http://www.w3.org/2000/svg"
   xmlns="http://www.w3.org/2000/svg"
   xmlns:sodipodi="http://sodipodi.sourceforge.net/DTD/sodipodi-0.dtd"
   xmlns:inkscape="http://www.inkscape.org/namespaces/inkscape"
   width="207mm"
   height="12.5mm"
   viewBox="0 0 207 12.5"
   version="1.1"
   id="svg2430"
   inkscape:version="0.92.3 (2405546, 2018-03-11)"
   sodipodi:docname="communication.svg">
  <sodipodi:namedview
     id="base"
     pagecolor="#ffffff"
     bordercolor="#666666"
     borderopacity="1.0"
     inkscape:pageopacity="0.0"
     inkscape:pageshadow="2"
     inkscape:zoom="0.870139"
     inkscape:cx="374.15542"
     inkscape:cy="-63.189527"
     inkscape:document-units="mm"
     inkscape:current-layer="layer1"
     showgrid="false"
     inkscape:window-width="1920"
     inkscape:window-height="1172"
     inkscape:window-x="0"
     inkscape:window-y="0"
     inkscape:window-maximized="1" />
  <defs
     id="defs2424">
    <marker
       inkscape:stockid="Arrow1Lend"
       orient="auto"
       refY="0"
       refX="0"
       id="Arrow1Lend-8-3"
       style="overflow:visible"
       inkscape:isstock="true"
       inkscape:collect="always">
      <path
         inkscape:connector-curvature="0"
         id="path2857-3-6"
         d="M 0,0 5,-5 -12.5,0 5,5 Z"
         style="fill:#000000;fill-opacity:1;fill-rule:evenodd;stroke:#000000;stroke-width:1.00000003pt;stroke-opacity:1"
         transform="matrix(-0.8,0,0,-0.8,-10,0)" />
    </marker>
    <inkscape:path-effect
       effect="spiro"
       id="path-effect2852-8-75"
       is_visible="true" />
    <marker
       inkscape:stockid="Arrow1Lend"
       orient="auto"
       refY="0"
       refX="0"
       id="Arrow1Lend-8-3-3"
       style="overflow:visible"
       inkscape:isstock="true">
      <path
         inkscape:connector-curvature="0"
         id="path2857-3-6-5"
         d="M 0,0 5,-5 -12.5,0 5,5 Z"
         style="fill:#242423;fill-opacity:1;fill-rule:evenodd;stroke:#242423;stroke-width:1.00000003pt;stroke-opacity:1"
         transform="matrix(-0.8,0,0,-0.8,-10,0)" />
    </marker>
    <inkscape:path-effect
       effect="spiro"
       id="path-effect2852-8-75-6"
       is_visible="true" />
    <marker
       inkscape:stockid="Arrow1Lend"
       orient="auto"
       refY="0"
       refX="0"
       id="Arrow1Lend-8-3-3-3"
       style="overflow:visible"
       inkscape:isstock="true">
      <path
         inkscape:connector-curvature="0"
         id="path2857-3-6-5-6"
         d="M 0,0 5,-5 -12.5,0 5,5 Z"
         style="fill:#242423;fill-opacity:1;fill-rule:evenodd;stroke:#242423;stroke-width:1.00000003pt;stroke-opacity:1"
         transform="matrix(-0.8,0,0,-0.8,-10,0)" />
    </marker>
    <inkscape:path-effect
       effect="spiro"
       id="path-effect2852-8-75-6-7"
       is_visible="true" />
    <marker
       inkscape:stockid="Arrow1Lend"
       orient="auto"
       refY="0"
       refX="0"
       id="Arrow1Lend-8-3-3-3-3"
       style="overflow:visible"
       inkscape:isstock="true">
      <path
         inkscape:connector-curvature="0"
         id="path2857-3-6-5-6-5"
         d="M 0,0 5,-5 -12.5,0 5,5 Z"
         style="fill:#242423;fill-opacity:1;fill-rule:evenodd;stroke:#242423;stroke-width:1.00000003pt;stroke-opacity:1"
         transform="matrix(-0.8,0,0,-0.8,-10,0)" />
    </marker>
    <inkscape:path-effect
       effect="spiro"
       id="path-effect2852-8-75-6-7-6"
       is_visible="true" />
  </defs>
  <metadata
     id="metadata2427">
    <rdf:RDF>
      <cc:Work
         rdf:about="">
        <dc:format>image/svg+xml</dc:format>
        <dc:type
           rdf:resource="http://purl.org/dc/dcmitype/StillImage" />
        <dc:title></dc:title>
      </cc:Work>
    </rdf:RDF>
  </metadata>
  <g
     inkscape:label="Layer 1"
     inkscape:groupmode="layer"
     id="layer1"
     transform="translate(0,-284.5)">
    <g
       id="g1038"
       transform="translate(0,-0.52916667)">
      <g
         transform="translate(-1.6723861)"
         id="g3808">
        <g
           id="g3383">
          <path
             inkscape:original-d="m 24.171162,291.86469 c 5.629997,-3.1e-4 11.259689,-3.1e-4 16.889071,0"
             inkscape:path-effect="#path-effect2852-8-75"
             inkscape:connector-curvature="0"
             id="path2850-3-3"
             d="M 24.171162,291.86469 H 41.060233"
             style="fill:none;fill-opacity:1;stroke:#242423;stroke-width:0.31021515;stroke-linecap:butt;stroke-linejoin:miter;stroke-miterlimit:4;stroke-dasharray:none;stroke-opacity:1;marker-end:url(#Arrow1Lend-8-3)" />
          <rect
             y="286.17651"
             x="2.4597166"
             height="10.534306"
             width="17.434477"
             id="rect5442-2-2-0-5-9-9-0-5"
             style="opacity:1;fill:#c9c9c9;fill-opacity:1;stroke:#808080;stroke-width:1.5;stroke-linecap:square;stroke-linejoin:round;stroke-miterlimit:4;stroke-dasharray:none;stroke-opacity:1" />
          <rect
             y="286.23117"
             x="46.551403"
             height="10.425011"
             width="24.255388"
             id="rect5442-2-2-0-5-9-9-0-5-6"
             style="opacity:1;fill:#82d0dd;fill-opacity:1;stroke:#009bb4;stroke-width:1.5;stroke-linecap:square;stroke-linejoin:round;stroke-miterlimit:4;stroke-dasharray:none;stroke-opacity:1" />
          <path
             inkscape:original-d="m 76.05411,291.86469 c 5.629997,-3e-4 11.259686,-3e-4 16.889069,0"
             inkscape:path-effect="#path-effect2852-8-75-6"
             inkscape:connector-curvature="0"
             id="path2850-3-3-2"
             d="M 76.05411,291.86469 H 92.943179"
             style="fill:none;fill-opacity:1;stroke:#242423;stroke-width:0.31;stroke-linecap:butt;stroke-linejoin:miter;stroke-miterlimit:4;stroke-dasharray:none;stroke-opacity:1;marker-end:url(#Arrow1Lend-8-3-3)" />
          <g
             transform="translate(-41.179006,12.287193)"
             id="g1018">
            <rect
               style="opacity:1;fill:#d58384;fill-opacity:1;stroke:#ca2423;stroke-width:1.5;stroke-linecap:square;stroke-linejoin:round;stroke-miterlimit:4;stroke-dasharray:none;stroke-opacity:1"
               id="rect5442-2-2-0-5-9-9-0-5-6-7"
               width="18.045019"
               height="10.464721"
               x="138.48848"
               y="273.82794" />
          </g>
          <rect
             y="286.23117"
             x="143.05077"
             height="10.428102"
             width="24.045963"
             id="rect5442-2-2-0-5-9-9-0-5-6-3"
             style="opacity:1;fill:#47bb7e;fill-opacity:1;stroke:#009647;stroke-width:1.5;stroke-linecap:square;stroke-linejoin:round;stroke-miterlimit:4;stroke-dasharray:none;stroke-opacity:1" />
          <rect
             y="286.07455"
             x="193.19687"
             height="10.581624"
             width="14.223244"
             id="rect5442-2-2-0-5-9-9-0-5-7"
             style="opacity:1;fill:#c9c9c9;fill-opacity:1;stroke:#808080;stroke-width:1.5;stroke-linecap:square;stroke-linejoin:round;stroke-miterlimit:4;stroke-dasharray:none;stroke-opacity:1" />
          <path
             inkscape:original-d="m 120.19944,291.86469 c 5.62999,-3e-4 11.25968,-3e-4 16.88906,0"
             inkscape:path-effect="#path-effect2852-8-75-6-7"
             inkscape:connector-curvature="0"
             id="path2850-3-3-2-5"
             d="M 120.19944,291.86469 H 137.0885"
             style="fill:none;fill-opacity:1;stroke:#242423;stroke-width:0.31;stroke-linecap:butt;stroke-linejoin:miter;stroke-miterlimit:4;stroke-dasharray:none;stroke-opacity:1;marker-end:url(#Arrow1Lend-8-3-3-3)" />
          <path
             inkscape:original-d="m 171.59339,291.86469 c 5.62999,-3e-4 11.25968,-3e-4 16.88906,0"
             inkscape:path-effect="#path-effect2852-8-75-6-7-6"
             inkscape:connector-curvature="0"
             id="path2850-3-3-2-5-2"
             d="m 171.59339,291.86469 h 16.88906"
             style="fill:none;fill-opacity:1;stroke:#242423;stroke-width:0.31;stroke-linecap:butt;stroke-linejoin:miter;stroke-miterlimit:4;stroke-dasharray:none;stroke-opacity:1;marker-end:url(#Arrow1Lend-8-3-3-3-3)" />
        </g>
        <g
           transform="matrix(4.2503716,0,0,4.2503716,-2.5992483,-329.31243)"
           id="g3424">
          <g
             style="font-style:normal;font-variant:normal;font-weight:normal;font-stretch:normal;letter-spacing:normal;word-spacing:normal;text-anchor:start;fill:none;fill-opacity:1;fill-rule:evenodd;stroke:#000000;stroke-linecap:butt;stroke-linejoin:miter;stroke-miterlimit:10.43299961;stroke-dasharray:none;stroke-dashoffset:0;stroke-opacity:1"
             id="content"
             transform="matrix(0.02571429,0,0,-0.02571429,-4.5,156)"
             xml:space="preserve"
             stroke-miterlimit="10.433"
             font-style="normal"
             font-variant="normal"
             font-weight="normal"
             font-stretch="normal"
             font-size-adjust="none"
             letter-spacing="normal"
             word-spacing="normal"><path
               style="fill:#000000;stroke-width:0"
               inkscape:connector-curvature="0"
               d="m 459.91,409.14 -0.02,-0.07 -0.01,-0.08 -0.02,-0.07 -0.01,-0.08 -0.04,-0.16 -0.04,-0.16 -0.03,-0.16 -0.04,-0.16 -0.04,-0.16 -0.04,-0.16 -0.01,-0.08 -0.02,-0.07 -0.02,-0.07 -0.01,-0.07 -0.02,-0.07 -0.01,-0.07 -0.01,-0.06 -0.01,-0.06 -0.01,-0.06 -0.01,-0.05 -0.01,-0.05 -0.01,-0.04 -0.01,-0.04 v -0.04 -0.03 -0.02 c 0,-0.89 0.7,-1.35 1.43,-1.35 0.61,0 1.5,0.39 1.85,1.39 0.06,0.11 0.65,2.44 0.95,3.69 l 1.1,4.48 c 0.29,1.1 0.59,2.19 0.84,3.35 0.2,0.84 0.61,2.28 0.66,2.48 0.75,1.55 3.39,6.08 8.1,6.08 2.25,0 2.71,-1.84 2.71,-3.48 0,-1.25 -0.36,-2.64 -0.75,-4.14 l -1.39,-5.79 -1,-3.78 c -0.21,-1 -0.66,-2.68 -0.66,-2.93 0,-0.89 0.7,-1.35 1.45,-1.35 1.55,0 1.85,1.25 2.24,2.85 0.7,2.78 2.55,10.06 3,12 0.14,0.65 2.78,6.62 8.22,6.62 2.14,0 2.68,-1.69 2.68,-3.48 0,-2.85 -2.09,-8.52 -3.09,-11.16 -0.45,-1.2 -0.64,-1.75 -0.64,-2.75 0,-2.33 1.73,-4.08 4.08,-4.08 4.69,0 6.53,7.27 6.53,7.67 0,0.5 -0.45,0.5 -0.59,0.5 -0.5,0 -0.5,-0.15 -0.75,-0.9 -0.75,-2.64 -2.35,-6.17 -5.08,-6.17 -0.86,0 -1.21,0.5 -1.21,1.64 0,1.25 0.46,2.45 0.9,3.54 0.95,2.58 3.04,8.11 3.04,10.96 0,3.23 -2,5.32 -5.73,5.32 -3.74,0 -6.27,-2.18 -8.11,-4.82 -0.06,0.65 -0.2,2.34 -1.61,3.53 -1.24,1.04 -2.83,1.29 -4.08,1.29 -4.48,0 -6.92,-3.18 -7.76,-4.32 -0.25,2.84 -2.35,4.32 -4.6,4.32 -2.28,0 -3.23,-1.93 -3.69,-2.82 -0.89,-1.75 -1.54,-4.69 -1.54,-4.85 0,-0.5 0.5,-0.5 0.61,-0.5 0.5,0 0.54,0.07 0.84,1.16 0.84,3.53 1.84,5.92 3.64,5.92 0.8,0 1.55,-0.39 1.55,-2.28 0,-1.05 -0.16,-1.61 -0.8,-4.19 z"
               id="path3421" /></g>        </g>
        <g
           id="g3510"
           transform="matrix(4.6508076,0,0,4.6508076,47.796237,-387.92356)">
          <g
             word-spacing="normal"
             letter-spacing="normal"
             font-size-adjust="none"
             font-stretch="normal"
             font-weight="normal"
             font-variant="normal"
             font-style="normal"
             stroke-miterlimit="10.433"
             xml:space="preserve"
             transform="matrix(0.02571429,0,0,-0.02571429,-4.5,156)"
             id="g3508"
             style="font-style:normal;font-variant:normal;font-weight:normal;font-stretch:normal;letter-spacing:normal;word-spacing:normal;text-anchor:start;fill:none;fill-opacity:1;fill-rule:evenodd;stroke:#000000;stroke-linecap:butt;stroke-linejoin:miter;stroke-miterlimit:10.43299961;stroke-dasharray:none;stroke-dashoffset:0;stroke-opacity:1"><path
               id="path3506"
               d="m 472.16,421.25 0.03,0.13 0.04,0.15 0.04,0.16 0.04,0.18 0.06,0.19 0.06,0.21 0.06,0.22 0.07,0.22 0.08,0.23 0.09,0.24 0.1,0.25 0.1,0.24 0.11,0.25 0.12,0.25 0.13,0.25 0.14,0.25 0.15,0.24 0.15,0.24 0.17,0.23 0.18,0.22 0.18,0.22 0.2,0.2 0.21,0.19 0.22,0.18 0.23,0.16 0.25,0.14 0.12,0.07 0.13,0.06 0.14,0.05 0.13,0.05 0.14,0.05 0.14,0.04 0.15,0.03 0.15,0.03 0.15,0.02 0.16,0.02 0.16,0.01 h 0.16 c 0.25,0 1.44,0 2.48,-0.64 -1.39,-0.25 -2.39,-1.5 -2.39,-2.69 0,-0.79 0.55,-1.75 1.89,-1.75 1.1,0 2.69,0.89 2.69,2.89 0,2.6 -2.94,3.28 -4.63,3.28 -2.89,0 -4.64,-2.64 -5.23,-3.78 -1.25,3.28 -3.94,3.78 -5.37,3.78 -5.19,0 -8.04,-6.42 -8.04,-7.67 0,-0.5 0.5,-0.5 0.61,-0.5 0.39,0 0.55,0.11 0.64,0.55 1.69,5.28 4.99,6.53 6.68,6.53 0.95,0 2.68,-0.44 2.68,-3.33 0,-1.54 -0.84,-4.89 -2.68,-11.86 -0.8,-3.09 -2.54,-5.18 -4.74,-5.18 -0.3,0 -1.44,0 -2.48,0.65 1.25,0.24 2.34,1.28 2.34,2.69 0,1.34 -1.09,1.73 -1.84,1.73 -1.5,0 -2.75,-1.29 -2.75,-2.89 0,-2.28 2.5,-3.28 4.68,-3.28 3.3,0 5.08,3.49 5.24,3.78 0.59,-1.84 2.39,-3.78 5.37,-3.78 5.14,0 7.99,6.42 7.99,7.67 0,0.5 -0.45,0.5 -0.61,0.5 -0.44,0 -0.55,-0.2 -0.64,-0.54 -1.64,-5.33 -5.03,-6.53 -6.63,-6.53 -1.95,0 -2.75,1.59 -2.75,3.29 0,1.1 0.3,2.19 0.86,4.38 z"
               inkscape:connector-curvature="0"
               style="fill:#000000;stroke-width:0" /></g>        </g>
        <g
           id="g3602"
           transform="matrix(3.6318293,0,0,3.6318293,99.936479,-239.95922)">
          <g
             style="font-style:normal;font-variant:normal;font-weight:normal;font-stretch:normal;letter-spacing:normal;word-spacing:normal;text-anchor:start;fill:none;fill-opacity:1;fill-rule:evenodd;stroke:#000000;stroke-linecap:butt;stroke-linejoin:miter;stroke-miterlimit:10.43299961;stroke-dasharray:none;stroke-dashoffset:0;stroke-opacity:1"
             id="g3600"
             transform="matrix(0.02571429,0,0,-0.02571429,-4.5,156)"
             xml:space="preserve"
             stroke-miterlimit="10.433"
             font-style="normal"
             font-variant="normal"
             font-weight="normal"
             font-stretch="normal"
             font-size-adjust="none"
             letter-spacing="normal"
             word-spacing="normal"><path
               style="fill:#000000;stroke-width:0"
               inkscape:connector-curvature="0"
               d="m 485.49317,432.55457 0.0125,0.0501 0.0125,0.0376 0.0125,0.0752 0.025,0.0626 0.0125,0.0752 0.0125,0.0626 0.0251,0.0501 0.0125,0.0626 0.0125,0.0501 0.0125,0.0501 v 0.0501 l 0.0125,0.0501 0.0125,0.0501 0.0125,0.0376 v 0.0376 l 0.0125,0.0376 v 0.0376 l 0.0125,0.0376 v 0.0376 l 0.0125,0.0626 v 0.0752 0.0626 0.0626 l 0.0125,0.0626 v 0.0376 0.0376 0.0376 0.0376 c 0,1.13982 -0.86427,1.69094 -1.80368,1.69094 -0.62628,0 -1.62832,-0.37576 -2.19197,-1.31518 -0.12525,-0.31314 -0.62628,-2.22954 -0.86426,-3.36937 -0.45092,-1.61579 -0.87679,-3.30674 -1.25256,-4.98516 l -2.81824,-11.23541 c -0.23799,-0.93941 -2.91845,-5.2983 -7.03935,-5.2983 -3.18149,0 -3.88292,2.73057 -3.88292,5.04779 0,2.86835 1.0772,6.75127 3.19401,12.22493 1.00205,2.56773 1.25256,3.25664 1.25256,4.50919 0,2.79319 -1.99156,5.09789 -5.12295,5.09789 -5.9371,0 -8.2418,-9.03091 -8.2418,-9.60708 0,-0.62628 0.62628,-0.62628 0.76406,-0.62628 0.62627,0 0.67638,0.13778 0.98952,1.13982 1.69094,5.87448 4.171,7.72826 6.30034,7.72826 0.50102,0 1.56569,0 1.56569,-1.99156 0,-1.56569 -0.62627,-3.16896 -1.06467,-4.37141 -2.49258,-6.61349 -3.6324,-10.17074 -3.6324,-13.11424 0,-5.53629 3.94554,-7.41512 7.61552,-7.41512 2.45501,0 4.5593,1.06467 6.30035,2.80572 -0.80164,-3.23158 -1.54064,-6.30034 -4.04575,-9.61961 -1.62832,-2.10429 -3.99565,-3.93302 -6.864,-3.93302 -0.86426,0 -3.6825,0.20041 -4.74717,2.63037 1.00204,0 1.82872,0 2.68046,0.76405 0.62628,0.5386 1.25255,1.36529 1.25255,2.54269 0,1.94146 -1.67842,2.19197 -2.30469,2.19197 -1.42792,0 -3.50715,-1.00205 -3.50715,-4.05828 0,-3.13138 2.76814,-5.43608 6.626,-5.43608 6.43813,0 12.8512,5.69912 14.61731,12.73847 z"
               id="path3598" /></g>        </g>
        <g
           id="g3702"
           transform="matrix(4.2355243,0,0,4.2355243,145.50374,-327.30928)">
          <g
             word-spacing="normal"
             letter-spacing="normal"
             font-size-adjust="none"
             font-stretch="normal"
             font-weight="normal"
             font-variant="normal"
             font-style="normal"
             stroke-miterlimit="10.433"
             xml:space="preserve"
             transform="matrix(0.02571429,0,0,-0.02571429,-4.5,156)"
             id="g3700"
             style="font-style:normal;font-variant:normal;font-weight:normal;font-stretch:normal;letter-spacing:normal;word-spacing:normal;text-anchor:start;fill:none;fill-opacity:1;fill-rule:evenodd;stroke:#000000;stroke-linecap:butt;stroke-linejoin:miter;stroke-miterlimit:10.43299961;stroke-dasharray:none;stroke-dashoffset:0;stroke-opacity:1"><polygon
               id="polygon3696"
               points="484.08,434 477.45,440.78 470.78,434 471.67,433.11 477.45,438.18 483.19,433.11 "
               style="fill:#000000;stroke-width:0" /><path
               id="path3698"
               d="m 459.91,409.14 -0.02,-0.07 -0.01,-0.08 -0.02,-0.07 -0.02,-0.08 -0.03,-0.16 -0.04,-0.16 -0.04,-0.16 -0.04,-0.16 -0.03,-0.16 -0.04,-0.16 -0.02,-0.08 -0.01,-0.07 -0.02,-0.07 -0.01,-0.07 -0.02,-0.07 -0.01,-0.07 -0.02,-0.06 -0.01,-0.06 -0.01,-0.06 -0.01,-0.05 -0.01,-0.05 v -0.04 l -0.01,-0.04 v -0.04 l -0.01,-0.03 V 407 c 0,-0.89 0.71,-1.35 1.44,-1.35 0.61,0 1.5,0.39 1.84,1.39 0.07,0.11 0.66,2.44 0.96,3.69 l 1.09,4.48 c 0.3,1.1 0.6,2.19 0.84,3.35 0.21,0.84 0.61,2.28 0.66,2.48 0.75,1.55 3.39,6.08 8.11,6.08 2.25,0 2.7,-1.84 2.7,-3.48 0,-1.25 -0.36,-2.64 -0.75,-4.14 l -1.39,-5.79 -1,-3.78 c -0.2,-1 -0.65,-2.68 -0.65,-2.93 0,-0.89 0.7,-1.35 1.45,-1.35 1.55,0 1.84,1.25 2.23,2.85 0.71,2.78 2.55,10.06 3,12 0.14,0.65 2.79,6.62 8.22,6.62 2.14,0 2.69,-1.69 2.69,-3.48 0,-2.85 -2.09,-8.52 -3.09,-11.16 -0.46,-1.2 -0.64,-1.75 -0.64,-2.75 0,-2.33 1.73,-4.08 4.07,-4.08 4.69,0 6.54,7.27 6.54,7.67 0,0.5 -0.46,0.5 -0.6,0.5 -0.5,0 -0.5,-0.15 -0.75,-0.9 -0.75,-2.64 -2.34,-6.17 -5.08,-6.17 -0.86,0 -1.2,0.5 -1.2,1.64 0,1.25 0.45,2.45 0.89,3.54 0.95,2.58 3.05,8.11 3.05,10.96 0,3.23 -2,5.32 -5.74,5.32 -3.73,0 -6.26,-2.18 -8.11,-4.82 -0.06,0.65 -0.2,2.34 -1.61,3.53 -1.23,1.04 -2.82,1.29 -4.07,1.29 -4.49,0 -6.93,-3.18 -7.77,-4.32 -0.25,2.84 -2.34,4.32 -4.59,4.32 -2.28,0 -3.24,-1.93 -3.69,-2.82 -0.89,-1.75 -1.55,-4.69 -1.55,-4.85 0,-0.5 0.5,-0.5 0.61,-0.5 0.5,0 0.55,0.07 0.85,1.16 0.84,3.53 1.84,5.92 3.64,5.92 0.79,0 1.54,-0.39 1.54,-2.28 0,-1.05 -0.15,-1.61 -0.79,-4.19 z"
               inkscape:connector-curvature="0"
               style="fill:#000000;stroke-width:0" /></g>        </g>
      </g>
      <text
         id="text909"
         y="293.1871"
         x="3.9094634"
         style="font-style:normal;font-variant:normal;font-weight:normal;font-stretch:normal;font-size:4.93888903px;line-height:1.25;font-family:'TeX Gyre Pagella';-inkscape-font-specification:'TeX Gyre Pagella';letter-spacing:0px;word-spacing:0px;fill:#000000;fill-opacity:1;stroke:none;stroke-width:0.26458332"
         xml:space="preserve"><tspan
           style="font-size:4.93888903px;stroke-width:0.26458332"
           y="293.1871"
           x="3.9094634"
           id="tspan907"
           sodipodi:role="line">Alice</tspan></text>
      <text
         id="text913"
         y="293.1871"
         x="46.454891"
         style="font-style:normal;font-variant:normal;font-weight:normal;font-stretch:normal;font-size:12.69999981px;line-height:1.25;font-family:'TeX Gyre Pagella';-inkscape-font-specification:'TeX Gyre Pagella';letter-spacing:0px;word-spacing:0px;fill:#000000;fill-opacity:1;stroke:none;stroke-width:0.26458332"
         xml:space="preserve"><tspan
           style="font-size:4.93888903px;stroke-width:0.26458332"
           y="293.1871"
           x="46.454891"
           id="tspan911"
           sodipodi:role="line">Encodeur</tspan></text>
      <text
         id="text917"
         y="293.09091"
         x="98.278511"
         style="font-style:normal;font-variant:normal;font-weight:normal;font-stretch:normal;font-size:12.69999981px;line-height:1.25;font-family:'TeX Gyre Pagella';-inkscape-font-specification:'TeX Gyre Pagella';letter-spacing:0px;word-spacing:0px;fill:#000000;fill-opacity:1;stroke:none;stroke-width:0.26458332"
         xml:space="preserve"><tspan
           style="font-size:4.93888903px;stroke-width:0.26458332"
           y="293.09091"
           x="98.278511"
           id="tspan915"
           sodipodi:role="line">Canal</tspan></text>
      <text
         id="text921"
         y="293.18866"
         x="142.70485"
         style="font-style:normal;font-variant:normal;font-weight:normal;font-stretch:normal;font-size:12.69999981px;line-height:1.25;font-family:'TeX Gyre Pagella';-inkscape-font-specification:'TeX Gyre Pagella';letter-spacing:0px;word-spacing:0px;fill:#000000;fill-opacity:1;stroke:none;stroke-width:0.26458332"
         xml:space="preserve"><tspan
           style="font-size:4.93888903px;stroke-width:0.26458332"
           y="293.18866"
           x="142.70485"
           id="tspan919"
           sodipodi:role="line">Décodeur</tspan></text>
      <text
         id="text925"
         y="293.1088"
         x="194.45731"
         style="font-style:normal;font-variant:normal;font-weight:normal;font-stretch:normal;font-size:12.69999981px;line-height:1.25;font-family:'TeX Gyre Pagella';-inkscape-font-specification:'TeX Gyre Pagella';letter-spacing:0px;word-spacing:0px;fill:#000000;fill-opacity:1;stroke:none;stroke-width:0.26458332"
         xml:space="preserve"><tspan
           style="font-size:4.93888903px;stroke-width:0.26458332"
           y="293.1088"
           x="194.45731"
           id="tspan923"
           sodipodi:role="line">Bob</tspan></text>
    </g>
  </g>
</svg>
