<?xml version="1.0" encoding="UTF-8" standalone="no"?>
<!-- Created with Inkscape (http://www.inkscape.org/) -->

<svg
   xmlns:dc="http://purl.org/dc/elements/1.1/"
   xmlns:cc="http://creativecommons.org/ns#"
   xmlns:rdf="http://www.w3.org/1999/02/22-rdf-syntax-ns#"
   xmlns:svg="http://www.w3.org/2000/svg"
   xmlns="http://www.w3.org/2000/svg"
   xmlns:sodipodi="http://sodipodi.sourceforge.net/DTD/sodipodi-0.dtd"
   xmlns:inkscape="http://www.inkscape.org/namespaces/inkscape"
   width="109mm"
   height="21mm"
   viewBox="0 0 109 21"
   version="1.1"
   id="svg8"
   inkscape:version="0.92.3 (2405546, 2018-03-11)"
   sodipodi:docname="corr.svg">
  <defs
     id="defs2" />
  <sodipodi:namedview
     id="base"
     pagecolor="#ffffff"
     bordercolor="#666666"
     borderopacity="1.0"
     inkscape:pageopacity="0.0"
     inkscape:pageshadow="2"
     inkscape:zoom="1.4"
     inkscape:cx="139.98556"
     inkscape:cy="207.09184"
     inkscape:document-units="mm"
     inkscape:current-layer="layer1"
     showgrid="false"
     showguides="true"
     inkscape:guide-bbox="true"
     inkscape:window-width="1920"
     inkscape:window-height="1172"
     inkscape:window-x="0"
     inkscape:window-y="0"
     inkscape:window-maximized="1" />
  <metadata
     id="metadata5">
    <rdf:RDF>
      <cc:Work
         rdf:about="">
        <dc:format>image/svg+xml</dc:format>
        <dc:type
           rdf:resource="http://purl.org/dc/dcmitype/StillImage" />
        <dc:title></dc:title>
      </cc:Work>
    </rdf:RDF>
  </metadata>
  <g
     inkscape:label="Layer 1"
     inkscape:groupmode="layer"
     id="layer1"
     transform="translate(0,-276)">
    <g
       id="g971">
      <path
         inkscape:connector-curvature="0"
         id="path900-6-9-3-5-3-7"
         d="M 0.8904368,286.34123 H 19.864414"
         style="fill:none;stroke:#000000;stroke-width:1;stroke-linecap:round;stroke-linejoin:miter;stroke-miterlimit:4;stroke-dasharray:none;stroke-opacity:1" />
      <circle
         style="opacity:1;fill:#d7263d;fill-opacity:1;fill-rule:nonzero;stroke:#000000;stroke-width:1;stroke-linecap:round;stroke-linejoin:round;stroke-miterlimit:4;stroke-dasharray:none;stroke-dashoffset:0;stroke-opacity:0;paint-order:markers stroke fill"
         id="path860-5"
         cx="10.377426"
         cy="286.34103"
         r="2.8731472" />
      <g
         transform="matrix(0.84149722,0,0,-0.84149722,25.111022,296.33928)"
         id="g10">
        <g
           transform="scale(0.1)"
           id="g12">
          <path
             inkscape:connector-curvature="0"
             id="path14"
             style="fill:#000000;fill-opacity:1;fill-rule:nonzero;stroke:none"
             d="m 63.25,126.484 c 1.4844,0 3.375,0 3.375,1.985 0,1.984 -1.8906,1.984 -3.2812,1.984 H 3.84375 c -1.39062,0 -3.28125,0 -3.28125,-1.984 0,-1.985 1.89063,-1.985 3.375,-1.985 z m 0.0938,-19.265 c 1.3906,0 3.2812,0 3.2812,1.984 0,1.985 -1.8906,1.985 -3.375,1.985 H 3.9375 c -1.48437,0 -3.375,0 -3.375,-1.985 0,-1.984 1.89063,-1.984 3.28125,-1.984 H 63.3438" />
          <path
             inkscape:connector-curvature="0"
             id="path16"
             style="fill:#000000;fill-opacity:1;fill-rule:nonzero;stroke:none"
             d="m 125.828,-0.34375 h 26.125 V 5.125 h -20.656 v 227.391 h 20.656 v 5.453 H 125.828 V -0.34375" />
          <path
             inkscape:connector-curvature="0"
             id="path18"
             style="fill:#000000;fill-opacity:1;fill-rule:nonzero;stroke:none"
             d="m 211.906,197.813 c 0,0.406 -0.297,1 -1,1 -1.093,0 -5.062,-3.985 -6.75,-6.86 -2.187,5.36 -6.062,6.953 -9.25,6.953 -11.718,0 -23.937,-14.703 -23.937,-29.109 0,-9.734 5.859,-15.891 13.125,-15.891 4.265,0 8.14,2.391 11.719,5.969 -0.907,-3.484 -4.172,-16.891 -4.469,-17.781 -0.797,-2.781 -1.594,-3.188 -7.156,-3.281 -1.297,0 -2.282,0 -2.282,-1.985 0,-0.109 0,-1.094 1.282,-1.094 3.187,0 6.656,0.297 9.937,0.297 3.375,0 6.953,-0.297 10.234,-0.297 0.5,0 1.782,0 1.782,1.985 0,1.094 -0.985,1.094 -2.578,1.094 -4.766,0 -4.766,0.687 -4.766,1.578 0,0.703 0.203,1.297 0.391,2.187 z m -27.515,-41.719 c -5.969,0 -6.36,7.64 -6.36,9.344 0,4.765 2.875,15.593 4.563,19.765 3.078,7.344 8.25,11.516 12.312,11.516 6.469,0 7.86,-8.047 7.86,-8.735 0,-0.593 -5.469,-22.359 -5.766,-22.75 -1.484,-2.781 -7.047,-9.14 -12.609,-9.14" />
          <path
             inkscape:connector-curvature="0"
             id="path20"
             style="fill:#000000;fill-opacity:1;fill-rule:nonzero;stroke:none"
             d="m 247.875,131.156 c 0,0.297 0,0.5 -1.687,2.188 -12.407,12.515 -15.594,31.297 -15.594,46.484 0,17.297 3.781,34.578 16,47 1.281,1.188 1.281,1.391 1.281,1.688 0,0.687 -0.391,0.984 -0.984,0.984 -1,0 -9.938,-6.75 -15.797,-19.375 -5.063,-10.922 -6.266,-21.953 -6.266,-30.297 0,-7.734 1.094,-19.765 6.563,-30.984 5.953,-12.219 14.5,-18.672 15.5,-18.672 0.593,0 0.984,0.297 0.984,0.984" />
          <path
             inkscape:connector-curvature="0"
             id="path22"
             style="fill:#000000;fill-opacity:1;fill-rule:nonzero;stroke:none"
             d="m 268.891,162.75 c -0.985,-3.875 -1.188,-4.672 -9.032,-4.672 -1.687,0 -2.687,0 -2.687,-1.984 0,-1.094 0.891,-1.094 2.687,-1.094 h 35.454 c 15.703,0 27.421,11.719 27.421,21.453 0,7.156 -5.765,12.922 -15.39,14.016 10.328,1.875 20.75,9.234 20.75,18.672 0,7.343 -6.547,13.703 -18.469,13.703 H 276.25 c -1.891,0 -2.891,0 -2.891,-1.985 0,-1.093 0.907,-1.093 2.782,-1.093 0.203,0 2.093,0 3.781,-0.203 1.781,-0.188 2.687,-0.297 2.687,-1.579 0,-0.406 -0.109,-0.703 -0.406,-1.89 z m 15,28.609 6.156,24.641 c 0.906,3.469 1.094,3.766 5.375,3.766 h 12.812 c 8.735,0 10.829,-5.86 10.829,-10.235 0,-8.734 -8.547,-18.172 -20.672,-18.172 z m -4.469,-33.281 c -1.391,0 -1.594,0 -2.188,0.094 -0.984,0.109 -1.281,0.203 -1.281,1 0,0.297 0,0.5 0.485,2.281 l 6.859,27.719 h 18.781 c 9.531,0 11.422,-7.344 11.422,-11.625 0,-9.828 -8.844,-19.469 -20.562,-19.469 h -13.516" />
          <path
             inkscape:connector-curvature="0"
             id="path24"
             style="fill:#000000;fill-opacity:1;fill-rule:nonzero;stroke:none"
             d="m 349.797,225.922 c 0,1.797 0,3.578 -1.984,3.578 -1.985,0 -1.985,-1.781 -1.985,-3.578 v -92.188 c 0,-1.781 0,-3.562 1.985,-3.562 1.984,0 1.984,1.781 1.984,3.562 v 92.188" />
          <path
             inkscape:connector-curvature="0"
             id="path26"
             style="fill:#000000;fill-opacity:1;fill-rule:nonzero;stroke:none"
             d="m 376.891,162.75 c -0.985,-3.875 -1.188,-4.672 -9.032,-4.672 -1.687,0 -2.687,0 -2.687,-1.984 0,-1.094 0.891,-1.094 2.687,-1.094 h 35.454 c 15.703,0 27.421,11.719 27.421,21.453 0,7.156 -5.765,12.922 -15.39,14.016 10.328,1.875 20.75,9.234 20.75,18.672 0,7.343 -6.547,13.703 -18.469,13.703 H 384.25 c -1.891,0 -2.891,0 -2.891,-1.985 0,-1.093 0.907,-1.093 2.782,-1.093 0.203,0 2.093,0 3.781,-0.203 1.781,-0.188 2.687,-0.297 2.687,-1.579 0,-0.406 -0.109,-0.703 -0.406,-1.89 z m 15,28.609 6.156,24.641 c 0.906,3.469 1.094,3.766 5.375,3.766 h 12.812 c 8.735,0 10.829,-5.86 10.829,-10.235 0,-8.734 -8.547,-18.172 -20.672,-18.172 z m -4.469,-33.281 c -1.391,0 -1.594,0 -2.188,0.094 -0.984,0.109 -1.281,0.203 -1.281,1 0,0.297 0,0.5 0.485,2.281 l 6.859,27.719 h 18.781 c 9.531,0 11.422,-7.344 11.422,-11.625 0,-9.828 -8.844,-19.469 -20.562,-19.469 h -13.516" />
          <path
             inkscape:connector-curvature="0"
             id="path28"
             style="fill:#000000;fill-opacity:1;fill-rule:nonzero;stroke:none"
             d="m 470.703,179.828 c 0,7.75 -1.094,19.781 -6.547,31 -5.968,12.219 -14.5,18.672 -15.5,18.672 -0.593,0 -1,-0.391 -1,-0.984 0,-0.297 0,-0.5 1.891,-2.297 9.734,-9.828 15.406,-25.625 15.406,-46.391 0,-16.984 -3.687,-34.469 -16,-46.984 -1.297,-1.188 -1.297,-1.391 -1.297,-1.688 0,-0.593 0.407,-0.984 1,-0.984 1,0 9.938,6.75 15.797,19.359 5.063,10.938 6.25,21.953 6.25,30.297" />
          <path
             inkscape:connector-curvature="0"
             id="path30"
             style="fill:#000000;fill-opacity:1;fill-rule:nonzero;stroke:none"
             d="m 651.906,197.813 c 0,0.406 -0.297,1 -1,1 -1.093,0 -5.062,-3.985 -6.75,-6.86 -2.187,5.36 -6.062,6.953 -9.25,6.953 -11.718,0 -23.937,-14.703 -23.937,-29.109 0,-9.734 5.859,-15.891 13.125,-15.891 4.265,0 8.14,2.391 11.719,5.969 -0.907,-3.484 -4.172,-16.891 -4.469,-17.781 -0.797,-2.781 -1.594,-3.188 -7.156,-3.281 -1.297,0 -2.282,0 -2.282,-1.985 0,-0.109 0,-1.094 1.282,-1.094 3.187,0 6.656,0.297 9.937,0.297 3.375,0 6.953,-0.297 10.234,-0.297 0.5,0 1.782,0 1.782,1.985 0,1.094 -0.985,1.094 -2.578,1.094 -4.766,0 -4.766,0.687 -4.766,1.578 0,0.703 0.203,1.297 0.391,2.187 z m -27.515,-41.719 c -5.969,0 -6.36,7.64 -6.36,9.344 0,4.765 2.875,15.593 4.563,19.765 3.078,7.344 8.25,11.516 12.312,11.516 6.469,0 7.86,-8.047 7.86,-8.735 0,-0.593 -5.469,-22.359 -5.766,-22.75 -1.484,-2.781 -7.047,-9.14 -12.609,-9.14" />
          <path
             inkscape:connector-curvature="0"
             id="path32"
             style="fill:#000000;fill-opacity:1;fill-rule:nonzero;stroke:none"
             d="m 687.875,131.156 c 0,0.297 0,0.5 -1.687,2.188 -12.407,12.515 -15.594,31.297 -15.594,46.484 0,17.297 3.781,34.578 16,47 1.281,1.188 1.281,1.391 1.281,1.688 0,0.687 -0.391,0.984 -0.984,0.984 -1,0 -9.938,-6.75 -15.797,-19.375 -5.063,-10.922 -6.266,-21.953 -6.266,-30.297 0,-7.734 1.094,-19.765 6.563,-30.984 5.953,-12.219 14.5,-18.672 15.5,-18.672 0.593,0 0.984,0.297 0.984,0.984" />
          <path
             inkscape:connector-curvature="0"
             id="path34"
             style="fill:#000000;fill-opacity:1;fill-rule:nonzero;stroke:none"
             d="m 709.891,162.75 c -0.985,-3.875 -1.188,-4.672 -9.032,-4.672 -1.687,0 -2.687,0 -2.687,-1.984 0,-1.094 0.891,-1.094 2.687,-1.094 h 35.454 c 15.703,0 27.421,11.719 27.421,21.453 0,7.156 -5.765,12.922 -15.39,14.016 10.328,1.875 20.75,9.234 20.75,18.672 0,7.343 -6.547,13.703 -18.469,13.703 H 717.25 c -1.891,0 -2.891,0 -2.891,-1.985 0,-1.093 0.907,-1.093 2.782,-1.093 0.203,0 2.093,0 3.781,-0.203 1.781,-0.188 2.687,-0.297 2.687,-1.579 0,-0.406 -0.109,-0.703 -0.406,-1.89 z m 15,28.609 6.156,24.641 c 0.906,3.469 1.094,3.766 5.375,3.766 h 12.812 c 8.735,0 10.829,-5.86 10.829,-10.235 0,-8.734 -8.547,-18.172 -20.672,-18.172 z m -4.469,-33.281 c -1.391,0 -1.594,0 -2.188,0.094 -0.984,0.109 -1.281,0.203 -1.281,1 0,0.297 0,0.5 0.485,2.281 l 6.859,27.719 h 18.781 c 9.531,0 11.422,-7.344 11.422,-11.625 0,-9.828 -8.844,-19.469 -20.562,-19.469 h -13.516" />
          <path
             inkscape:connector-curvature="0"
             id="path36"
             style="fill:#000000;fill-opacity:1;fill-rule:nonzero;stroke:none"
             d="m 789.797,225.922 c 0,1.797 0,3.578 -1.984,3.578 -1.985,0 -1.985,-1.781 -1.985,-3.578 v -92.188 c 0,-1.781 0,-3.562 1.985,-3.562 1.984,0 1.984,1.781 1.984,3.562 v 92.188" />
          <path
             inkscape:connector-curvature="0"
             id="path38"
             style="fill:#000000;fill-opacity:1;fill-rule:nonzero;stroke:none"
             d="m 893.984,215.203 c 0.891,3.578 1.094,4.563 8.547,4.563 2.282,0 3.172,0 3.172,1.984 0,1.094 -0.984,1.094 -2.672,1.094 h -13.125 c -2.578,0 -2.672,0 -3.859,-1.891 l -36.266,-56.609 -7.75,56.219 c -0.297,2.281 -0.5,2.281 -3.078,2.281 h -13.609 c -1.891,0 -2.985,0 -2.985,-1.891 0,-1.187 0.907,-1.187 2.891,-1.187 1.281,0 3.078,-0.094 4.266,-0.203 1.593,-0.188 2.187,-0.485 2.187,-1.579 0,-0.406 -0.094,-0.703 -0.406,-1.89 l -12.609,-50.563 c -1,-3.968 -2.688,-7.156 -10.735,-7.453 -0.484,0 -1.781,-0.094 -1.781,-1.89 0,-0.891 0.594,-1.188 1.391,-1.188 3.171,0 6.656,0.297 9.937,0.297 3.375,0 6.953,-0.297 10.234,-0.297 0.485,0 1.782,0 1.782,1.984 0,1.094 -1.094,1.094 -1.782,1.094 -5.671,0.094 -6.765,2.094 -6.765,4.375 0,0.688 0.109,1.188 0.406,2.281 l 13.5,54.141 h 0.109 l 8.532,-61.594 c 0.203,-1.187 0.312,-2.281 1.5,-2.281 1.093,0 1.687,1.094 2.187,1.781 l 40.125,62.891 h 0.11 L 873.219,162.75 c -0.985,-3.875 -1.188,-4.672 -9.031,-4.672 -1.688,0 -2.782,0 -2.782,-1.89 0,-1.188 1.188,-1.188 1.485,-1.188 2.781,0 9.547,0.297 12.328,0.297 4.062,0 8.344,-0.297 12.406,-0.297 0.594,0 1.891,0 1.891,1.984 0,1.094 -0.891,1.094 -2.782,1.094 -3.671,0 -6.453,0 -6.453,1.797 0,0.391 0,0.594 0.5,2.375 l 13.203,52.953" />
          <path
             inkscape:connector-curvature="0"
             id="path40"
             style="fill:#000000;fill-opacity:1;fill-rule:nonzero;stroke:none"
             d="m 938.703,179.828 c 0,7.75 -1.094,19.781 -6.547,31 -5.968,12.219 -14.5,18.672 -15.5,18.672 -0.593,0 -1,-0.391 -1,-0.984 0,-0.297 0,-0.5 1.891,-2.297 9.734,-9.828 15.406,-25.625 15.406,-46.391 0,-16.984 -3.687,-34.469 -16,-46.984 -1.297,-1.188 -1.297,-1.391 -1.297,-1.688 0,-0.593 0.407,-0.984 1,-0.984 1,0 9.938,6.75 15.797,19.359 5.063,10.938 6.25,21.953 6.25,30.297" />
          <path
             inkscape:connector-curvature="0"
             id="path42"
             style="fill:#000000;fill-opacity:1;fill-rule:nonzero;stroke:none"
             d="m 198.906,77.8125 c 0,0.4063 -0.297,1 -1,1 -1.093,0 -5.062,-3.9844 -6.75,-6.8594 -2.187,5.3594 -6.062,6.9532 -9.25,6.9532 -11.718,0 -23.937,-14.7032 -23.937,-29.1094 0,-9.7344 5.859,-15.8906 13.125,-15.8906 4.265,0 8.14,2.3906 11.719,5.9687 -0.907,-3.4844 -4.172,-16.8906 -4.469,-17.7812 -0.797,-2.7813 -1.594,-3.1875 -7.156,-3.2813 -1.297,0 -2.282,0 -2.282,-1.9844 0,-0.1093 0,-1.0937 1.282,-1.0937 3.187,0 6.656,0.2969 9.937,0.2969 3.375,0 6.953,-0.2969 10.234,-0.2969 0.5,0 1.782,0 1.782,1.9844 0,1.0937 -0.985,1.0937 -2.578,1.0937 -4.766,0 -4.766,0.6875 -4.766,1.5781 0,0.7032 0.203,1.2969 0.391,2.1875 z M 171.391,36.0938 c -5.969,0 -6.36,7.6406 -6.36,9.3437 0,4.7656 2.875,15.5938 4.563,19.7656 3.078,7.3438 8.25,11.5157 12.312,11.5157 6.469,0 7.86,-8.0469 7.86,-8.7344 0,-0.5938 -5.469,-22.3594 -5.766,-22.75 -1.484,-2.7813 -7.047,-9.1406 -12.609,-9.1406" />
          <path
             inkscape:connector-curvature="0"
             id="path44"
             style="fill:#000000;fill-opacity:1;fill-rule:nonzero;stroke:none"
             d="m 234.875,11.1563 c 0,0.2968 0,0.5 -1.687,2.1875 -12.407,12.5156 -15.594,31.2968 -15.594,46.4843 0,17.2969 3.781,34.5782 16,46.9999 1.281,1.188 1.281,1.391 1.281,1.688 0,0.687 -0.391,0.984 -0.984,0.984 -1,0 -9.938,-6.75 -15.797,-19.375 -5.063,-10.9219 -6.266,-21.9531 -6.266,-30.2969 0,-7.7343 1.094,-19.7656 6.563,-30.9843 5.953,-12.2188 14.5,-18.6719 15.5,-18.6719 0.593,0 0.984,0.2969 0.984,0.9844" />
          <path
             inkscape:connector-curvature="0"
             id="path46"
             style="fill:#000000;fill-opacity:1;fill-rule:nonzero;stroke:none"
             d="m 331.984,95.2031 c 0.891,3.5782 1.094,4.5625 8.547,4.5625 2.282,0 3.172,0 3.172,1.9844 0,1.094 -0.984,1.094 -2.672,1.094 h -13.125 c -2.578,0 -2.672,0 -3.859,-1.891 l -36.266,-56.6092 -7.75,56.2192 c -0.297,2.281 -0.5,2.281 -3.078,2.281 h -13.609 c -1.891,0 -2.985,0 -2.985,-1.891 0,-1.1874 0.907,-1.1874 2.891,-1.1874 1.281,0 3.078,-0.0937 4.266,-0.2031 1.593,-0.1875 2.187,-0.4844 2.187,-1.5781 0,-0.4063 -0.094,-0.7031 -0.406,-1.8906 L 256.688,45.5313 c -1,-3.9688 -2.688,-7.1563 -10.735,-7.4532 -0.484,0 -1.781,-0.0937 -1.781,-1.8906 0,-0.8906 0.594,-1.1875 1.391,-1.1875 3.171,0 6.656,0.2969 9.937,0.2969 3.375,0 6.953,-0.2969 10.234,-0.2969 0.485,0 1.782,0 1.782,1.9844 0,1.0937 -1.094,1.0937 -1.782,1.0937 -5.671,0.0938 -6.765,2.0938 -6.765,4.375 0,0.6875 0.109,1.1875 0.406,2.2813 l 13.5,54.1406 h 0.109 l 8.532,-61.5937 c 0.203,-1.1875 0.312,-2.2813 1.5,-2.2813 1.093,0 1.687,1.0938 2.187,1.7813 l 40.125,62.8906 h 0.11 L 311.219,42.75 c -0.985,-3.875 -1.188,-4.6719 -9.031,-4.6719 -1.688,0 -2.782,0 -2.782,-1.8906 C 299.406,35 300.594,35 300.891,35 c 2.781,0 9.547,0.2969 12.328,0.2969 4.062,0 8.344,-0.2969 12.406,-0.2969 0.594,0 1.891,0 1.891,1.9844 0,1.0937 -0.891,1.0937 -2.782,1.0937 -3.671,0 -6.453,0 -6.453,1.7969 0,0.3906 0,0.5938 0.5,2.375 l 13.203,52.9531" />
          <path
             inkscape:connector-curvature="0"
             id="path48"
             style="fill:#000000;fill-opacity:1;fill-rule:nonzero;stroke:none"
             d="m 363.797,105.922 c 0,1.797 0,3.578 -1.984,3.578 -1.985,0 -1.985,-1.781 -1.985,-3.578 V 13.7344 c 0,-1.7813 0,-3.5625 1.985,-3.5625 1.984,0 1.984,1.7812 1.984,3.5625 v 92.1876" />
          <path
             inkscape:connector-curvature="0"
             id="path50"
             style="fill:#000000;fill-opacity:1;fill-rule:nonzero;stroke:none"
             d="m 391.891,42.75 c -0.985,-3.875 -1.188,-4.6719 -9.032,-4.6719 -1.687,0 -2.687,0 -2.687,-1.9843 C 380.172,35 381.063,35 382.859,35 h 35.454 c 15.703,0 27.421,11.7188 27.421,21.4531 0,7.1563 -5.765,12.9219 -15.39,14.0157 10.328,1.875 20.75,9.2343 20.75,18.6718 0,7.3438 -6.547,13.7034 -18.469,13.7034 H 399.25 c -1.891,0 -2.891,0 -2.891,-1.985 0,-1.0934 0.907,-1.0934 2.782,-1.0934 0.203,0 2.093,0 3.781,-0.2031 1.781,-0.1875 2.687,-0.2969 2.687,-1.5781 0,-0.4063 -0.109,-0.7031 -0.406,-1.8906 z m 15,28.6094 L 413.047,96 c 0.906,3.4688 1.094,3.7656 5.375,3.7656 h 12.812 c 8.735,0 10.829,-5.8593 10.829,-10.2343 0,-8.7344 -8.547,-18.1719 -20.672,-18.1719 z m -4.469,-33.2813 c -1.391,0 -1.594,0 -2.188,0.0938 -0.984,0.1094 -1.281,0.2031 -1.281,1 0,0.2969 0,0.5 0.485,2.2812 l 6.859,27.7188 h 18.781 c 9.531,0 11.422,-7.3438 11.422,-11.625 0,-9.8281 -8.844,-19.4688 -20.562,-19.4688 h -13.516" />
          <path
             inkscape:connector-curvature="0"
             id="path52"
             style="fill:#000000;fill-opacity:1;fill-rule:nonzero;stroke:none"
             d="m 484.703,59.8281 c 0,7.75 -1.094,19.7813 -6.547,31 -5.968,12.2189 -14.5,18.6719 -15.5,18.6719 -0.593,0 -1,-0.391 -1,-0.984 0,-0.297 0,-0.5 1.891,-2.297 9.734,-9.8284 15.406,-25.6252 15.406,-46.3909 0,-16.9843 -3.687,-34.4687 -16,-46.9843 -1.297,-1.1875 -1.297,-1.3907 -1.297,-1.6875 0,-0.5938 0.407,-0.9844 1,-0.9844 1,0 9.938,6.75 15.797,19.3594 5.063,10.9375 6.25,21.9531 6.25,30.2968" />
          <path
             inkscape:connector-curvature="0"
             id="path54"
             style="fill:#000000;fill-opacity:1;fill-rule:nonzero;stroke:none"
             d="m 638.906,77.8125 c 0,0.4063 -0.297,1 -1,1 -1.093,0 -5.062,-3.9844 -6.75,-6.8594 -2.187,5.3594 -6.062,6.9532 -9.25,6.9532 -11.718,0 -23.937,-14.7032 -23.937,-29.1094 0,-9.7344 5.859,-15.8906 13.125,-15.8906 4.265,0 8.14,2.3906 11.719,5.9687 -0.907,-3.4844 -4.172,-16.8906 -4.469,-17.7812 -0.797,-2.7813 -1.594,-3.1875 -7.156,-3.2813 -1.297,0 -2.282,0 -2.282,-1.9844 0,-0.1093 0,-1.0937 1.282,-1.0937 3.187,0 6.656,0.2969 9.937,0.2969 3.375,0 6.953,-0.2969 10.234,-0.2969 0.5,0 1.782,0 1.782,1.9844 0,1.0937 -0.985,1.0937 -2.578,1.0937 -4.766,0 -4.766,0.6875 -4.766,1.5781 0,0.7032 0.203,1.2969 0.391,2.1875 z M 611.391,36.0938 c -5.969,0 -6.36,7.6406 -6.36,9.3437 0,4.7656 2.875,15.5938 4.563,19.7656 3.078,7.3438 8.25,11.5157 12.312,11.5157 6.469,0 7.86,-8.0469 7.86,-8.7344 0,-0.5938 -5.469,-22.3594 -5.766,-22.75 -1.484,-2.7813 -7.047,-9.1406 -12.609,-9.1406" />
          <path
             inkscape:connector-curvature="0"
             id="path56"
             style="fill:#000000;fill-opacity:1;fill-rule:nonzero;stroke:none"
             d="m 674.875,11.1563 c 0,0.2968 0,0.5 -1.687,2.1875 -12.407,12.5156 -15.594,31.2968 -15.594,46.4843 0,17.2969 3.781,34.5782 16,46.9999 1.281,1.188 1.281,1.391 1.281,1.688 0,0.687 -0.391,0.984 -0.984,0.984 -1,0 -9.938,-6.75 -15.797,-19.375 -5.063,-10.9219 -6.266,-21.9531 -6.266,-30.2969 0,-7.7343 1.094,-19.7656 6.563,-30.9843 5.953,-12.2188 14.5,-18.6719 15.5,-18.6719 0.593,0 0.984,0.2969 0.984,0.9844" />
          <path
             inkscape:connector-curvature="0"
             id="path58"
             style="fill:#000000;fill-opacity:1;fill-rule:nonzero;stroke:none"
             d="m 772.984,95.2031 c 0.891,3.5782 1.094,4.5625 8.547,4.5625 2.282,0 3.172,0 3.172,1.9844 0,1.094 -0.984,1.094 -2.672,1.094 h -13.125 c -2.578,0 -2.672,0 -3.859,-1.891 l -36.266,-56.6092 -7.75,56.2192 c -0.297,2.281 -0.5,2.281 -3.078,2.281 h -13.609 c -1.891,0 -2.985,0 -2.985,-1.891 0,-1.1874 0.907,-1.1874 2.891,-1.1874 1.281,0 3.078,-0.0937 4.266,-0.2031 1.593,-0.1875 2.187,-0.4844 2.187,-1.5781 0,-0.4063 -0.094,-0.7031 -0.406,-1.8906 L 697.688,45.5313 c -1,-3.9688 -2.688,-7.1563 -10.735,-7.4532 -0.484,0 -1.781,-0.0937 -1.781,-1.8906 0,-0.8906 0.594,-1.1875 1.391,-1.1875 3.171,0 6.656,0.2969 9.937,0.2969 3.375,0 6.953,-0.2969 10.234,-0.2969 0.485,0 1.782,0 1.782,1.9844 0,1.0937 -1.094,1.0937 -1.782,1.0937 -5.671,0.0938 -6.765,2.0938 -6.765,4.375 0,0.6875 0.109,1.1875 0.406,2.2813 l 13.5,54.1406 h 0.109 l 8.532,-61.5937 c 0.203,-1.1875 0.312,-2.2813 1.5,-2.2813 1.093,0 1.687,1.0938 2.187,1.7813 l 40.125,62.8906 h 0.11 L 752.219,42.75 c -0.985,-3.875 -1.188,-4.6719 -9.031,-4.6719 -1.688,0 -2.782,0 -2.782,-1.8906 C 740.406,35 741.594,35 741.891,35 c 2.781,0 9.547,0.2969 12.328,0.2969 4.062,0 8.344,-0.2969 12.406,-0.2969 0.594,0 1.891,0 1.891,1.9844 0,1.0937 -0.891,1.0937 -2.782,1.0937 -3.671,0 -6.453,0 -6.453,1.7969 0,0.3906 0,0.5938 0.5,2.375 l 13.203,52.9531" />
          <path
             inkscape:connector-curvature="0"
             id="path60"
             style="fill:#000000;fill-opacity:1;fill-rule:nonzero;stroke:none"
             d="m 804.797,105.922 c 0,1.797 0,3.578 -1.984,3.578 -1.985,0 -1.985,-1.781 -1.985,-3.578 V 13.7344 c 0,-1.7813 0,-3.5625 1.985,-3.5625 1.984,0 1.984,1.7812 1.984,3.5625 v 92.1876" />
          <path
             inkscape:connector-curvature="0"
             id="path62"
             style="fill:#000000;fill-opacity:1;fill-rule:nonzero;stroke:none"
             d="m 907.984,95.2031 c 0.891,3.5782 1.094,4.5625 8.547,4.5625 2.282,0 3.172,0 3.172,1.9844 0,1.094 -0.984,1.094 -2.672,1.094 h -13.125 c -2.578,0 -2.672,0 -3.859,-1.891 l -36.266,-56.6092 -7.75,56.2192 c -0.297,2.281 -0.5,2.281 -3.078,2.281 h -13.609 c -1.891,0 -2.985,0 -2.985,-1.891 0,-1.1874 0.907,-1.1874 2.891,-1.1874 1.281,0 3.078,-0.0937 4.266,-0.2031 1.593,-0.1875 2.187,-0.4844 2.187,-1.5781 0,-0.4063 -0.094,-0.7031 -0.406,-1.8906 L 832.688,45.5313 c -1,-3.9688 -2.688,-7.1563 -10.735,-7.4532 -0.484,0 -1.781,-0.0937 -1.781,-1.8906 0,-0.8906 0.594,-1.1875 1.391,-1.1875 3.171,0 6.656,0.2969 9.937,0.2969 3.375,0 6.953,-0.2969 10.234,-0.2969 0.485,0 1.782,0 1.782,1.9844 0,1.0937 -1.094,1.0937 -1.782,1.0937 -5.671,0.0938 -6.765,2.0938 -6.765,4.375 0,0.6875 0.109,1.1875 0.406,2.2813 l 13.5,54.1406 h 0.109 l 8.532,-61.5937 c 0.203,-1.1875 0.312,-2.2813 1.5,-2.2813 1.093,0 1.687,1.0938 2.187,1.7813 l 40.125,62.8906 h 0.11 L 887.219,42.75 c -0.985,-3.875 -1.188,-4.6719 -9.031,-4.6719 -1.688,0 -2.782,0 -2.782,-1.8906 C 875.406,35 876.594,35 876.891,35 c 2.781,0 9.547,0.2969 12.328,0.2969 4.062,0 8.344,-0.2969 12.406,-0.2969 0.594,0 1.891,0 1.891,1.9844 0,1.0937 -0.891,1.0937 -2.782,1.0937 -3.671,0 -6.453,0 -6.453,1.7969 0,0.3906 0,0.5938 0.5,2.375 l 13.203,52.9531" />
          <path
             inkscape:connector-curvature="0"
             id="path64"
             style="fill:#000000;fill-opacity:1;fill-rule:nonzero;stroke:none"
             d="m 952.703,59.8281 c 0,7.75 -1.094,19.7813 -6.547,31 -5.968,12.2189 -14.5,18.6719 -15.5,18.6719 -0.593,0 -1,-0.391 -1,-0.984 0,-0.297 0,-0.5 1.891,-2.297 9.734,-9.8284 15.406,-25.6252 15.406,-46.3909 0,-16.9843 -3.687,-34.4687 -16,-46.9843 -1.297,-1.1875 -1.297,-1.3907 -1.297,-1.6875 0,-0.5938 0.407,-0.9844 1,-0.9844 1,0 9.938,6.75 15.797,19.3594 5.063,10.9375 6.25,21.9531 6.25,30.2968" />
          <path
             inkscape:connector-curvature="0"
             id="path66"
             style="fill:#000000;fill-opacity:1;fill-rule:nonzero;stroke:none"
             d="m 985.047,5.125 h -20.656 v -5.46875 h 26.125 V 237.969 h -26.125 v -5.453 h 20.656 V 5.125" />
        </g>
      </g>
    </g>
  </g>
</svg>
