<?xml version="1.0" encoding="UTF-8" standalone="no"?>
<!-- Created with Inkscape (http://www.inkscape.org/) -->

<svg
   xmlns:dc="http://purl.org/dc/elements/1.1/"
   xmlns:cc="http://creativecommons.org/ns#"
   xmlns:rdf="http://www.w3.org/1999/02/22-rdf-syntax-ns#"
   xmlns:svg="http://www.w3.org/2000/svg"
   xmlns="http://www.w3.org/2000/svg"
   xmlns:sodipodi="http://sodipodi.sourceforge.net/DTD/sodipodi-0.dtd"
   xmlns:inkscape="http://www.inkscape.org/namespaces/inkscape"
   width="96mm"
   height="28mm"
   viewBox="0 0 96 28"
   version="1.1"
   id="svg8"
   inkscape:version="0.92.3 (2405546, 2018-03-11)"
   sodipodi:docname="density.svg">
  <sodipodi:namedview
     id="base"
     pagecolor="#ffffff"
     bordercolor="#666666"
     borderopacity="1.0"
     inkscape:pageopacity="0.0"
     inkscape:pageshadow="2"
     inkscape:zoom="2.8"
     inkscape:cx="209.50359"
     inkscape:cy="94.546849"
     inkscape:document-units="mm"
     inkscape:current-layer="layer1"
     showgrid="false"
     inkscape:window-width="1920"
     inkscape:window-height="1025"
     inkscape:window-x="0"
     inkscape:window-y="1227"
     inkscape:window-maximized="1"
     showguides="true"
     inkscape:guide-bbox="true" />
  <defs
     id="defs2" />
  <metadata
     id="metadata5">
    <rdf:RDF>
      <cc:Work
         rdf:about="">
        <dc:format>image/svg+xml</dc:format>
        <dc:type
           rdf:resource="http://purl.org/dc/dcmitype/StillImage" />
        <dc:title></dc:title>
      </cc:Work>
    </rdf:RDF>
  </metadata>
  <g
     inkscape:label="Layer 1"
     inkscape:groupmode="layer"
     id="layer1"
     transform="translate(0,-269)">
    <path
       inkscape:connector-curvature="0"
       id="path900"
       d="M 33.585265,284.30052 V 269.85541"
       style="fill:none;stroke:#000000;stroke-width:1;stroke-linecap:round;stroke-linejoin:miter;stroke-miterlimit:4;stroke-dasharray:none;stroke-opacity:1" />
    <path
       inkscape:connector-curvature="0"
       id="path900-7"
       d="M 89.060832,284.30053 V 269.85542"
       style="fill:none;stroke:#000000;stroke-width:1;stroke-linecap:round;stroke-linejoin:miter;stroke-miterlimit:4;stroke-dasharray:none;stroke-opacity:1" />
    <g
       id="g1206">
      <path
         style="fill:none;stroke:#000000;stroke-width:1;stroke-linecap:round;stroke-linejoin:miter;stroke-miterlimit:4;stroke-dasharray:none;stroke-opacity:1"
         d="M 42.590033,284.30053 V 269.85542"
         id="path900-5"
         inkscape:connector-curvature="0" />
      <path
         style="fill:none;stroke:#000000;stroke-width:1;stroke-linecap:round;stroke-linejoin:miter;stroke-miterlimit:4;stroke-dasharray:none;stroke-opacity:1"
         d="M 70.778502,284.30053 V 269.85542"
         id="path900-3"
         inkscape:connector-curvature="0" />
    </g>
    <path
       inkscape:connector-curvature="0"
       id="path900-56"
       d="M 79.957552,284.30053 V 269.85542"
       style="fill:none;stroke:#000000;stroke-width:1;stroke-linecap:round;stroke-linejoin:miter;stroke-miterlimit:4;stroke-dasharray:none;stroke-opacity:1" />
    <g
       id="g979"
       transform="translate(-33.687732,176.5148)">
      <g
         word-spacing="normal"
         letter-spacing="normal"
         font-size-adjust="none"
         font-stretch="normal"
         font-weight="normal"
         font-variant="normal"
         font-style="normal"
         stroke-miterlimit="10.433"
         xml:space="preserve"
         transform="matrix(0.3,0,0,-0.3,-52.5,222.75)"
         id="g977"
         style="font-style:normal;font-variant:normal;font-weight:normal;font-stretch:normal;letter-spacing:normal;word-spacing:normal;text-anchor:start;fill:none;fill-opacity:1;fill-rule:evenodd;stroke:#000000;stroke-linecap:butt;stroke-linejoin:miter;stroke-miterlimit:10.43299961;stroke-dasharray:none;stroke-dashoffset:0;stroke-opacity:1"><path
           id="path971"
           d="m 465.08,408.84 v 0.13 l -0.01,0.14 -0.02,0.13 -0.02,0.13 -0.03,0.12 -0.04,0.13 -0.04,0.12 -0.05,0.12 -0.05,0.12 -0.06,0.11 -0.06,0.11 -0.07,0.11 -0.07,0.1 -0.08,0.1 -0.09,0.1 -0.08,0.09 -0.1,0.09 -0.09,0.08 -0.1,0.08 -0.1,0.07 -0.11,0.07 -0.11,0.07 -0.12,0.06 -0.11,0.05 -0.12,0.05 -0.13,0.04 -0.12,0.04 -0.13,0.03 -0.13,0.02 -0.13,0.02 -0.13,0.01 h -0.14 c -1.44,0 -2.64,-1.2 -2.64,-2.64 0,-1.44 1.2,-2.64 2.64,-2.64 1.45,0 2.64,1.2 2.64,2.64 z"
           inkscape:connector-curvature="0"
           style="fill:#000000;stroke-width:0" /><path
           id="path973"
           d="m 478.88,408.84 v 0.13 l -0.01,0.14 -0.02,0.13 -0.02,0.13 -0.03,0.12 -0.04,0.13 -0.04,0.12 -0.05,0.12 -0.05,0.12 -0.06,0.11 -0.06,0.11 -0.07,0.11 -0.08,0.1 -0.08,0.1 -0.08,0.1 -0.09,0.09 -0.09,0.09 -0.09,0.08 -0.1,0.08 -0.11,0.07 -0.11,0.07 -0.11,0.07 -0.11,0.06 -0.12,0.05 -0.12,0.05 -0.12,0.04 -0.12,0.04 -0.13,0.03 -0.13,0.02 -0.13,0.02 -0.14,0.01 h -0.13 c -1.44,0 -2.64,-1.2 -2.64,-2.64 0,-1.44 1.2,-2.64 2.64,-2.64 1.45,0 2.64,1.2 2.64,2.64 z"
           inkscape:connector-curvature="0"
           style="fill:#000000;stroke-width:0" /><path
           id="path975"
           d="m 492.68,408.84 -0.01,0.13 -0.01,0.14 -0.01,0.13 -0.03,0.13 -0.03,0.12 -0.03,0.13 -0.04,0.12 -0.05,0.12 -0.06,0.12 -0.05,0.11 -0.07,0.11 -0.07,0.11 -0.07,0.1 -0.08,0.1 -0.08,0.1 -0.09,0.09 -0.09,0.09 -0.1,0.08 -0.1,0.08 -0.1,0.07 -0.11,0.07 -0.11,0.07 -0.11,0.06 -0.12,0.05 -0.12,0.05 -0.12,0.04 -0.13,0.04 -0.12,0.03 -0.13,0.02 -0.14,0.02 -0.13,0.01 h -0.13 c -1.44,0 -2.65,-1.2 -2.65,-2.64 0,-1.44 1.21,-2.64 2.65,-2.64 1.45,0 2.64,1.2 2.64,2.64 z"
           inkscape:connector-curvature="0"
           style="fill:#000000;stroke-width:0" /></g>    </g>
    <rect
       style="opacity:1;fill:#c9c9c9;fill-opacity:1;fill-rule:nonzero;stroke:#808080;stroke-width:5;stroke-linecap:round;stroke-linejoin:round;stroke-miterlimit:4;stroke-dasharray:none;stroke-dashoffset:0;stroke-opacity:1;paint-order:markers stroke fill"
       id="rect815-7-0"
       width="64.153862"
       height="10.850014"
       x="29.246138"
       y="283.18158" />
    <path
       style="font-style:normal;font-variant:normal;font-weight:normal;font-stretch:normal;letter-spacing:normal;word-spacing:normal;text-anchor:start;fill:#000000;fill-opacity:1;fill-rule:evenodd;stroke:#000000;stroke-width:0;stroke-linecap:butt;stroke-linejoin:miter;stroke-miterlimit:10.43299961;stroke-dasharray:none;stroke-dashoffset:0;stroke-opacity:1"
       inkscape:connector-curvature="0"
       d="m 60.595552,288.80274 0.0326,-0.19856 0.52587,-2.10348 c 0.0667,-0.26992 0.0838,-0.29319 0.41573,-0.29319 h 0.74304 c 0.64222,0 1.05174,0.20787 1.05174,0.74149 0,0.3025 -0.15512,0.96643 -0.45606,1.24565 -0.38781,0.34593 -0.85008,0.40953 -1.1929,0.40953 h -1.08742 l -0.0326,0.19856 h 1.3139 c 1.09828,0 2.17173,-0.802 2.17173,-1.66759 0,-0.59567 -0.5088,-1.16808 -1.52176,-1.16808 h -2.5037 c -0.14737,0 -0.23269,0 -0.23269,0.14737 0,0.0931 0.0698,0.0931 0.22493,0.0931 0.0993,0 0.24044,0.006 0.33197,0.014 0.1241,0.0171 0.17063,0.0388 0.17063,0.1241 0,0.031 -0.008,0.0559 -0.0326,0.14737 l -1.03468,4.14957 c -0.0776,0.30249 -0.0915,0.36299 -0.70271,0.36299 -0.1303,0 -0.21562,0 -0.21562,0.14891 0,0.0915 0.0915,0.0915 0.11324,0.0915 0.21872,0 0.76631,-0.0248 0.98193,-0.0248 0.16288,0 0.33197,0.0109 0.49485,0.0109 0.17219,0 0.34127,0.014 0.50415,0.014 0.0527,0 0.15202,0 0.15202,-0.15513 0,-0.0853 -0.0667,-0.0853 -0.21562,-0.0853 -0.28543,0 -0.50105,0 -0.50105,-0.13807 0,-0.045 0.014,-0.0838 0.0217,-0.1303 z"
       id="path821-3" />
    <g
       id="g10"
       transform="matrix(0.71607804,0,0,-0.71607804,0.30575976,292.17522)">
      <g
         id="g12"
         transform="scale(0.1)">
        <path
           d="m 26.0938,56.3906 h 16.8906 c 14.1094,0 27.9219,10.3282 27.9219,21.4532 0,7.6562 -6.5625,15 -19.5782,15 H 19.1406 c -1.875,0 -2.9687,0 -2.9687,-1.8907 0,-1.1875 0.8906,-1.1875 2.875,-1.1875 1.2969,0 3.0781,-0.0937 4.2656,-0.2031 1.5938,-0.1875 2.1875,-0.4844 2.1875,-1.5781 0,-0.4063 -0.0937,-0.7031 -0.3906,-1.8906 L 11.7969,32.75 c -1,-3.875 -1.1875,-4.6719 -9.0469,-4.6719 -1.6875,0 -2.78125,0 -2.78125,-1.8906 C -0.03125,25 1.17188,25 1.46875,25 4.25,25 11.2969,25.2969 14.0781,25.2969 c 2.0938,0 4.2657,-0.0938 6.3594,-0.0938 2.1875,0 4.375,-0.2031 6.4531,-0.2031 0.7032,0 1.9844,0 1.9844,1.9844 0,1.0937 -0.8906,1.0937 -2.7812,1.0937 -3.6719,0 -6.4532,0 -6.4532,1.7969 0,0.5938 0.2032,1.0781 0.2969,1.6875 z M 33.25,86 c 0.8906,3.4688 1.0938,3.7656 5.3594,3.7656 h 9.5469 c 8.2343,0 13.5,-2.6875 13.5,-9.5312 0,-3.875 -1.9844,-12.4219 -5.8594,-16 C 50.8281,59.7656 44.875,58.9688 40.5,58.9688 h -14 L 33.25,86"
           style="fill:#000000;fill-opacity:1;fill-rule:nonzero;stroke:none"
           id="path14"
           inkscape:connector-curvature="0" />
        <path
           d="m 106.875,1.15625 c 0,0.29688 0,0.5 -1.687,2.1875 C 92.7813,15.8594 89.5938,34.6406 89.5938,49.8281 c 0,17.2969 3.7812,34.5782 16.0002,47 1.281,1.1875 1.281,1.3907 1.281,1.6875 0,0.6875 -0.391,0.9844 -0.984,0.9844 -1,0 -9.9379,-6.75 -15.7972,-19.375 -5.0625,-10.9219 -6.2657,-21.9531 -6.2657,-30.2969 0,-7.7343 1.0938,-19.7656 6.5625,-30.9843 C 96.3438,6.625 104.891,0.171875 105.891,0.171875 c 0.593,0 0.984,0.296875 0.984,0.984375"
           style="fill:#000000;fill-opacity:1;fill-rule:nonzero;stroke:none"
           id="path16"
           inkscape:connector-curvature="0" />
        <path
           d="m 164.344,84.1094 c -1.391,-1.2969 -4.672,-4.0781 -4.672,-5.8594 0,-1 1,-1.9844 1.984,-1.9844 0.907,0 1.391,0.6875 1.891,1.2813 1.187,1.5 3.484,4.2812 7.844,6.4531 0.703,0.4063 1.687,0.9063 1.687,2.0938 0,0.9843 -0.687,1.4843 -1.39,1.9843 -2.172,1.4844 -3.266,3.2813 -4.063,5.6563 -0.203,0.9062 -0.594,2.1875 -1.984,2.1875 -1.391,0 -1.985,-1.2813 -1.985,-2.0781 0,-0.5 0.782,-3.6719 2.375,-5.7657 h -33.468 c -1.688,0 -3.485,0 -3.485,-1.9843 0,-1.9844 1.797,-1.9844 3.485,-1.9844 h 31.781"
           style="fill:#000000;fill-opacity:1;fill-rule:nonzero;stroke:none"
           id="path18"
           inkscape:connector-curvature="0" />
        <path
           d="m 146.766,30.5625 c 1.093,-4.0781 4.578,-6.6562 8.843,-6.6562 3.469,0 5.766,2.2812 7.344,5.4687 1.703,3.5781 2.985,9.625 2.985,9.8281 0,1 -0.891,1 -1.188,1 -1,0 -1.094,-0.4062 -1.391,-1.7968 -1.39,-5.5625 -3.281,-12.3125 -7.453,-12.3125 -2.078,0 -3.078,1.2968 -3.078,4.5625 0,2.1875 1.188,6.8593 1.985,10.3437 l 2.781,10.7188 c 0.297,1.5 1.297,5.2656 1.687,6.7656 0.5,2.2812 1.5,6.0469 1.5,6.6406 0,1.7969 -1.39,2.6875 -2.89,2.6875 -0.5,0 -3.078,-0.0937 -3.875,-3.4687 -1.891,-7.2657 -6.25,-24.6407 -7.453,-29.9063 -0.094,-0.3906 -4.063,-8.3437 -11.313,-8.3437 -5.172,0 -6.156,4.4687 -6.156,8.1406 0,5.5625 2.781,13.4219 5.359,20.2656 1.188,2.9844 1.688,4.375 1.688,6.2656 0,4.4688 -3.188,8.1407 -8.141,8.1407 -9.437,0 -13.125,-14.4063 -13.125,-15.2969 0,-1 1,-1 1.203,-1 0.985,0 1.094,0.2031 1.578,1.7969 2.485,8.6406 6.266,12.3125 10.032,12.3125 0.906,0 2.484,-0.0938 2.484,-3.2813 0,-2.375 -1.078,-5.2656 -1.688,-6.75 -3.671,-9.8281 -5.75,-16 -5.75,-20.8594 0,-9.4375 6.844,-11.9218 12.219,-11.9218 6.547,0 10.125,4.4687 11.813,6.6562"
           style="fill:#000000;fill-opacity:1;fill-rule:nonzero;stroke:none"
           id="path20"
           inkscape:connector-curvature="0" />
        <path
           d="m 197.703,49.8281 c 0,7.75 -1.094,19.7813 -6.547,31 -5.968,12.2188 -14.5,18.6719 -15.5,18.6719 -0.593,0 -1,-0.3906 -1,-0.9844 0,-0.2968 0,-0.5 1.891,-2.2968 9.734,-9.8282 15.406,-25.625 15.406,-46.3907 0,-16.9843 -3.687,-34.4687 -16,-46.98435 -1.297,-1.1875 -1.297,-1.39062 -1.297,-1.6875 0,-0.59375 0.407,-0.984375 1,-0.984375 1,0 9.938,6.750005 15.797,19.359425 5.063,10.9375 6.25,21.9531 6.25,30.2968"
           style="fill:#000000;fill-opacity:1;fill-rule:nonzero;stroke:none"
           id="path22"
           inkscape:connector-curvature="0" />
        <path
           d="m 304.25,57.4844 c 1.484,0 3.375,0 3.375,1.9844 0,1.9843 -1.891,1.9843 -3.281,1.9843 h -59.5 c -1.391,0 -3.281,0 -3.281,-1.9843 0,-1.9844 1.89,-1.9844 3.375,-1.9844 z m 0.094,-19.2656 c 1.39,0 3.281,0 3.281,1.9843 0,1.9844 -1.891,1.9844 -3.375,1.9844 h -59.312 c -1.485,0 -3.375,0 -3.375,-1.9844 0,-1.9843 1.89,-1.9843 3.281,-1.9843 h 59.5"
           style="fill:#000000;fill-opacity:1;fill-rule:nonzero;stroke:none"
           id="path24"
           inkscape:connector-curvature="0" />
      </g>
    </g>
  </g>
</svg>
