<?xml version="1.0" encoding="UTF-8" standalone="no"?>
<!-- Created with Inkscape (http://www.inkscape.org/) -->

<svg
   xmlns:dc="http://purl.org/dc/elements/1.1/"
   xmlns:cc="http://creativecommons.org/ns#"
   xmlns:rdf="http://www.w3.org/1999/02/22-rdf-syntax-ns#"
   xmlns:svg="http://www.w3.org/2000/svg"
   xmlns="http://www.w3.org/2000/svg"
   xmlns:sodipodi="http://sodipodi.sourceforge.net/DTD/sodipodi-0.dtd"
   xmlns:inkscape="http://www.inkscape.org/namespaces/inkscape"
   width="218mm"
   height="31mm"
   viewBox="0 0 218 31"
   version="1.1"
   id="svg8"
   inkscape:version="0.92.3 (2405546, 2018-03-11)"
   sodipodi:docname="fsc_markov_tn.svg">
  <defs
     id="defs2" />
  <sodipodi:namedview
     id="base"
     pagecolor="#ffffff"
     bordercolor="#666666"
     borderopacity="1.0"
     inkscape:pageopacity="0.0"
     inkscape:pageshadow="2"
     inkscape:zoom="1.4"
     inkscape:cx="482.82828"
     inkscape:cy="115.53288"
     inkscape:document-units="mm"
     inkscape:current-layer="layer1"
     showgrid="false"
     inkscape:window-width="1920"
     inkscape:window-height="1025"
     inkscape:window-x="0"
     inkscape:window-y="1227"
     inkscape:window-maximized="1" />
  <metadata
     id="metadata5">
    <rdf:RDF>
      <cc:Work
         rdf:about="">
        <dc:format>image/svg+xml</dc:format>
        <dc:type
           rdf:resource="http://purl.org/dc/dcmitype/StillImage" />
        <dc:title></dc:title>
      </cc:Work>
    </rdf:RDF>
  </metadata>
  <g
     inkscape:label="Layer 1"
     inkscape:groupmode="layer"
     id="layer1"
     transform="translate(0,-266)">
    <g
       transform="translate(-85.430303,71.583744)"
       id="g5956"
       inkscape:export-xdpi="1051.72"
       inkscape:export-ydpi="1051.72">
      <path
         inkscape:connector-curvature="0"
         id="path900-6-9-3-5-3-7"
         d="m 159.45362,210.29756 h 37.03249"
         style="fill:none;stroke:#000000;stroke-width:1;stroke-linecap:round;stroke-linejoin:miter;stroke-miterlimit:4;stroke-dasharray:none;stroke-opacity:1" />
      <path
         inkscape:connector-curvature="0"
         id="path900-6-9-3-5-3"
         d="m 213.59768,210.29756 h 84.78047"
         style="fill:none;stroke:#000000;stroke-width:1;stroke-linecap:round;stroke-linejoin:miter;stroke-miterlimit:4;stroke-dasharray:none;stroke-opacity:1" />
      <g
         id="g1360"
         transform="matrix(0.90232393,0,0,0.90232393,141.24971,68.375389)">
        <path
           inkscape:connector-curvature="0"
           id="path900-6-9-3-5"
           d="M 35.861154,173.91741 V 162.67953"
           style="fill:none;stroke:#000000;stroke-width:1.10824943;stroke-linecap:round;stroke-linejoin:miter;stroke-miterlimit:4;stroke-dasharray:none;stroke-opacity:1" />
        <path
           inkscape:connector-curvature="0"
           id="path900-6-9-3"
           d="M 35.861155,151.89016 V 140.65228"
           style="fill:none;stroke:#000000;stroke-width:1.10824943;stroke-linecap:round;stroke-linejoin:miter;stroke-miterlimit:4;stroke-dasharray:none;stroke-opacity:1" />
        <rect
           style="opacity:1;fill:#47bb7e;fill-opacity:1;fill-rule:nonzero;stroke:#009647;stroke-width:5.54124737;stroke-linecap:round;stroke-linejoin:round;stroke-miterlimit:4;stroke-dasharray:none;stroke-dashoffset:0;stroke-opacity:1;paint-order:markers stroke fill"
           id="rect815-7-9-7"
           width="12.604537"
           height="12.604538"
           x="29.511848"
           y="151.35561" />
        <g
           style="font-style:normal;font-variant:normal;font-weight:normal;font-stretch:normal;letter-spacing:normal;word-spacing:normal;text-anchor:start;fill:none;fill-opacity:1;fill-rule:evenodd;stroke:#000000;stroke-linecap:butt;stroke-linejoin:miter;stroke-miterlimit:10.43299961;stroke-dasharray:none;stroke-dashoffset:0;stroke-opacity:1"
           id="content-5"
           transform="matrix(0.1668584,0,0,-0.1668584,-44.615924,228.47114)"
           xml:space="preserve"
           stroke-miterlimit="10.433"
           font-style="normal"
           font-variant="normal"
           font-weight="normal"
           font-stretch="normal"
           font-size-adjust="none"
           letter-spacing="normal"
           word-spacing="normal" />      </g>
      <text
         xml:space="preserve"
         style="font-style:normal;font-weight:normal;font-size:19.10664749px;line-height:1.25;font-family:sans-serif;letter-spacing:0px;word-spacing:0px;fill:#000000;fill-opacity:1;stroke:none;stroke-width:0.47766629"
         x="200.79771"
         y="211.3815"
         id="text3350-3"><tspan
           sodipodi:role="line"
           id="tspan3348-6"
           x="200.79771"
           y="211.3815"
           style="font-style:normal;font-variant:normal;font-weight:normal;font-stretch:normal;font-size:10.19021225px;font-family:ubuntu;-inkscape-font-specification:ubuntu;stroke-width:0.47766629">...</tspan></text>
      <g
         id="g1360-7"
         transform="matrix(0.90232393,0,0,0.90232393,194.83071,68.375389)">
        <path
           inkscape:connector-curvature="0"
           id="path900-6-9-3-5-5"
           d="M 35.861154,173.91741 V 162.67953"
           style="fill:none;stroke:#000000;stroke-width:1.10824943;stroke-linecap:round;stroke-linejoin:miter;stroke-miterlimit:4;stroke-dasharray:none;stroke-opacity:1" />
        <path
           inkscape:connector-curvature="0"
           id="path900-6-9-3-3"
           d="M 35.861155,151.89016 V 140.65228"
           style="fill:none;stroke:#000000;stroke-width:1.10824943;stroke-linecap:round;stroke-linejoin:miter;stroke-miterlimit:4;stroke-dasharray:none;stroke-opacity:1" />
        <rect
           style="opacity:1;fill:#47bb7e;fill-opacity:1;fill-rule:nonzero;stroke:#009647;stroke-width:5.54124737;stroke-linecap:round;stroke-linejoin:round;stroke-miterlimit:4;stroke-dasharray:none;stroke-dashoffset:0;stroke-opacity:1;paint-order:markers stroke fill"
           id="rect815-7-9-7-5"
           width="12.604537"
           height="12.604538"
           x="29.511848"
           y="151.35561" />
        <g
           style="font-style:normal;font-variant:normal;font-weight:normal;font-stretch:normal;letter-spacing:normal;word-spacing:normal;text-anchor:start;fill:none;fill-opacity:1;fill-rule:evenodd;stroke:#000000;stroke-linecap:butt;stroke-linejoin:miter;stroke-miterlimit:10.43299961;stroke-dasharray:none;stroke-dashoffset:0;stroke-opacity:1"
           id="content-5-6"
           transform="matrix(0.1668584,0,0,-0.1668584,-44.615924,228.47114)"
           xml:space="preserve"
           stroke-miterlimit="10.433"
           font-style="normal"
           font-variant="normal"
           font-weight="normal"
           font-stretch="normal"
           font-size-adjust="none"
           letter-spacing="normal"
           word-spacing="normal" />      </g>
      <g
         id="g929"
         transform="matrix(0.90232393,0,0,0.90232393,128.40741,-5.170287)">
        <g
           transform="translate(105.20638,81.506822)"
           id="g1360-9">
          <path
             style="fill:none;stroke:#000000;stroke-width:1.10824943;stroke-linecap:round;stroke-linejoin:miter;stroke-miterlimit:4;stroke-dasharray:none;stroke-opacity:1"
             d="M 35.861154,173.91741 V 162.67953"
             id="path900-6-9-3-5-1"
             inkscape:connector-curvature="0" />
          <path
             style="fill:none;stroke:#000000;stroke-width:1.10824943;stroke-linecap:round;stroke-linejoin:miter;stroke-miterlimit:4;stroke-dasharray:none;stroke-opacity:1"
             d="M 35.861155,151.89016 V 140.65228"
             id="path900-6-9-3-2"
             inkscape:connector-curvature="0" />
          <rect
             y="151.35561"
             x="29.511848"
             height="12.604538"
             width="12.604537"
             id="rect815-7-9-7-7"
             style="opacity:1;fill:#47bb7e;fill-opacity:1;fill-rule:nonzero;stroke:#009647;stroke-width:5.54124737;stroke-linecap:round;stroke-linejoin:round;stroke-miterlimit:4;stroke-dasharray:none;stroke-dashoffset:0;stroke-opacity:1;paint-order:markers stroke fill" />
          <g
             word-spacing="normal"
             letter-spacing="normal"
             font-size-adjust="none"
             font-stretch="normal"
             font-weight="normal"
             font-variant="normal"
             font-style="normal"
             stroke-miterlimit="10.433"
             xml:space="preserve"
             transform="matrix(0.1668584,0,0,-0.1668584,-44.615924,228.47114)"
             id="content-5-0"
             style="font-style:normal;font-variant:normal;font-weight:normal;font-stretch:normal;letter-spacing:normal;word-spacing:normal;text-anchor:start;fill:none;fill-opacity:1;fill-rule:evenodd;stroke:#000000;stroke-linecap:butt;stroke-linejoin:miter;stroke-miterlimit:10.43299961;stroke-dasharray:none;stroke-dashoffset:0;stroke-opacity:1" />        </g>
        <g
           transform="translate(136.79923,81.506822)"
           id="g1360-9-3">
          <path
             style="fill:none;stroke:#000000;stroke-width:1.10824943;stroke-linecap:round;stroke-linejoin:miter;stroke-miterlimit:4;stroke-dasharray:none;stroke-opacity:1"
             d="M 35.861154,173.91741 V 162.67953"
             id="path900-6-9-3-5-1-6"
             inkscape:connector-curvature="0" />
          <path
             style="fill:none;stroke:#000000;stroke-width:1.10824943;stroke-linecap:round;stroke-linejoin:miter;stroke-miterlimit:4;stroke-dasharray:none;stroke-opacity:1"
             d="M 35.861155,151.89016 V 140.65228"
             id="path900-6-9-3-2-0"
             inkscape:connector-curvature="0" />
          <rect
             y="151.35561"
             x="29.511848"
             height="12.604538"
             width="12.604537"
             id="rect815-7-9-7-7-6"
             style="opacity:1;fill:#47bb7e;fill-opacity:1;fill-rule:nonzero;stroke:#009647;stroke-width:5.54124737;stroke-linecap:round;stroke-linejoin:round;stroke-miterlimit:4;stroke-dasharray:none;stroke-dashoffset:0;stroke-opacity:1;paint-order:markers stroke fill" />
          <g
             word-spacing="normal"
             letter-spacing="normal"
             font-size-adjust="none"
             font-stretch="normal"
             font-weight="normal"
             font-variant="normal"
             font-style="normal"
             stroke-miterlimit="10.433"
             xml:space="preserve"
             transform="matrix(0.1668584,0,0,-0.1668584,-44.615924,228.47114)"
             id="content-5-0-2"
             style="font-style:normal;font-variant:normal;font-weight:normal;font-stretch:normal;letter-spacing:normal;word-spacing:normal;text-anchor:start;fill:none;fill-opacity:1;fill-rule:evenodd;stroke:#000000;stroke-linecap:butt;stroke-linejoin:miter;stroke-miterlimit:10.43299961;stroke-dasharray:none;stroke-dashoffset:0;stroke-opacity:1" />        </g>
      </g>
      <circle
         style="opacity:1;fill:#d7263d;fill-opacity:1;fill-rule:nonzero;stroke:#000000;stroke-width:0.9023239;stroke-linecap:round;stroke-linejoin:round;stroke-miterlimit:4;stroke-dasharray:none;stroke-dashoffset:0;stroke-opacity:0;paint-order:markers stroke fill"
         id="path860"
         cx="241.40005"
         cy="210.29671"
         r="2.5925095" />
      <circle
         style="opacity:1;fill:#d7263d;fill-opacity:1;fill-rule:nonzero;stroke:#000000;stroke-width:0.9023239;stroke-linecap:round;stroke-linejoin:round;stroke-miterlimit:4;stroke-dasharray:none;stroke-dashoffset:0;stroke-opacity:0;paint-order:markers stroke fill"
         id="path860-6"
         cx="269.90701"
         cy="210.29671"
         r="2.5925095" />
      <circle
         style="opacity:1;fill:#d7263d;fill-opacity:1;fill-rule:nonzero;stroke:#fff400;stroke-width:0.9023239;stroke-linecap:round;stroke-linejoin:round;stroke-miterlimit:4;stroke-dasharray:none;stroke-dashoffset:0;stroke-opacity:0;paint-order:markers stroke fill"
         id="path860-6-5"
         cx="300.12952"
         cy="210.29671"
         r="2.5925095" />
      <circle
         style="opacity:1;fill:#d7263d;fill-opacity:1;fill-rule:nonzero;stroke:#fff400;stroke-width:0.9023239;stroke-linecap:round;stroke-linejoin:round;stroke-miterlimit:4;stroke-dasharray:none;stroke-dashoffset:0;stroke-opacity:0;paint-order:markers stroke fill"
         id="path860-6-5-3"
         cx="158.16751"
         cy="210.29671"
         r="2.5925095" />
      <circle
         style="opacity:1;fill:#d7263d;fill-opacity:1;fill-rule:nonzero;stroke:#000000;stroke-width:0.9023239;stroke-linecap:round;stroke-linejoin:round;stroke-miterlimit:4;stroke-dasharray:none;stroke-dashoffset:0;stroke-opacity:0;paint-order:markers stroke fill"
         id="path860-5"
         cx="188.34204"
         cy="210.29671"
         r="2.5925095" />
      <g
         transform="translate(30.323947,-9.7502483)"
         id="g5828">
        <path
           d="m 62.356542,217.4779 c 0.21119,-0.37064 0.41308,-0.67479 0.94572,-0.7173 0.0757,-0.008 0.16072,-0.008 0.16072,-0.16865 0,-0.0345 -0.0345,-0.093 -0.10228,-0.093 -0.20189,0 -0.43832,0.0252 -0.64952,0.0252 -0.2869,0 -0.59903,-0.0252 -0.87797,-0.0252 -0.0505,0 -0.16072,0 -0.16072,0.16075 0,0.093 0.0757,0.1009 0.12619,0.1009 0.20322,0.008 0.49809,0.0757 0.49809,0.32941 0,0.093 -0.0412,0.16075 -0.10892,0.27899 l -2.2806,3.97677 -0.31214,-4.18801 c -0.008,-0.16866 -0.0252,-0.38917 0.59107,-0.39716 0.14345,0 0.22846,0 0.22846,-0.16865 0,-0.085 -0.093,-0.093 -0.12752,-0.093 -0.33737,0 -0.69201,0.0252 -1.02939,0.0252 -0.19525,0 -0.69335,-0.0252 -0.88728,-0.0252 -0.0505,0 -0.16071,0 -0.16071,0.16874 0,0.0929 0.085,0.0929 0.20322,0.0929 0.37191,0 0.43035,0.0505 0.44762,0.21125 l 0.0505,0.64946 -2.13583,3.72446 -0.32143,-4.28101 c 0,-0.10226 0,-0.29617 0.64154,-0.30416 0.085,0 0.17799,0 0.17799,-0.16865 0,-0.093 -0.10227,-0.093 -0.11821,-0.093 -0.33871,0 -0.69335,0.0252 -1.0387,0.0252 -0.2962,0 -0.60037,-0.0252 -0.88727,-0.0252 -0.0425,0 -0.15142,0 -0.15142,0.16075 0,0.1009 0.0757,0.1009 0.21119,0.1009 0.42106,0 0.43035,0.0757 0.44762,0.31215 l 0.37988,5.16025 c 0.008,0.15149 0.0159,0.21915 0.13415,0.21915 0.10228,0 0.12751,-0.0504 0.20323,-0.17792 l 2.4825,-4.30626 0.31214,4.26503 c 0.0173,0.17665 0.0345,0.21915 0.13548,0.21915 0.11025,0 0.16072,-0.085 0.20322,-0.16066 l 2.76941,-4.81359"
           style="fill:#000000;fill-opacity:1;fill-rule:nonzero;stroke:none;stroke-width:0.08500815"
           id="path14-6-9"
           inkscape:connector-curvature="0" />
        <path
           d="m 67.502192,220.11052 c 0.0598,-0.22714 0.15539,-0.42377 0.63357,-0.43567 0.0306,0 0.11952,-0.005 0.11952,-0.13151 0,-0.0359 -0.0292,-0.0837 -0.0889,-0.0837 -0.19799,0 -0.41841,0.024 -0.62167,0.024 -0.1434,0 -0.49015,-0.024 -0.63356,-0.024 -0.0305,0 -0.11952,0 -0.11952,0.13151 0,0.0784 0.077,0.0837 0.1315,0.0837 0.28019,0.007 0.38254,0.0956 0.38254,0.2444 0,0.0478 -0.007,0.0783 -0.024,0.14341 l -0.65218,2.60601 -1.5168,-3.10679 c -0.0479,-0.10227 -0.0598,-0.10227 -0.20326,-0.10227 h -0.81956 c -0.11289,0 -0.19127,0 -0.19127,0.13151 0,0.0837 0.0718,0.0837 0.19798,0.0837 0.1248,0 0.2563,0.007 0.38254,0.0305 l -0.80095,3.19707 c -0.0545,0.22714 -0.15543,0.40651 -0.62165,0.42377 -0.0425,0 -0.12618,0.007 -0.12618,0.12615 0,0.0651 0.0478,0.089 0.0903,0.089 0.19658,0 0.41839,-0.0239 0.62164,-0.0239 0.14341,0 0.49007,0.0239 0.63357,0.0239 0.0598,0 0.11952,-0.0292 0.11952,-0.12488 0,-0.0836 -0.0718,-0.0903 -0.13814,-0.0903 -0.37591,-0.012 -0.37591,-0.16739 -0.37591,-0.25103 0,-0.024 0,-0.0531 0.024,-0.14877 l 0.76507,-3.06029 1.743941,3.57425 c 0.0479,0.0956 0.0718,0.10099 0.13151,0.10099 0.0956,0 0.0956,-0.0173 0.12615,-0.12488 l 0.83019,-3.30596"
           style="fill:#000000;fill-opacity:1;fill-rule:nonzero;stroke:none;stroke-width:0.08500815"
           id="path16-39-2"
           inkscape:connector-curvature="0" />
        <path
           d="m 71.773852,224.29317 c 0,-0.0252 0,-0.0425 -0.14341,-0.18599 -1.0547,-1.06388 -1.32562,-2.6605 -1.32562,-3.95152 0,-1.47039 0.32142,-2.93941 1.36013,-3.99539 0.1089,-0.10099 0.1089,-0.11824 0.1089,-0.14349 0,-0.0584 -0.0332,-0.0836 -0.0837,-0.0836 -0.085,0 -0.84481,0.57381 -1.34287,1.64704 -0.4304,0.92845 -0.53266,1.86618 -0.53266,2.57549 0,0.65745 0.093,1.68018 0.55791,2.63389 0.50605,1.03871 1.23261,1.58727 1.31762,1.58727 0.0504,0 0.0837,-0.0252 0.0837,-0.0836"
           style="fill:#000000;fill-opacity:1;fill-rule:nonzero;stroke:none;stroke-width:0.08500815"
           id="path18-4-5"
           inkscape:connector-curvature="0" />
        <path
           d="m 76.313792,219.04919 c 0.0332,-0.11816 0.0332,-0.1355 0.0332,-0.1939 0,-0.15276 -0.11824,-0.2285 -0.2444,-0.2285 -0.085,0 -0.21915,0.0505 -0.29616,0.17673 -0.016,0.0425 -0.0837,0.30416 -0.11825,0.45692 -0.0585,0.21915 -0.11825,0.44756 -0.16866,0.67471 l -0.3799,1.52088 c -0.0332,0.12615 -0.39716,0.71721 -0.9537,0.71721 -0.43168,0 -0.52331,-0.37191 -0.52331,-0.68406 0,-0.38781 0.1434,-0.91248 0.43031,-1.65494 0.13414,-0.34675 0.16874,-0.43966 0.16874,-0.6084 0,-0.37982 -0.27101,-0.69197 -0.69205,-0.69197 -0.80223,0 -1.11574,1.22463 -1.11574,1.30037 0,0.085 0.085,0.085 0.10227,0.085 0.0837,0 0.093,-0.0173 0.13414,-0.15276 0.2285,-0.79296 0.5659,-1.04671 0.8528,-1.04671 0.0677,0 0.21116,0 0.21116,0.26965 0,0.21116 -0.0836,0.4304 -0.14349,0.59106 -0.33731,0.89522 -0.4888,1.37739 -0.4888,1.77327 0,0.75173 0.5313,1.00548 1.02945,1.00548 0.32941,0 0.61631,-0.1435 0.85272,-0.3799 -0.1089,0.4383 -0.21116,0.85271 -0.54856,1.30037 -0.21915,0.2869 -0.54057,0.5313 -0.92846,0.5313 -0.11824,0 -0.49806,-0.0252 -0.64155,-0.35466 0.13414,0 0.24439,0 0.36264,-0.10099 0.085,-0.0757 0.16866,-0.18591 0.16866,-0.34666 0,-0.26165 -0.22842,-0.29481 -0.31215,-0.29481 -0.19391,0 -0.47282,0.13542 -0.47282,0.54856 0,0.42232 0.37191,0.73447 0.89522,0.73447 0.86998,0 1.73867,-0.76771 1.97508,-1.72269 l 0.81157,-3.22504"
           style="fill:#000000;fill-opacity:1;fill-rule:nonzero;stroke:none;stroke-width:0.08500815"
           id="path20-81-4"
           inkscape:connector-curvature="0" />
        <path
           d="m 81.698553,215.35006 c 0.0598,-0.22714 0.1554,-0.42377 0.633568,-0.43567 0.0306,0 0.119521,-0.005 0.119521,-0.13151 0,-0.0359 -0.0292,-0.0837 -0.0889,-0.0837 -0.19798,0 -0.41841,0.024 -0.62166,0.024 -0.14341,0 -0.49016,-0.024 -0.63357,-0.024 -0.0305,0 -0.11952,0 -0.11952,0.13151 0,0.0784 0.077,0.0837 0.13151,0.0837 0.28018,0.007 0.38253,0.0956 0.38253,0.2444 0,0.0478 -0.007,0.0783 -0.024,0.14341 l -0.65218,2.60601 -1.5168,-3.10679 c -0.0479,-0.10227 -0.0598,-0.10227 -0.20326,-0.10227 h -0.81956 c -0.11289,0 -0.19127,0 -0.19127,0.13151 0,0.0837 0.0718,0.0837 0.19798,0.0837 0.1248,0 0.2563,0.007 0.38254,0.0305 l -0.80095,3.19707 c -0.0545,0.22715 -0.15539,0.40651 -0.62166,0.42377 -0.0425,0 -0.12615,0.007 -0.12615,0.12615 0,0.0651 0.0478,0.089 0.0903,0.089 0.19662,0 0.41841,-0.0239 0.62166,-0.0239 0.14341,0 0.49007,0.0239 0.63357,0.0239 0.0598,0 0.11952,-0.0292 0.11952,-0.12488 0,-0.0837 -0.0718,-0.0903 -0.13814,-0.0903 -0.37591,-0.012 -0.37591,-0.16738 -0.37591,-0.25103 0,-0.024 0,-0.0531 0.024,-0.14876 l 0.76507,-3.0603 1.743941,3.57426 c 0.0479,0.0956 0.0718,0.10099 0.131509,0.10099 0.0956,0 0.0956,-0.0173 0.126151,-0.12488 l 0.830189,-3.30597"
           style="fill:#000000;fill-opacity:1;fill-rule:nonzero;stroke:none;stroke-width:0.08500815"
           id="path22-29-0"
           inkscape:connector-curvature="0" />
        <path
           d="m 78.376602,220.59132 c 0,-0.16202 -0.012,-0.16738 -0.17928,-0.16738 -0.38254,0.37591 -0.92582,0.38118 -1.17158,0.38118 v 0.21524 c 0.14349,0 0.53793,0 0.86734,-0.16738 v 3.04831 c 0,0.1979 0,0.275 -0.5977,0.275 h -0.22714 v 0.21515 c 0.10762,-0.005 0.84218,-0.0239 1.06396,-0.0239 0.18464,0 0.93773,0.0185 1.06924,0.0239 v -0.21515 h -0.22715 c -0.59769,0 -0.59769,-0.0771 -0.59769,-0.275 v -3.30997"
           style="fill:#000000;fill-opacity:1;fill-rule:nonzero;stroke:none;stroke-width:0.08500815"
           id="path24-39-5"
           inkscape:connector-curvature="0" />
        <path
           d="m 84.518442,216.23729 c 0,-0.15276 0,-0.30416 -0.168651,-0.30416 -0.168748,0 -0.168748,0.1514 -0.168748,0.30416 v 7.83673 c 0,0.1514 0,0.3028 0.168748,0.3028 0.168651,0 0.168651,-0.1514 0.168651,-0.3028 v -7.83673"
           style="fill:#000000;fill-opacity:1;fill-rule:nonzero;stroke:none;stroke-width:0.08500815"
           id="path26-08-9"
           inkscape:connector-curvature="0" />
        <path
           d="m 88.290684,219.71599 c 0.0518,-0.21915 0.245758,-0.99621 0.836818,-0.99621 0.0425,0 0.244401,0 0.42232,0.1089 -0.23641,0.0425 -0.405069,0.25375 -0.405069,0.45692 0,0.13423 0.0916,0.29489 0.320059,0.29489 0.185999,0 0.455641,-0.1514 0.455641,-0.4888 0,-0.43966 -0.498141,-0.55782 -0.78505,-0.55782 -0.490069,0 -0.784961,0.44757 -0.88587,0.64156 -0.211241,-0.55655 -0.66816,-0.64156 -0.912561,-0.64156 -0.877959,0 -1.360131,1.08913 -1.360131,1.30037 0,0.085 0.085,0.085 0.102272,0.085 0.0677,0 0.093,-0.0173 0.10898,-0.093 0.288171,-0.89522 0.844719,-1.10647 1.13162,-1.10647 0.160758,0 0.456919,0.0757 0.456919,0.56582 0,0.26174 -0.143398,0.82755 -0.456919,2.00968 -0.134141,0.52331 -0.43031,0.87796 -0.802219,0.87796 -0.0505,0 -0.244401,0 -0.422402,-0.11026 0.211161,-0.0411 0.39716,-0.21915 0.39716,-0.45555 0,-0.22851 -0.185999,-0.2949 -0.31215,-0.2949 -0.253748,0 -0.46491,0.21915 -0.46491,0.4888 0,0.38917 0.4224,0.55791 0.794311,0.55791 0.557829,0 0.860708,-0.59106 0.88723,-0.64156 0.100989,0.31215 0.405149,0.64156 0.911199,0.64156 0.869981,0 1.35087,-1.08921 1.35087,-1.30037 0,-0.085 -0.0757,-0.085 -0.100989,-0.085 -0.0757,0 -0.093,0.0345 -0.11026,0.093 -0.277551,0.90321 -0.85271,1.10638 -1.12236,1.10638 -0.329411,0 -0.46491,-0.26965 -0.46491,-0.55782 0,-0.18464 0.0505,-0.37064 0.1435,-0.74255 l 0.286901,-1.15688"
           style="fill:#000000;fill-opacity:1;fill-rule:nonzero;stroke:none;stroke-width:0.08500815"
           id="path28-8-4"
           inkscape:connector-curvature="0" />
        <path
           d="m 95.299861,215.35006 c 0.0598,-0.22714 0.155393,-0.42377 0.633561,-0.43567 0.0306,0 0.11952,-0.005 0.11952,-0.13151 0,-0.0359 -0.0292,-0.0837 -0.0889,-0.0837 -0.19798,0 -0.418409,0.024 -0.62166,0.024 -0.143409,0 -0.490159,-0.024 -0.633568,-0.024 -0.0305,0 -0.119521,0 -0.119521,0.13151 0,0.0784 0.077,0.0837 0.131509,0.0837 0.280191,0.007 0.38254,0.0956 0.38254,0.2444 0,0.0478 -0.007,0.0783 -0.024,0.14341 l -0.652182,2.60601 -1.516801,-3.10679 c -0.0479,-0.10227 -0.0598,-0.10227 -0.203248,-0.10227 h -0.819568 c -0.11289,0 -0.19127,0 -0.19127,0.13151 0,0.0837 0.0717,0.0837 0.197991,0.0837 0.124788,0 0.256299,0.007 0.382539,0.0305 l -0.800952,3.19707 c -0.0545,0.22715 -0.1554,0.40651 -0.62167,0.42377 -0.0425,0 -0.126148,0.007 -0.126148,0.12615 0,0.0651 0.0478,0.089 0.0903,0.089 0.19662,0 0.418409,-0.0239 0.621659,-0.0239 0.14341,0 0.49008,0.0239 0.633569,0.0239 0.0598,0 0.11952,-0.0292 0.11952,-0.12488 0,-0.0837 -0.0717,-0.0903 -0.138139,-0.0903 -0.375898,-0.012 -0.375898,-0.16738 -0.375898,-0.25103 0,-0.024 0,-0.0531 0.024,-0.14876 l 0.765072,-3.0603 1.743948,3.57426 c 0.0479,0.0956 0.0717,0.10099 0.131501,0.10099 0.0956,0 0.0956,-0.0173 0.126161,-0.12488 l 0.830188,-3.30597"
           style="fill:#000000;fill-opacity:1;fill-rule:nonzero;stroke:none;stroke-width:0.08500815"
           id="path30-5-6"
           inkscape:connector-curvature="0" />
        <path
           d="m 92.317943,220.59132 c 0,-0.16202 -0.01201,-0.16738 -0.179281,-0.16738 -0.38254,0.37591 -0.92583,0.38118 -1.171588,0.38118 v 0.21524 c 0.143499,0 0.537937,0 0.867338,-0.16738 v 3.04831 c 0,0.1979 0,0.275 -0.597688,0.275 h -0.227142 v 0.21515 c 0.107621,-0.005 0.842171,-0.0239 1.063961,-0.0239 0.184639,0 0.937731,0.0185 1.069228,0.0239 v -0.21515 h -0.227139 c -0.597689,0 -0.597689,-0.0771 -0.597689,-0.275 v -3.30997"
           style="fill:#000000;fill-opacity:1;fill-rule:nonzero;stroke:none;stroke-width:0.08500815"
           id="path32-0-9"
           inkscape:connector-curvature="0" />
        <path
           d="m 98.406652,222.25825 c 0,-0.55782 -0.211159,-0.88723 -0.540571,-0.88723 -0.278997,0 -0.447648,0.21116 -0.447648,0.44757 0,0.2285 0.168651,0.44765 0.447648,0.44765 0.100912,0 0.211162,-0.0332 0.294812,-0.11026 0.02519,-0.0159 0.0346,-0.0252 0.0425,-0.0252 0.008,0 0.0173,0.009 0.0173,0.12751 0,0.6243 -0.296169,1.13171 -0.57508,1.40926 -0.093,0.093 -0.093,0.11026 -0.093,0.13551 0,0.0598 0.0425,0.093 0.085,0.093 0.093,0 0.76907,-0.65083 0.76907,-1.63777"
           style="fill:#000000;fill-opacity:1;fill-rule:nonzero;stroke:none;stroke-width:0.08500815"
           id="path34-9-2"
           inkscape:connector-curvature="0" />
        <path
           d="m 103.81929,219.10768 c -0.23641,0.009 -0.40515,0.1939 -0.40515,0.37981 0,0.11825 0.0757,0.24576 0.26165,0.24576 0.186,0 0.3879,-0.14341 0.3879,-0.47281 0,-0.37991 -0.36265,-0.72657 -1.00421,-0.72657 -1.11573,0 -1.42788,0.86071 -1.42788,1.23262 0,0.65881 0.62566,0.78496 0.87006,0.83673 0.43966,0.0837 0.87796,0.17674 0.87796,0.64156 0,0.21915 -0.1939,0.92846 -1.20737,0.92846 -0.11824,0 -0.7677,0 -0.96297,-0.44757 0.32142,0.0425 0.53258,-0.21124 0.53258,-0.44765 0,-0.1939 -0.13542,-0.29489 -0.31215,-0.29489 -0.22043,0 -0.47282,0.17664 -0.47282,0.55654 0,0.48217 0.48081,0.81957 1.20737,0.81957 1.36812,0 1.69753,-1.02146 1.69753,-1.40136 0,-0.30416 -0.16075,-0.51532 -0.26165,-0.61759 -0.22851,-0.23649 -0.47418,-0.27763 -0.84482,-0.35465 -0.30415,-0.0664 -0.64155,-0.12624 -0.64155,-0.50605 0,-0.2444 0.20189,-0.75981 0.94571,-0.75981 0.21125,0 0.63229,0.0585 0.75981,0.3879"
           style="fill:#000000;fill-opacity:1;fill-rule:nonzero;stroke:none;stroke-width:0.08500815"
           id="path36-63-2"
           inkscape:connector-curvature="0" />
        <path
           d="m 107.51179,221.63531 c 0,-0.65745 -0.0784,-1.13035 -0.3533,-1.54876 -0.18464,-0.27492 -0.55519,-0.51269 -1.03336,-0.51269 -1.38674,0 -1.38674,1.63114 -1.38674,2.06145 0,0.4304 0,2.02557 1.38674,2.02557 1.38666,0 1.38666,-1.59517 1.38666,-2.02557 z m -1.38666,1.85819 c -0.275,0 -0.64019,-0.16066 -0.7598,-0.65082 -0.0837,-0.35329 -0.0837,-0.84345 -0.0837,-1.28575 0,-0.43567 0,-0.88995 0.0903,-1.21936 0.12488,-0.47145 0.50741,-0.59633 0.75317,-0.59633 0.32278,0 0.63357,0.19654 0.74119,0.5432 0.0956,0.32278 0.1009,0.75318 0.1009,1.27249 0,0.4423 0,0.8846 -0.077,1.26186 -0.11953,0.54329 -0.52603,0.67471 -0.76508,0.67471"
           style="fill:#000000;fill-opacity:1;fill-rule:nonzero;stroke:none;stroke-width:0.08500815"
           id="path38-8-4"
           inkscape:connector-curvature="0" />
        <path
           d="m 110.69296,220.15566 c 0,-0.65882 -0.093,-1.68155 -0.55655,-2.63526 -0.50733,-1.03871 -1.23262,-1.58727 -1.31762,-1.58727 -0.0504,0 -0.085,0.0332 -0.085,0.0836 0,0.0252 0,0.0425 0.16075,0.19526 0.82747,0.83546 1.30963,2.17834 1.30963,3.94362 0,1.44378 -0.31342,2.93014 -1.36013,3.99402 -0.11025,0.10099 -0.11025,0.11825 -0.11025,0.14349 0,0.0504 0.0346,0.0836 0.085,0.0836 0.085,0 0.84481,-0.5738 1.34287,-1.64567 0.4304,-0.92982 0.5313,-1.86618 0.5313,-2.57549"
           style="fill:#000000;fill-opacity:1;fill-rule:nonzero;stroke:none;stroke-width:0.08500815"
           id="path40-5-7"
           inkscape:connector-curvature="0" />
        <path
           d="m 119.75032,219.50483 c 0.12616,0 0.28691,0 0.28691,-0.16874 0,-0.16865 -0.16075,-0.16865 -0.27892,-0.16865 h -5.05798 c -0.11825,0 -0.27891,0 -0.27891,0.16865 0,0.16874 0.16066,0.16874 0.2869,0.16874 z m 0.008,1.63769 c 0.11817,0 0.27892,0 0.27892,-0.16866 0,-0.16874 -0.16075,-0.16874 -0.28691,-0.16874 h -5.042 c -0.12624,0 -0.2869,0 -0.2869,0.16874 0,0.16866 0.16066,0.16866 0.27891,0.16866 h 5.05799"
           style="fill:#000000;fill-opacity:1;fill-rule:nonzero;stroke:none;stroke-width:0.08500815"
           id="path42-61-7"
           inkscape:connector-curvature="0" />
      </g>
    </g>
  </g>
</svg>
