<?xml version="1.0" encoding="UTF-8" standalone="no"?>
<!-- Created with Inkscape (http://www.inkscape.org/) -->

<svg
   xmlns:dc="http://purl.org/dc/elements/1.1/"
   xmlns:cc="http://creativecommons.org/ns#"
   xmlns:rdf="http://www.w3.org/1999/02/22-rdf-syntax-ns#"
   xmlns:svg="http://www.w3.org/2000/svg"
   xmlns="http://www.w3.org/2000/svg"
   xmlns:sodipodi="http://sodipodi.sourceforge.net/DTD/sodipodi-0.dtd"
   xmlns:inkscape="http://www.inkscape.org/namespaces/inkscape"
   width="195mm"
   height="68mm"
   viewBox="0 0 195 68"
   version="1.1"
   id="svg8"
   inkscape:version="0.92.3 (2405546, 2018-03-11)"
   sodipodi:docname="fsc_tn.svg">
  <defs
     id="defs2" />
  <sodipodi:namedview
     id="base"
     pagecolor="#ffffff"
     bordercolor="#666666"
     borderopacity="1.0"
     inkscape:pageopacity="0.0"
     inkscape:pageshadow="2"
     inkscape:zoom="1.4"
     inkscape:cx="441.6493"
     inkscape:cy="213.08184"
     inkscape:document-units="mm"
     inkscape:current-layer="layer1"
     showgrid="false"
     inkscape:window-width="1920"
     inkscape:window-height="1172"
     inkscape:window-x="0"
     inkscape:window-y="0"
     inkscape:window-maximized="1" />
  <metadata
     id="metadata5">
    <rdf:RDF>
      <cc:Work
         rdf:about="">
        <dc:format>image/svg+xml</dc:format>
        <dc:type
           rdf:resource="http://purl.org/dc/dcmitype/StillImage" />
        <dc:title></dc:title>
      </cc:Work>
    </rdf:RDF>
  </metadata>
  <g
     inkscape:label="Layer 1"
     inkscape:groupmode="layer"
     id="layer1"
     transform="translate(0,-229)">
    <g
       id="g1000"
       transform="translate(-10.734524,1.5119048)">
      <g
         transform="matrix(0,2.6551321,6.0640614,0,144.86709,247.19384)"
         id="g10-9">
        <g
           transform="scale(0.1)"
           id="g12-1">
          <path
             inkscape:connector-curvature="0"
             id="path14-9"
             style="fill:#000000;fill-opacity:1;fill-rule:nonzero;stroke:none"
             d="M 14.4531,13.375 C 14.4531,9.40625 11.875,3.04688 1.04688,2.34375 0.546875,2.25 0.15625,1.85938 0.15625,1.26563 c 0,-1.093755 1.09375,-1.093755 1.98438,-1.093755 9.64067,0 18.87497,4.859375 18.96877,12.406225 v 22.6563 c 0,3.875 0,7.0469 3.9687,10.3281 3.4844,2.875 7.2657,3.0781 9.4375,3.1719 0.5,0.1094 0.9063,0.5 0.9063,1.0937 0,1 -0.5938,1 -1.5938,1.0938 -6.5625,0.4062 -11.3281,3.9844 -12.4218,8.8437 -0.2969,1.0938 -0.2969,1.2969 -0.2969,4.875 v 19.6563 c 0,4.1719 0,7.3594 -4.7656,11.1406 C 12.375,98.5156 5.51563,99.5 2.14063,99.5 1.25,99.5 0.15625,99.5 0.15625,98.4063 0.15625,97.4219 0.75,97.4219 1.73438,97.3125 8,96.9219 12.875,93.7344 14.1563,88.6719 14.4531,87.7813 14.4531,87.5781 14.4531,84 V 63.1406 c 0,-4.5625 0.7969,-6.25 3.9844,-9.4375 2.0781,-2.0781 4.9531,-3.0781 7.7344,-3.875 C 18.0313,47.5469 14.4531,42.9844 14.4531,37.2188 V 13.375" />
        </g>
      </g>
      <g
         transform="matrix(0,2.1074188,3.2483547,0,118.22632,246.96985)"
         id="g10-9-6">
        <g
           transform="matrix(0.1,0,0,0.07684488,0.12159106,0.46450409)"
           id="g12-1-6">
          <path
             inkscape:connector-curvature="0"
             id="path14-9-4"
             style="fill:#000000;fill-opacity:1;fill-rule:nonzero;stroke:none"
             d="M 14.4531,13.375 C 14.4531,9.40625 11.875,3.04688 1.04688,2.34375 0.546875,2.25 0.15625,1.85938 0.15625,1.26563 c 0,-1.093755 1.09375,-1.093755 1.98438,-1.093755 9.64067,0 18.87497,4.859375 18.96877,12.406225 v 22.6563 c 0,3.875 0,7.0469 3.9687,10.3281 3.4844,2.875 7.2657,3.0781 9.4375,3.1719 0.5,0.1094 0.9063,0.5 0.9063,1.0937 0,1 -0.5938,1 -1.5938,1.0938 -6.5625,0.4062 -11.3281,3.9844 -12.4218,8.8437 -0.2969,1.0938 -0.2969,1.2969 -0.2969,4.875 v 19.6563 c 0,4.1719 0,7.3594 -4.7656,11.1406 C 12.375,98.5156 5.51563,99.5 2.14063,99.5 1.25,99.5 0.15625,99.5 0.15625,98.4063 0.15625,97.4219 0.75,97.4219 1.73438,97.3125 8,96.9219 12.875,93.7344 14.1563,88.6719 14.4531,87.7813 14.4531,87.5781 14.4531,84 V 63.1406 c 0,-4.5625 0.7969,-6.25 3.9844,-9.4375 2.0781,-2.0781 4.9531,-3.0781 7.7344,-3.875 C 18.0313,47.5469 14.4531,42.9844 14.4531,37.2188 V 13.375" />
        </g>
      </g>
      <path
         inkscape:connector-curvature="0"
         id="path14-6"
         style="fill:#000000;fill-opacity:1;fill-rule:nonzero;stroke:none;stroke-width:0.08500815"
         d="m 18.205851,237.76686 c 0.21119,-0.37064 0.41308,-0.67479 0.94572,-0.7173 0.0757,-0.008 0.16072,-0.008 0.16072,-0.16865 0,-0.0345 -0.0345,-0.093 -0.10228,-0.093 -0.20189,0 -0.43832,0.0252 -0.64952,0.0252 -0.2869,0 -0.59903,-0.0252 -0.87797,-0.0252 -0.0505,0 -0.16072,0 -0.16072,0.16075 0,0.093 0.0757,0.1009 0.12619,0.1009 0.20322,0.008 0.49809,0.0757 0.49809,0.32941 0,0.093 -0.0412,0.16075 -0.10892,0.27899 l -2.2806,3.97677 -0.31214,-4.18801 c -0.008,-0.16866 -0.0252,-0.38917 0.59107,-0.39716 0.14345,0 0.22846,0 0.22846,-0.16865 0,-0.085 -0.093,-0.093 -0.12752,-0.093 -0.33737,0 -0.69201,0.0252 -1.02939,0.0252 -0.19525,0 -0.69335,-0.0252 -0.88728,-0.0252 -0.0505,0 -0.16071,0 -0.16071,0.16874 0,0.0929 0.085,0.0929 0.20322,0.0929 0.37191,0 0.43035,0.0505 0.44762,0.21125 l 0.0505,0.64946 -2.13583,3.72446 -0.32143,-4.28101 c 0,-0.10226 0,-0.29617 0.64154,-0.30416 0.085,0 0.17799,0 0.17799,-0.16865 0,-0.093 -0.10227,-0.093 -0.11821,-0.093 -0.33871,0 -0.69335,0.0252 -1.0387,0.0252 -0.2962,0 -0.60037,-0.0252 -0.88727,-0.0252 -0.0425,0 -0.15142,0 -0.15142,0.16075 0,0.1009 0.0757,0.1009 0.21119,0.1009 0.42106,0 0.43035,0.0757 0.44762,0.31215 l 0.37988,5.16025 c 0.008,0.15149 0.0159,0.21915 0.13415,0.21915 0.10228,0 0.12751,-0.0504 0.20323,-0.17792 l 2.4825,-4.30626 0.31214,4.26503 c 0.0173,0.17665 0.0345,0.21915 0.13548,0.21915 0.11025,0 0.16072,-0.085 0.20322,-0.16066 l 2.76941,-4.81359" />
      <path
         inkscape:connector-curvature="0"
         id="path16-39"
         style="fill:#000000;fill-opacity:1;fill-rule:nonzero;stroke:none;stroke-width:0.08500815"
         d="m 23.351501,240.39948 c 0.0598,-0.22714 0.15539,-0.42377 0.63357,-0.43567 0.0306,0 0.11952,-0.005 0.11952,-0.13151 0,-0.0359 -0.0292,-0.0837 -0.0889,-0.0837 -0.19799,0 -0.41841,0.024 -0.62167,0.024 -0.1434,0 -0.49015,-0.024 -0.63356,-0.024 -0.0305,0 -0.11952,0 -0.11952,0.13151 0,0.0784 0.077,0.0837 0.1315,0.0837 0.28019,0.007 0.38254,0.0956 0.38254,0.2444 0,0.0478 -0.007,0.0783 -0.024,0.14341 l -0.65218,2.60601 -1.5168,-3.10679 c -0.0479,-0.10227 -0.0598,-0.10227 -0.20326,-0.10227 h -0.81956 c -0.11289,0 -0.19127,0 -0.19127,0.13151 0,0.0837 0.0718,0.0837 0.19798,0.0837 0.1248,0 0.2563,0.007 0.38254,0.0305 l -0.80095,3.19707 c -0.0545,0.22714 -0.15543,0.40651 -0.62165,0.42377 -0.0425,0 -0.12618,0.007 -0.12618,0.12615 0,0.0651 0.0478,0.089 0.0903,0.089 0.19658,0 0.41839,-0.0239 0.62164,-0.0239 0.14341,0 0.49007,0.0239 0.63357,0.0239 0.0598,0 0.11952,-0.0292 0.11952,-0.12488 0,-0.0836 -0.0718,-0.0903 -0.13814,-0.0903 -0.37591,-0.012 -0.37591,-0.16739 -0.37591,-0.25103 0,-0.024 0,-0.0531 0.024,-0.14877 l 0.76507,-3.06029 1.743941,3.57425 c 0.0479,0.0956 0.0718,0.10099 0.13151,0.10099 0.0956,0 0.0956,-0.0173 0.12615,-0.12488 l 0.83019,-3.30596" />
      <path
         inkscape:connector-curvature="0"
         id="path18-4"
         style="fill:#000000;fill-opacity:1;fill-rule:nonzero;stroke:none;stroke-width:0.08500815"
         d="m 27.623161,244.58213 c 0,-0.0252 0,-0.0425 -0.14341,-0.18599 -1.0547,-1.06388 -1.32562,-2.6605 -1.32562,-3.95152 0,-1.47039 0.32142,-2.93941 1.36013,-3.99539 0.1089,-0.10099 0.1089,-0.11824 0.1089,-0.14349 0,-0.0584 -0.0332,-0.0836 -0.0837,-0.0836 -0.085,0 -0.84481,0.57381 -1.34287,1.64704 -0.4304,0.92845 -0.53266,1.86618 -0.53266,2.57549 0,0.65745 0.093,1.68018 0.55791,2.63389 0.50605,1.03871 1.23261,1.58727 1.31762,1.58727 0.0504,0 0.0837,-0.0252 0.0837,-0.0836" />
      <path
         inkscape:connector-curvature="0"
         id="path20-81"
         style="fill:#000000;fill-opacity:1;fill-rule:nonzero;stroke:none;stroke-width:0.08500815"
         d="m 32.163101,239.33815 c 0.0332,-0.11816 0.0332,-0.1355 0.0332,-0.1939 0,-0.15276 -0.11824,-0.2285 -0.2444,-0.2285 -0.085,0 -0.21915,0.0505 -0.29616,0.17673 -0.016,0.0425 -0.0837,0.30416 -0.11825,0.45692 -0.0585,0.21915 -0.11825,0.44756 -0.16866,0.67471 l -0.3799,1.52088 c -0.0332,0.12615 -0.39716,0.71721 -0.9537,0.71721 -0.43168,0 -0.52331,-0.37191 -0.52331,-0.68406 0,-0.38781 0.1434,-0.91248 0.43031,-1.65494 0.13414,-0.34675 0.16874,-0.43966 0.16874,-0.6084 0,-0.37982 -0.27101,-0.69197 -0.69205,-0.69197 -0.80223,0 -1.11574,1.22463 -1.11574,1.30037 0,0.085 0.085,0.085 0.10227,0.085 0.0837,0 0.093,-0.0173 0.13414,-0.15276 0.2285,-0.79296 0.5659,-1.04671 0.8528,-1.04671 0.0677,0 0.21116,0 0.21116,0.26965 0,0.21116 -0.0836,0.4304 -0.14349,0.59106 -0.33731,0.89522 -0.4888,1.37739 -0.4888,1.77327 0,0.75173 0.5313,1.00548 1.02945,1.00548 0.32941,0 0.61631,-0.1435 0.85272,-0.3799 -0.1089,0.4383 -0.21116,0.85271 -0.54856,1.30037 -0.21915,0.2869 -0.54057,0.5313 -0.92846,0.5313 -0.11824,0 -0.49806,-0.0252 -0.64155,-0.35466 0.13414,0 0.24439,0 0.36264,-0.10099 0.085,-0.0757 0.16866,-0.18591 0.16866,-0.34666 0,-0.26165 -0.22842,-0.29481 -0.31215,-0.29481 -0.19391,0 -0.47282,0.13542 -0.47282,0.54856 0,0.42232 0.37191,0.73447 0.89522,0.73447 0.86998,0 1.73867,-0.76771 1.97508,-1.72269 l 0.81157,-3.22504" />
      <path
         inkscape:connector-curvature="0"
         id="path22-29"
         style="fill:#000000;fill-opacity:1;fill-rule:nonzero;stroke:none;stroke-width:0.08500815"
         d="m 37.547862,235.63902 c 0.0598,-0.22714 0.1554,-0.42376 0.633568,-0.43567 0.0306,0 0.119521,-0.005 0.119521,-0.1315 0,-0.0359 -0.0292,-0.0837 -0.0889,-0.0837 -0.19798,0 -0.41841,0.024 -0.62166,0.024 -0.14341,0 -0.49016,-0.024 -0.63357,-0.024 -0.0305,0 -0.11952,0 -0.11952,0.1315 0,0.0784 0.077,0.0837 0.13151,0.0837 0.28018,0.007 0.38253,0.0956 0.38253,0.2444 0,0.0478 -0.007,0.0783 -0.024,0.14341 l -0.65218,2.60601 -1.5168,-3.10679 c -0.0479,-0.10227 -0.0598,-0.10227 -0.20326,-0.10227 h -0.81956 c -0.11289,0 -0.19127,0 -0.19127,0.13151 0,0.0837 0.0718,0.0837 0.19798,0.0837 0.1248,0 0.2563,0.007 0.38254,0.0305 l -0.80095,3.19707 c -0.0545,0.22715 -0.15539,0.40651 -0.62166,0.42377 -0.0425,0 -0.12615,0.007 -0.12615,0.12615 0,0.0651 0.0478,0.089 0.0903,0.089 0.19662,0 0.41841,-0.0239 0.62166,-0.0239 0.14341,0 0.49007,0.0239 0.63357,0.0239 0.0598,0 0.11952,-0.0292 0.11952,-0.12488 0,-0.0837 -0.0718,-0.0903 -0.13814,-0.0903 -0.37591,-0.012 -0.37591,-0.16738 -0.37591,-0.25103 0,-0.024 0,-0.0531 0.024,-0.14876 l 0.76507,-3.0603 1.743941,3.57426 c 0.0479,0.0956 0.0718,0.10099 0.131509,0.10099 0.0956,0 0.0956,-0.0173 0.126151,-0.12488 l 0.830189,-3.30597" />
      <path
         inkscape:connector-curvature="0"
         id="path24-39"
         style="fill:#000000;fill-opacity:1;fill-rule:nonzero;stroke:none;stroke-width:0.08500815"
         d="m 34.225911,240.88028 c 0,-0.16202 -0.012,-0.16738 -0.17928,-0.16738 -0.38254,0.37591 -0.92582,0.38118 -1.17158,0.38118 v 0.21524 c 0.14349,0 0.53793,0 0.86734,-0.16738 v 3.04831 c 0,0.1979 0,0.275 -0.5977,0.275 h -0.22714 v 0.21515 c 0.10762,-0.005 0.84218,-0.0239 1.06396,-0.0239 0.18464,0 0.93773,0.0185 1.06924,0.0239 v -0.21515 h -0.22715 c -0.59769,0 -0.59769,-0.0771 -0.59769,-0.275 v -3.30997" />
      <path
         inkscape:connector-curvature="0"
         id="path26-08"
         style="fill:#000000;fill-opacity:1;fill-rule:nonzero;stroke:none;stroke-width:0.08500815"
         d="m 40.367751,236.52625 c 0,-0.15276 0,-0.30416 -0.168651,-0.30416 -0.168748,0 -0.168748,0.1514 -0.168748,0.30416 v 7.83673 c 0,0.1514 0,0.3028 0.168748,0.3028 0.168651,0 0.168651,-0.1514 0.168651,-0.3028 v -7.83673" />
      <path
         inkscape:connector-curvature="0"
         id="path28-8"
         style="fill:#000000;fill-opacity:1;fill-rule:nonzero;stroke:none;stroke-width:0.08500815"
         d="m 44.139992,240.00495 c 0.0518,-0.21915 0.245758,-0.99621 0.836818,-0.99621 0.0425,0 0.244401,0 0.42232,0.1089 -0.23641,0.0425 -0.405069,0.25375 -0.405069,0.45692 0,0.13423 0.0916,0.29489 0.320059,0.29489 0.185999,0 0.455641,-0.1514 0.455641,-0.4888 0,-0.43966 -0.498141,-0.55782 -0.78505,-0.55782 -0.490069,0 -0.784961,0.44757 -0.88587,0.64156 -0.211241,-0.55655 -0.66816,-0.64156 -0.912561,-0.64156 -0.877958,0 -1.36013,1.08913 -1.36013,1.30037 0,0.085 0.085,0.085 0.102272,0.085 0.0677,0 0.093,-0.0173 0.10898,-0.093 0.288171,-0.89522 0.844719,-1.10647 1.131619,-1.10647 0.160758,0 0.456919,0.0757 0.456919,0.56582 0,0.26174 -0.143398,0.82755 -0.456919,2.00968 -0.134141,0.52331 -0.430309,0.87796 -0.802218,0.87796 -0.0505,0 -0.244401,0 -0.422402,-0.11026 0.211161,-0.0411 0.39716,-0.21915 0.39716,-0.45555 0,-0.22851 -0.185999,-0.2949 -0.31215,-0.2949 -0.253748,0 -0.46491,0.21915 -0.46491,0.4888 0,0.38917 0.4224,0.55791 0.794311,0.55791 0.557829,0 0.860707,-0.59106 0.887229,-0.64156 0.100989,0.31215 0.405149,0.64156 0.911199,0.64156 0.869981,0 1.35087,-1.08921 1.35087,-1.30037 0,-0.085 -0.0757,-0.085 -0.100989,-0.085 -0.0757,0 -0.093,0.0345 -0.11026,0.093 -0.277551,0.90321 -0.85271,1.10638 -1.12236,1.10638 -0.329411,0 -0.46491,-0.26965 -0.46491,-0.55782 0,-0.18464 0.0505,-0.37064 0.1435,-0.74255 l 0.286901,-1.15688" />
      <path
         inkscape:connector-curvature="0"
         id="path30-5"
         style="fill:#000000;fill-opacity:1;fill-rule:nonzero;stroke:none;stroke-width:0.08500815"
         d="m 51.149169,235.63902 c 0.0598,-0.22714 0.155393,-0.42376 0.633561,-0.43567 0.0306,0 0.11952,-0.005 0.11952,-0.1315 0,-0.0359 -0.0292,-0.0837 -0.0889,-0.0837 -0.19798,0 -0.418409,0.024 -0.62166,0.024 -0.143409,0 -0.490159,-0.024 -0.633568,-0.024 -0.0305,0 -0.119521,0 -0.119521,0.1315 0,0.0784 0.077,0.0837 0.131509,0.0837 0.280191,0.007 0.38254,0.0956 0.38254,0.2444 0,0.0478 -0.007,0.0783 -0.024,0.14341 l -0.652177,2.60601 -1.516801,-3.10679 c -0.0479,-0.10227 -0.0598,-0.10227 -0.20325,-0.10227 h -0.819568 c -0.11289,0 -0.19127,0 -0.19127,0.13151 0,0.0837 0.0717,0.0837 0.19799,0.0837 0.124788,0 0.256299,0.007 0.38254,0.0305 l -0.800952,3.19707 c -0.0545,0.22715 -0.1554,0.40651 -0.62167,0.42377 -0.0425,0 -0.126148,0.007 -0.126148,0.12615 0,0.0651 0.0478,0.089 0.0903,0.089 0.19662,0 0.41841,-0.0239 0.62166,-0.0239 0.14341,0 0.49008,0.0239 0.633569,0.0239 0.0598,0 0.11952,-0.0292 0.11952,-0.12488 0,-0.0837 -0.0717,-0.0903 -0.138139,-0.0903 -0.375899,-0.012 -0.375899,-0.16738 -0.375899,-0.25103 0,-0.024 0,-0.0531 0.024,-0.14876 l 0.765072,-3.0603 1.743948,3.57426 c 0.0479,0.0956 0.0717,0.10099 0.1315,0.10099 0.0956,0 0.0956,-0.0173 0.126162,-0.12488 l 0.830188,-3.30597" />
      <path
         inkscape:connector-curvature="0"
         id="path32-0"
         style="fill:#000000;fill-opacity:1;fill-rule:nonzero;stroke:none;stroke-width:0.08500815"
         d="m 48.167251,240.88028 c 0,-0.16202 -0.01201,-0.16738 -0.179281,-0.16738 -0.38254,0.37591 -0.92583,0.38118 -1.171588,0.38118 v 0.21524 c 0.143499,0 0.537937,0 0.867338,-0.16738 v 3.04831 c 0,0.1979 0,0.275 -0.597688,0.275 H 46.85889 v 0.21515 c 0.107621,-0.005 0.842171,-0.0239 1.063961,-0.0239 0.184639,0 0.937731,0.0185 1.069228,0.0239 v -0.21515 H 48.76494 c -0.597689,0 -0.597689,-0.0771 -0.597689,-0.275 v -3.30997" />
      <path
         inkscape:connector-curvature="0"
         id="path34-9"
         style="fill:#000000;fill-opacity:1;fill-rule:nonzero;stroke:none;stroke-width:0.08500815"
         d="m 54.25596,242.54721 c 0,-0.55782 -0.211159,-0.88723 -0.540571,-0.88723 -0.278997,0 -0.447648,0.21116 -0.447648,0.44757 0,0.2285 0.168651,0.44765 0.447648,0.44765 0.100912,0 0.211162,-0.0332 0.294812,-0.11026 0.02519,-0.0159 0.0346,-0.0252 0.0425,-0.0252 0.008,0 0.0173,0.009 0.0173,0.12751 0,0.6243 -0.296169,1.13171 -0.57508,1.40926 -0.093,0.093 -0.093,0.11026 -0.093,0.13551 0,0.0598 0.0425,0.093 0.085,0.093 0.093,0 0.76907,-0.65083 0.76907,-1.63777" />
      <path
         inkscape:connector-curvature="0"
         id="path36-63"
         style="fill:#000000;fill-opacity:1;fill-rule:nonzero;stroke:none;stroke-width:0.08500815"
         d="m 59.668602,239.39664 c -0.236411,0.009 -0.405152,0.1939 -0.405152,0.37981 0,0.11825 0.0757,0.24576 0.26165,0.24576 0.186002,0 0.3879,-0.14341 0.3879,-0.47281 0,-0.37991 -0.362649,-0.72657 -1.00421,-0.72657 -1.11573,0 -1.42788,0.86071 -1.42788,1.23262 0,0.65881 0.62566,0.78496 0.870061,0.83673 0.439658,0.0837 0.877959,0.17674 0.877959,0.64156 0,0.21915 -0.1939,0.92846 -1.20737,0.92846 -0.11824,0 -0.767699,0 -0.96297,-0.44757 0.321421,0.0425 0.53258,-0.21124 0.53258,-0.44765 0,-0.1939 -0.135419,-0.29489 -0.31215,-0.29489 -0.22043,0 -0.472818,0.17664 -0.472818,0.55654 0,0.48217 0.480808,0.81957 1.207367,0.81957 1.368121,0 1.697533,-1.02146 1.697533,-1.40136 0,-0.30416 -0.160751,-0.51532 -0.261652,-0.61759 -0.22851,-0.23649 -0.474178,-0.27763 -0.84482,-0.35465 -0.304149,-0.0664 -0.641548,-0.12624 -0.641548,-0.50605 0,-0.2444 0.201887,-0.75981 0.945708,-0.75981 0.211251,0 0.63229,0.0585 0.759812,0.3879" />
      <path
         inkscape:connector-curvature="0"
         id="path38-8"
         style="fill:#000000;fill-opacity:1;fill-rule:nonzero;stroke:none;stroke-width:0.08500815"
         d="m 63.361101,241.92427 c 0,-0.65745 -0.0784,-1.13035 -0.353301,-1.54876 -0.18464,-0.27492 -0.555189,-0.51269 -1.03336,-0.51269 -1.386739,0 -1.386739,1.63114 -1.386739,2.06145 0,0.4304 0,2.02557 1.386739,2.02557 1.386661,0 1.386661,-1.59517 1.386661,-2.02557 z m -1.386661,1.85819 c -0.275,0 -0.640188,-0.16066 -0.759799,-0.65082 -0.0837,-0.35329 -0.0837,-0.84345 -0.0837,-1.28575 0,-0.43567 0,-0.88995 0.0903,-1.21936 0.124881,-0.47145 0.50741,-0.59633 0.753171,-0.59633 0.322778,0 0.633569,0.19654 0.741191,0.5432 0.0956,0.32278 0.100898,0.75318 0.100898,1.27249 0,0.4423 0,0.8846 -0.077,1.26186 -0.11953,0.54329 -0.526031,0.67471 -0.765079,0.67471" />
      <path
         inkscape:connector-curvature="0"
         id="path40-5"
         style="fill:#000000;fill-opacity:1;fill-rule:nonzero;stroke:none;stroke-width:0.08500815"
         d="m 66.542271,240.44462 c 0,-0.65882 -0.093,-1.68155 -0.556548,-2.63526 -0.507331,-1.03871 -1.232622,-1.58727 -1.317622,-1.58727 -0.0504,0 -0.085,0.0332 -0.085,0.0836 0,0.0252 0,0.0425 0.160751,0.19526 0.827471,0.83546 1.309632,2.17834 1.309632,3.94362 0,1.44378 -0.31342,2.93014 -1.360131,3.99402 -0.110251,0.10099 -0.110251,0.11825 -0.110251,0.14349 0,0.0504 0.0346,0.0836 0.085,0.0836 0.085,0 0.844811,-0.5738 1.342871,-1.64567 0.4304,-0.92982 0.531299,-1.86618 0.531299,-2.57549" />
      <path
         inkscape:connector-curvature="0"
         id="path42-61"
         style="fill:#000000;fill-opacity:1;fill-rule:nonzero;stroke:none;stroke-width:0.08500815"
         d="m 75.599631,239.79379 c 0.126161,0 0.286911,0 0.286911,-0.16874 0,-0.16865 -0.16075,-0.16865 -0.278921,-0.16865 h -5.057978 c -0.118251,0 -0.278911,0 -0.278911,0.16865 0,0.16874 0.16066,0.16874 0.286901,0.16874 z m 0.008,1.63769 c 0.118171,0 0.278921,0 0.278921,-0.16866 0,-0.16874 -0.16075,-0.16874 -0.286911,-0.16874 H 70.55764 c -0.126238,0 -0.286898,0 -0.286898,0.16874 0,0.16866 0.16066,0.16866 0.278908,0.16866 h 5.057992" />
      <g
         id="g5879"
         transform="translate(-135.18296,135.5283)">
        <path
           d="m 224.51277,110.77389 1.02137,-2.70301 h -0.21116 c -0.3294,0.87797 -1.22462,1.45313 -2.19559,1.70552 -0.17664,0.0425 -1.00547,0.26166 -2.62598,0.26166 h -5.0925 l 4.29818,-5.04073 c 0.0599,-0.0678 0.0757,-0.093 0.0757,-0.1355 0,-0.0159 0,-0.0412 -0.0584,-0.12616 l -3.93562,-5.379396 h 4.62759 c 1.13171,0 1.90078,0.118161 1.97644,0.135418 0.45564,0.06775 1.19011,0.211245 1.85828,0.633568 0.21116,0.13423 0.78496,0.5154 1.07186,1.1981 h 0.21116 l -1.02137,-2.372235 h -9.98183 c -0.1939,0 -0.20325,0.008 -0.2285,0.05976 -0.008,0.02525 -0.008,0.184638 -0.008,0.277636 l 4.46683,6.113959 -4.37392,5.12565 c -0.085,0.10235 -0.085,0.14349 -0.085,0.15276 0,0.093 0.0771,0.093 0.2285,0.093 h 9.98183"
           style="fill:#000000;fill-opacity:1;fill-rule:nonzero;stroke:none;stroke-width:0.08500815"
           id="path44-1"
           inkscape:connector-curvature="0" />
        <path
           d="m 218.26731,115.83056 c -0.1554,0.0359 -0.25103,0.16204 -0.25103,0.28159 0,0.13681 0.11952,0.19126 0.1979,0.19126 0.0598,0 0.2869,-0.0359 0.2869,-0.34136 0,-0.38784 -0.4304,-0.51934 -0.79559,-0.51934 -0.93246,0 -1.09984,0.6867 -1.09984,0.87266 0,0.22049 0.12615,0.36394 0.20989,0.43566 0.15539,0.11955 0.26301,0.14345 0.67471,0.21518 0.12623,0.0239 0.50877,0.0956 0.50877,0.39449 0,0.10228 -0.0665,0.32941 -0.3175,0.47817 -0.23242,0.1315 -0.52595,0.1315 -0.5977,0.1315 -0.23904,0 -0.57907,-0.0531 -0.71721,-0.25104 0.1979,-0.0239 0.32941,-0.17267 0.32941,-0.34004 0,-0.15009 -0.10762,-0.22181 -0.23378,-0.22181 -0.17273,0 -0.34674,0.13814 -0.34674,0.40113 0,0.35863 0.38253,0.57912 0.96305,0.57912 1.09975,0 1.30301,-0.75312 1.30301,-0.98556 0,-0.5499 -0.60441,-0.65749 -0.82484,-0.69999 -0.0545,-0.0119 -0.20325,-0.0359 -0.23912,-0.0478 -0.22179,-0.0412 -0.32941,-0.16736 -0.32941,-0.29885 0,-0.13682 0.10762,-0.29887 0.23913,-0.38254 0.16202,-0.10095 0.37055,-0.11291 0.47281,-0.11291 0.12488,0 0.43567,0.0173 0.56718,0.2205"
           style="fill:#000000;fill-opacity:1;fill-rule:nonzero;stroke:none;stroke-width:0.08500815"
           id="path46-59"
           inkscape:connector-curvature="0" />
        <path
           d="m 222.93077,113.59777 c 0.0306,-0.11955 0.0731,-0.28293 0.46355,-0.29488 0.0346,0 0.11161,-0.004 0.11161,-0.12087 0,-0.0173 -0.0133,-0.073 -0.073,-0.073 -0.0771,0 -0.16738,0.0133 -0.2444,0.0133 -0.0771,0 -0.15811,0.004 -0.24048,0.004 -0.085,0 -0.1673,-0.004 -0.25231,-0.004 -0.0771,0 -0.16738,-0.0133 -0.2444,-0.0133 -0.0306,0 -0.10362,0 -0.10362,0.12086 0,0.0731 0.0651,0.0731 0.10762,0.0731 0.28291,0.004 0.30016,0.0943 0.30016,0.16736 0,0.0292 -0.008,0.0505 -0.0133,0.077 l -0.46227,1.84361 -1.28575,-2.20888 c -0.0439,-0.073 -0.0518,-0.073 -0.1554,-0.073 h -0.66417 c -0.0863,0 -0.15003,0 -0.15003,0.12086 0,0.0731 0.0558,0.0731 0.15803,0.0731 0.0133,0 0.18463,0 0.29225,0.0173 l -0.5619,2.23678 c -0.0292,0.11689 -0.0678,0.27894 -0.46755,0.28824 -0.0331,0 -0.10626,0.004 -0.10626,0.11954 0,0.0385 0.0332,0.0731 0.0731,0.0731 0.077,0 0.16602,-0.0133 0.24304,-0.0133 0.0824,0 0.16339,-0.004 0.2444,-0.004 0.0864,0 0.16738,0.004 0.25366,0.004 0.0771,0 0.16738,0.0133 0.2444,0.0133 0.0558,0 0.10235,-0.0306 0.10235,-0.11954 0,-0.0731 -0.0638,-0.0731 -0.11161,-0.0731 -0.21389,-0.004 -0.2949,-0.0598 -0.2949,-0.16338 0,-0.0292 0.008,-0.0558 0.0173,-0.0983 l 0.53529,-2.15177 1.47439,2.52899 c 0.0439,0.077 0.0691,0.077 0.11688,0.077 0.085,0 0.089,-0.0213 0.11026,-0.11157 l 0.58307,-2.32842"
           style="fill:#000000;fill-opacity:1;fill-rule:nonzero;stroke:none;stroke-width:0.08500815"
           id="path48-8"
           inkscape:connector-curvature="0" />
        <path
           d="m 220.54391,117.13623 c 0,-0.12885 -0.0133,-0.12885 -0.15539,-0.12885 -0.30416,0.27495 -0.7797,0.27495 -0.86598,0.27495 h -0.0717 v 0.18862 h 0.0717 c 0.0995,0 0.37718,-0.0133 0.62693,-0.11955 v 2.14248 c 0,0.13282 0,0.18064 -0.45428,0.18064 h -0.21516 v 0.18861 c 0.23641,-0.0173 0.61759,-0.0173 0.86598,-0.0173 0.24839,0 0.63093,0 0.86606,0.0173 v -0.18861 h -0.21388 c -0.45428,0 -0.45428,-0.0478 -0.45428,-0.18064 v -2.35765"
           style="fill:#000000;fill-opacity:1;fill-rule:nonzero;stroke:none;stroke-width:0.08500815"
           id="path50-4"
           inkscape:connector-curvature="0" />
        <path
           d="m 235.63728,92.970037 c 0.0595,-0.227142 0.15471,-0.423766 0.63331,-0.435667 0.0306,0 0.11901,-0.0054 0.11901,-0.131508 0,-0.03587 -0.0289,-0.08373 -0.0884,-0.08373 -0.19807,0 -0.41824,0.02397 -0.62141,0.02397 -0.14366,0 -0.4905,-0.02397 -0.63416,-0.02397 -0.0306,0 -0.11901,0 -0.11901,0.131508 0,0.07838 0.0765,0.08373 0.13091,0.08373 0.28053,0.0066 0.38254,0.09563 0.38254,0.244398 0,0.04778 -0.007,0.07829 -0.0238,0.143409 l -0.65202,2.60601 -1.51654,-3.106793 c -0.0485,-0.102265 -0.0604,-0.102265 -0.20317,-0.102265 h -0.82033 c -0.11221,0 -0.19127,0 -0.19127,0.131508 0,0.08373 0.0723,0.08373 0.19807,0.08373 0.12496,0 0.25673,0.0066 0.38254,0.03052 l -0.80078,3.197071 c -0.0544,0.227142 -0.15556,0.406509 -0.62141,0.423766 -0.0425,0 -0.12632,0.0066 -0.12632,0.126152 0,0.06512 0.0481,0.089 0.0906,0.089 0.19637,0 0.41824,-0.02389 0.62141,-0.02389 0.14366,0 0.48964,0.02389 0.63331,0.02389 0.0603,0 0.11986,-0.02924 0.11986,-0.124877 0,-0.08365 -0.0723,-0.09028 -0.13856,-0.09028 -0.37574,-0.01199 -0.37574,-0.167381 -0.37574,-0.251029 0,-0.02397 0,-0.05313 0.0238,-0.148764 l 0.76508,-3.060294 1.74436,3.574253 c 0.0476,0.09563 0.0714,0.10099 0.13177,0.10099 0.0952,0 0.0952,-0.01726 0.12581,-0.124877 l 0.83053,-3.305967"
           style="fill:#000000;fill-opacity:1;fill-rule:nonzero;stroke:none;stroke-width:0.08500815"
           id="path52-8"
           inkscape:connector-curvature="0" />
        <path
           d="m 238.58451,110.77389 v -0.45692 c -1.12381,0 -1.38563,-0.38781 -1.38563,-0.92846 v -9.05201 c 0,-0.549915 0.26947,-0.929816 1.38563,-0.929816 v -0.455559 h -9.83859 v 0.455559 c 1.12364,0 1.38529,0.389167 1.38529,0.929816 v 9.05201 c 0,0.54856 -0.27092,0.92846 -1.38529,0.92846 v 0.45692 h 4.06144 v -0.45692 c -1.12296,0 -1.38479,-0.38781 -1.38479,-0.92846 v -9.981826 h 4.48418 v 9.981826 c 0,0.54856 -0.26947,0.92846 -1.38393,0.92846 v 0.45692 h 4.06169"
           style="fill:#000000;fill-opacity:1;fill-rule:nonzero;stroke:none;stroke-width:0.08500815"
           id="path54-1"
           inkscape:connector-curvature="0" />
        <path
           d="m 229.37813,113.26039 c 0.007,-0.012 0.0239,-0.0903 0.0239,-0.0956 0,-0.0305 -0.0239,-0.0837 -0.0956,-0.0837 -0.11952,0 -0.61495,0.0478 -0.76507,0.0598 -0.0478,0.005 -0.13151,0.0119 -0.13151,0.1368 0,0.0837 0.0837,0.0837 0.15548,0.0837 0.2869,0 0.2869,0.0425 0.2869,0.0903 0,0.0412 -0.012,0.077 -0.024,0.13018 l -0.84209,3.38305 c -0.0305,0.10759 -0.0305,0.11955 -0.0305,0.1315 0,0.0903 0.0717,0.19127 0.20317,0.19127 0.16211,0 0.23913,-0.11954 0.275,-0.25104 0.0119,-0.0239 0.26965,-1.07589 0.29353,-1.15956 0.42369,0.0425 0.76508,0.1793 0.76508,0.49012 0,0.0306 0,0.0598 -0.012,0.11954 -0.0239,0.0903 -0.0239,0.11955 -0.0239,0.18595 0,0.42372 0.34667,0.61499 0.63357,0.61499 0.57916,0 0.75844,-0.90853 0.75844,-0.91384 0,-0.0784 -0.077,-0.0784 -0.0956,-0.0784 -0.0837,0 -0.089,0.0306 -0.11952,0.14345 -0.0718,0.25769 -0.2325,0.6814 -0.52603,0.6814 -0.16067,0 -0.20853,-0.14876 -0.20853,-0.31081 0,-0.10095 0,-0.1129 0.0359,-0.26831 0.005,-0.0186 0.0292,-0.11954 0.0292,-0.18595 0,-0.5313 -0.7173,-0.61499 -0.96833,-0.63359 0.17401,-0.10758 0.39452,-0.30416 0.49679,-0.39448 0.30416,-0.28691 0.60305,-0.56717 0.93772,-0.56717 0.0717,0 0.15013,0.0173 0.1979,0.077 -0.25766,0.0425 -0.31079,0.24573 -0.31079,0.33472 0,0.1315 0.10091,0.22182 0.23904,0.22182 0.16076,0 0.34004,-0.1315 0.34004,-0.38253 0,-0.19792 -0.14341,-0.41841 -0.45956,-0.41841 -0.3413,0 -0.65218,0.2444 -0.95634,0.52599 -0.25103,0.23909 -0.44893,0.42372 -0.69332,0.52599 l 0.59106,-2.38421"
           style="fill:#000000;fill-opacity:1;fill-rule:nonzero;stroke:none;stroke-width:0.08500815"
           id="path56-0"
           inkscape:connector-curvature="0" />
        <path
           d="m 235.75204,115.21956 c 0.091,0 0.22782,0 0.22782,-0.14876 0,-0.14346 -0.14366,-0.14346 -0.22102,-0.14346 h -3.95628 c -0.0774,0 -0.22102,0 -0.22102,0.14346 0,0.14876 0.13686,0.14876 0.22697,0.14876 z m 0.007,1.31497 c 0.0774,0 0.22102,0 0.22102,-0.14346 0,-0.14876 -0.13686,-0.14876 -0.22782,-0.14876 h -3.94353 c -0.0901,0 -0.22697,0 -0.22697,0.14876 0,0.14346 0.14366,0.14346 0.22102,0.14346 h 3.95628"
           style="fill:#000000;fill-opacity:1;fill-rule:nonzero;stroke:none;stroke-width:0.08500815"
           id="path58-3"
           inkscape:connector-curvature="0" />
        <path
           d="m 238.43575,113.42775 c 0,-0.16205 -0.0119,-0.16736 -0.17937,-0.16736 -0.38254,0.37589 -0.92574,0.38121 -1.17141,0.38121 v 0.21517 c 0.14281,0 0.53725,0 0.86708,-0.16736 v 3.04834 c 0,0.19791 0,0.27495 -0.59761,0.27495 h -0.22697 v 0.21518 c 0.10711,-0.005 0.84158,-0.0239 1.06345,-0.0239 0.18447,0 0.93764,0.0186 1.0694,0.0239 v -0.21518 h -0.22697 c -0.5976,0 -0.5976,-0.077 -0.5976,-0.27495 v -3.31"
           style="fill:#000000;fill-opacity:1;fill-rule:nonzero;stroke:none;stroke-width:0.08500815"
           id="path60-04"
           inkscape:connector-curvature="0" />
        <path
           d="m 251.97074,110.77389 1.02095,-2.70301 h -0.21082 c -0.32983,0.87797 -1.22497,1.45313 -2.19576,1.70552 -0.17682,0.0425 -1.00565,0.26166 -2.6259,0.26166 h -5.09284 l 4.29801,-5.04073 c 0.0604,-0.0678 0.0765,-0.093 0.0765,-0.1355 0,-0.0159 0,-0.0412 -0.0587,-0.12616 l -3.93587,-5.379396 h 4.62784 c 1.13146,0 1.90078,0.118161 1.97644,0.135418 0.45564,0.06775 1.19011,0.211245 1.85828,0.633568 0.21082,0.13423 0.78462,0.5154 1.07195,1.1981 h 0.21082 l -1.02095,-2.372235 h -9.9825 c -0.19382,0 -0.20317,0.008 -0.22783,0.05976 -0.008,0.02525 -0.008,0.184638 -0.008,0.277636 l 4.46718,6.113959 -4.37367,5.12565 c -0.085,0.10235 -0.085,0.14349 -0.085,0.15276 0,0.093 0.0765,0.093 0.22783,0.093 h 9.9825"
           style="fill:#000000;fill-opacity:1;fill-rule:nonzero;stroke:none;stroke-width:0.08500815"
           id="path62-4"
           inkscape:connector-curvature="0" />
        <path
           d="m 248.48796,114.51426 c -0.21507,0.0359 -0.30603,0.20322 -0.30603,0.33472 0,0.16071 0.12666,0.22049 0.23377,0.22049 0.13176,0 0.34003,-0.0956 0.34003,-0.38254 0,-0.40645 -0.46584,-0.51935 -0.78887,-0.51935 -0.89599,0 -1.72652,0.82485 -1.72652,1.655 0,0.51404 0.35874,1.04003 1.10511,1.04003 1.01075,0 1.48254,-0.59107 1.48254,-0.67476 0,-0.0359 -0.0536,-0.10227 -0.10116,-0.10227 -0.0357,0 -0.0476,0.012 -0.0961,0.0598 -0.46584,0.5499 -1.16546,0.5499 -1.27342,0.5499 -0.43014,0 -0.62141,-0.29222 -0.62141,-0.6628 0,-0.174 0.0833,-0.82484 0.39444,-1.23793 0.22697,-0.29222 0.5381,-0.45958 0.83648,-0.45958 0.0842,0 0.37063,0.012 0.5211,0.17932"
           style="fill:#000000;fill-opacity:1;fill-rule:nonzero;stroke:none;stroke-width:0.08500815"
           id="path64-4"
           inkscape:connector-curvature="0" />
        <path
           d="m 258.69829,103.38745 c 0,-0.0345 -0.0255,-0.085 -0.085,-0.085 -0.0935,0 -0.43099,0.33875 -0.57381,0.58315 -0.18616,-0.45564 -0.51599,-0.59106 -0.78632,-0.59106 -0.9963,0 -2.0351,1.24988 -2.0351,2.4745 0,0.82747 0.49815,1.35087 1.11531,1.35087 0.36299,0 0.69197,-0.20326 0.9963,-0.50742 -0.0765,0.29617 -0.35449,1.43588 -0.37999,1.51153 -0.0672,0.23641 -0.13516,0.27101 -0.60781,0.27892 -0.11051,0 -0.19382,0 -0.19382,0.16874 0,0.009 0,0.093 0.10881,0.093 0.27118,0 0.56531,-0.0252 0.84498,-0.0252 0.28648,0 0.59081,0.0252 0.86964,0.0252 0.0425,0 0.15131,0 0.15131,-0.16874 0,-0.093 -0.0833,-0.093 -0.21932,-0.093 -0.40464,0 -0.40464,-0.0584 -0.40464,-0.13415 0,-0.0598 0.017,-0.11025 0.0332,-0.18591 z m -2.33943,3.54645 c -0.50749,0 -0.54065,-0.64946 -0.54065,-0.79432 0,-0.40506 0.24483,-1.32553 0.38764,-1.68018 0.26182,-0.6243 0.70132,-0.97896 1.0473,-0.97896 0.55,0 0.66816,0.68406 0.66816,0.74255 0,0.0504 -0.46499,1.9007 -0.49049,1.93394 -0.12582,0.2364 -0.59931,0.77697 -1.07196,0.77697"
           style="fill:#000000;fill-opacity:1;fill-rule:nonzero;stroke:none;stroke-width:0.08500815"
           id="path66-47"
           inkscape:connector-curvature="0" />
        <path
           d="m 261.75603,109.05383 c 0,-0.0252 0,-0.0425 -0.14366,-0.18599 -1.05495,-1.06388 -1.32613,-2.6605 -1.32613,-3.95152 0,-1.47039 0.32218,-2.93941 1.36013,-3.99539 0.10966,-0.10099 0.10966,-0.11824 0.10966,-0.14349 0,-0.0584 -0.034,-0.0836 -0.0842,-0.0836 -0.085,0 -0.84498,0.57381 -1.34313,1.64704 -0.43014,0.92845 -0.53215,1.86618 -0.53215,2.57549 0,0.65745 0.0927,1.68018 0.55766,2.63389 0.5058,1.03871 1.23261,1.58727 1.31762,1.58727 0.0502,0 0.0842,-0.0252 0.0842,-0.0836"
           style="fill:#000000;fill-opacity:1;fill-rule:nonzero;stroke:none;stroke-width:0.08500815"
           id="path68-6"
           inkscape:connector-curvature="0" />
        <path
           d="m 265.49299,103.86834 c -0.23632,0.009 -0.40464,0.1939 -0.40464,0.37981 0,0.11825 0.0757,0.24576 0.26183,0.24576 0.18531,0 0.38763,-0.14341 0.38763,-0.47281 0,-0.37991 -0.36298,-0.72657 -1.00394,-0.72657 -1.11616,0 -1.42814,0.86071 -1.42814,1.23262 0,0.65881 0.62566,0.78496 0.86963,0.83673 0.44035,0.0837 0.87814,0.17674 0.87814,0.64156 0,0.21915 -0.19382,0.92846 -1.20712,0.92846 -0.11816,0 -0.76762,0 -0.96314,-0.44757 0.32133,0.0425 0.533,-0.21124 0.533,-0.44765 0,-0.1939 -0.13601,-0.29489 -0.31283,-0.29489 -0.22017,0 -0.47264,0.17664 -0.47264,0.55654 0,0.48217 0.48114,0.81957 1.20796,0.81957 1.36778,0 1.69676,-1.02146 1.69676,-1.40136 0,-0.30416 -0.16066,-0.51532 -0.26097,-0.61759 -0.22867,-0.23649 -0.47435,-0.27763 -0.84498,-0.35465 -0.30433,-0.0664 -0.64181,-0.12624 -0.64181,-0.50605 0,-0.2444 0.20232,-0.75981 0.94614,-0.75981 0.21082,0 0.63161,0.0585 0.75912,0.3879"
           style="fill:#000000;fill-opacity:1;fill-rule:nonzero;stroke:none;stroke-width:0.08500815"
           id="path70-3"
           inkscape:connector-curvature="0" />
        <path
           d="m 268.05684,104.33452 c 0.007,-0.012 0.0238,-0.0903 0.0238,-0.0956 0,-0.0305 -0.0238,-0.0836 -0.0952,-0.0836 -0.11986,0 -0.61546,0.0478 -0.76507,0.0598 -0.0485,0.005 -0.13177,0.0119 -0.13177,0.13678 0,0.0837 0.0833,0.0837 0.15557,0.0837 0.28647,0 0.28647,0.0425 0.28647,0.0903 0,0.0411 -0.0119,0.077 -0.0238,0.13015 l -0.84158,3.38307 c -0.0306,0.10762 -0.0306,0.11952 -0.0306,0.1315 0,0.0904 0.0714,0.19127 0.20317,0.19127 0.16151,0 0.23887,-0.11952 0.27457,-0.25103 0.0119,-0.0239 0.26948,-1.07586 0.29328,-1.15959 0.42419,0.0425 0.76508,0.17936 0.76508,0.49015 0,0.0305 0,0.0598 -0.0119,0.11953 -0.0238,0.0904 -0.0238,0.11952 -0.0238,0.18599 0,0.42368 0.34684,0.61495 0.63416,0.61495 0.57891,0 0.75828,-0.90848 0.75828,-0.91384 0,-0.0784 -0.0774,-0.0784 -0.0961,-0.0784 -0.0833,0 -0.0884,0.0306 -0.11901,0.14349 -0.0723,0.25766 -0.23293,0.68134 -0.5262,0.68134 -0.16067,0 -0.20827,-0.14876 -0.20827,-0.31079 0,-0.1009 0,-0.11289 0.0357,-0.26828 0.005,-0.0186 0.0289,-0.11953 0.0289,-0.186 0,-0.5313 -0.71747,-0.61495 -0.96824,-0.63357 0.17427,-0.10753 0.39444,-0.30416 0.49645,-0.39444 0.30433,-0.2869 0.60355,-0.56717 0.93849,-0.56717 0.0714,0 0.14961,0.0173 0.19722,0.077 -0.25758,0.0425 -0.31028,0.24576 -0.31028,0.33467 0,0.13151 0.1003,0.22188 0.23887,0.22188 0.16066,0 0.34003,-0.13151 0.34003,-0.38254 0,-0.1979 -0.14366,-0.41841 -0.45989,-0.41841 -0.34089,0 -0.65202,0.2444 -0.95634,0.52594 -0.25078,0.23913 -0.44885,0.42377 -0.69282,0.52603 l 0.59081,-2.38422"
           style="fill:#000000;fill-opacity:1;fill-rule:nonzero;stroke:none;stroke-width:0.08500815"
           id="path72-17"
           inkscape:connector-curvature="0" />
        <path
           d="m 271.78019,100.99795 c 0,-0.15276 0,-0.30416 -0.16916,-0.30416 -0.16832,0 -0.16832,0.1514 -0.16832,0.30416 v 7.83673 c 0,0.1514 0,0.3028 0.16832,0.3028 0.16916,0 0.16916,-0.1514 0.16916,-0.3028 v -7.83673"
           style="fill:#000000;fill-opacity:1;fill-rule:nonzero;stroke:none;stroke-width:0.08500815"
           id="path74-5"
           inkscape:connector-curvature="0" />
        <path
           d="m 276.16151,103.81784 c -0.13516,0 -0.25332,0 -0.37148,0.11825 -0.13517,0.12615 -0.15302,0.27092 -0.15302,0.3294 0,0.20317 0.15302,0.29617 0.31368,0.29617 0.24398,0 0.47265,-0.20325 0.47265,-0.54056 0,-0.41442 -0.39699,-0.72657 -0.99715,-0.72657 -1.13996,0 -2.26207,1.20737 -2.26207,2.39876 0,0.7598 0.4888,1.42661 1.36779,1.42661 1.20796,0 1.91693,-0.89531 1.91693,-0.99621 0,-0.0505 -0.0502,-0.11026 -0.10201,-0.11026 -0.0417,0 -0.0587,0.0173 -0.10966,0.085 -0.66646,0.83546 -1.5871,0.83546 -1.68911,0.83546 -0.5313,0 -0.75998,-0.41305 -0.75998,-0.92047 0,-0.34666 0.16917,-1.16486 0.45565,-1.68817 0.26352,-0.48217 0.72682,-0.84482 1.19181,-0.84482 0.28648,0 0.60781,0.1089 0.72597,0.3374"
           style="fill:#000000;fill-opacity:1;fill-rule:nonzero;stroke:none;stroke-width:0.08500815"
           id="path76-9"
           inkscape:connector-curvature="0" />
        <path
           d="m 278.91238,104.91632 c 0,-0.65882 -0.0927,-1.68155 -0.55596,-2.63526 -0.5075,-1.03871 -1.23262,-1.58727 -1.31762,-1.58727 -0.051,0 -0.085,0.0332 -0.085,0.0836 0,0.0252 0,0.0425 0.16066,0.19526 0.82713,0.83546 1.30913,2.17834 1.30913,3.94362 0,1.44378 -0.31283,2.93014 -1.36013,3.99402 -0.10966,0.10099 -0.10966,0.11825 -0.10966,0.14349 0,0.0504 0.034,0.0836 0.085,0.0836 0.085,0 0.84413,-0.5738 1.34228,-1.64567 0.43099,-0.92982 0.5313,-1.86618 0.5313,-2.57549"
           style="fill:#000000;fill-opacity:1;fill-rule:nonzero;stroke:none;stroke-width:0.08500815"
           id="path78-6"
           inkscape:connector-curvature="0" />
        <path
           d="m 282.01687,103.33704 c -1.05495,0.2523 -1.87443,1.35078 -1.87443,2.37223 0,0.81158 0.54066,1.41853 1.33548,1.41853 0.9861,0 1.68741,-1.32553 1.68741,-2.49039 0,-0.76907 -0.33663,-1.19148 -0.62396,-1.57138 -0.30433,-0.3799 -0.80247,-1.01347 -0.80247,-1.38402 0,-0.186 0.16916,-0.38917 0.46414,-0.38917 0.25333,0 0.42249,0.11026 0.60016,0.22842 0.16832,0.10099 0.33748,0.21125 0.46329,0.21125 0.21167,0 0.33919,-0.20326 0.33919,-0.33876 0,-0.18464 -0.13602,-0.2098 -0.44035,-0.27755 -0.43949,-0.093 -0.55765,-0.093 -0.69196,-0.093 -0.65882,0 -0.96229,0.36264 -0.96229,0.86997 0,0.45565 0.24397,0.92846 0.50579,1.44387 z m 0.10201,0.18591 c 0.21167,0.38789 0.46415,0.84345 0.46415,1.45177 0,0.55791 -0.32048,1.96717 -1.10511,1.96717 -0.46499,0 -0.81183,-0.35465 -0.81183,-0.99621 0,-0.5313 0.31198,-2.11985 1.45279,-2.42273"
           style="fill:#000000;fill-opacity:1;fill-rule:nonzero;stroke:none;stroke-width:0.08500815"
           id="path80-2"
           inkscape:connector-curvature="0" />
        <path
           d="m 286.14657,106.01343 c -0.21507,0.0359 -0.30603,0.20326 -0.30603,0.33476 0,0.16067 0.12666,0.22043 0.23377,0.22043 0.13177,0 0.34004,-0.0956 0.34004,-0.38254 0,-0.40642 -0.46585,-0.51931 -0.78888,-0.51931 -0.89599,0 -1.72652,0.82483 -1.72652,1.65502 0,0.51405 0.35874,1.03999 1.10511,1.03999 1.01075,0 1.48254,-0.59106 1.48254,-0.67471 0,-0.0359 -0.0536,-0.10235 -0.10116,-0.10235 -0.0357,0 -0.0476,0.012 -0.0961,0.0598 -0.46584,0.54983 -1.16546,0.54983 -1.27342,0.54983 -0.43014,0 -0.62141,-0.29217 -0.62141,-0.66281 0,-0.17392 0.0833,-0.82483 0.39444,-1.23789 0.22697,-0.29225 0.5381,-0.45955 0.83648,-0.45955 0.0842,0 0.37064,0.0119 0.5211,0.17928"
           style="fill:#000000;fill-opacity:1;fill-rule:nonzero;stroke:none;stroke-width:0.08500815"
           id="path82-17"
           inkscape:connector-curvature="0" />
        <path
           d="m 287.84928,108.20639 c 0,0.32804 -0.0595,0.71058 -0.46669,1.09312 -0.0238,0.024 -0.0408,0.0425 -0.0408,0.0717 0,0.0425 0.0476,0.0836 0.0833,0.0836 0.0842,0 0.59166,-0.47817 0.59166,-1.18875 0,-0.37055 -0.14366,-0.65082 -0.41824,-0.65082 -0.19722,0 -0.34003,0.15539 -0.34003,0.34003 0,0.19127 0.13601,0.34666 0.34598,0.34666 0.14366,0 0.23972,-0.0956 0.24482,-0.0956"
           style="fill:#000000;fill-opacity:1;fill-rule:nonzero;stroke:none;stroke-width:0.08500815"
           id="path84-85"
           inkscape:connector-curvature="0" />
        <path
           d="m 291.20455,106.05458 c -0.15556,0.0359 -0.25162,0.16211 -0.25162,0.28163 0,0.13678 0.11986,0.19127 0.19807,0.19127 0.0604,0 0.28733,-0.0359 0.28733,-0.3414 0,-0.3878 -0.43099,-0.51931 -0.79568,-0.51931 -0.93254,0 -1.1,0.68669 -1.1,0.87269 0,0.22043 0.12581,0.36392 0.20997,0.43567 0.15556,0.11952 0.26267,0.14341 0.67496,0.21516 0.12581,0.0239 0.50835,0.0956 0.50835,0.39443 0,0.10235 -0.0663,0.32941 -0.31708,0.47817 -0.23292,0.13151 -0.5262,0.13151 -0.59761,0.13151 -0.23972,0 -0.57975,-0.0531 -0.71747,-0.25103 0.19807,-0.0239 0.32898,-0.17265 0.32898,-0.34003 0,-0.15004 -0.10711,-0.22179 -0.23377,-0.22179 -0.17257,0 -0.34683,0.13814 -0.34683,0.40116 0,0.35856 0.38253,0.57907 0.96314,0.57907 1.10001,0 1.30318,-0.75308 1.30318,-0.98558 0,-0.54983 -0.60441,-0.65746 -0.82458,-0.69996 -0.0544,-0.012 -0.20317,-0.0359 -0.23888,-0.0479 -0.22187,-0.0411 -0.32983,-0.16729 -0.32983,-0.2988 0,-0.13687 0.10796,-0.29889 0.23887,-0.38254 0.16237,-0.10099 0.37064,-0.11289 0.4735,-0.11289 0.12411,0 0.43524,0.0173 0.567,0.22043"
           style="fill:#000000;fill-opacity:1;fill-rule:nonzero;stroke:none;stroke-width:0.08500815"
           id="path86-7"
           inkscape:connector-curvature="0" />
        <path
           d="m 293.35186,106.3402 c 0.0179,-0.0611 0.0179,-0.0691 0.0179,-0.0904 0,-0.073 -0.0654,-0.073 -0.13346,-0.069 l -0.52705,0.0385 c -0.0731,0.004 -0.0825,0.009 -0.10371,0.0265 -0.017,0.0213 -0.0289,0.0717 -0.0289,0.0984 0,0.073 0.0671,0.073 0.12751,0.073 0.005,0 0.0825,0 0.14621,0.008 0.0808,0.009 0.0859,0.0212 0.0859,0.0558 0,0.0133 0,0.0212 -0.0213,0.0983 l -0.59251,2.36696 c -0.017,0.0638 -0.017,0.073 -0.017,0.0983 0,0.0996 0.0774,0.1554 0.16322,0.1554 0.16746,0 0.20572,-0.15939 0.22357,-0.21915 l 0.19212,-0.78896 c 0.11221,0.004 0.64691,0.0345 0.64691,0.33867 0,0.0306 0,0.0465 -0.0119,0.0983 -0.0128,0.0598 -0.0128,0.0863 -0.0128,0.11153 0,0.30416 0.27457,0.45956 0.5228,0.45956 0.43694,0 0.60865,-0.61359 0.60865,-0.66545 0,-0.0598 -0.0731,-0.0598 -0.0901,-0.0598 -0.0731,0 -0.0816,0.0213 -0.10286,0.0983 -0.0425,0.15013 -0.16747,0.48089 -0.39869,0.48089 -0.15897,0 -0.18022,-0.15939 -0.18022,-0.25375 0,-0.004 0,-0.0637 0.017,-0.13677 0.0179,-0.0691 0.0213,-0.11162 0.0213,-0.14613 0,-0.37718 -0.47094,-0.44094 -0.75402,-0.46219 0.11901,-0.0691 0.30008,-0.21524 0.36894,-0.275 0.24482,-0.19255 0.47944,-0.37718 0.72427,-0.37718 0.0978,0 0.12496,0.0252 0.14961,0.0518 -0.003,0 -0.0247,0.0133 -0.034,0.0133 -0.19722,0.0678 -0.19722,0.24312 -0.19722,0.25638 0,0.073 0.0519,0.17665 0.19297,0.17665 0.0867,0 0.26522,-0.069 0.26522,-0.30552 0,-0.2098 -0.16151,-0.33867 -0.36723,-0.33867 -0.29243,0 -0.54066,0.1979 -0.85434,0.45028 -0.15046,0.12089 -0.29072,0.22715 -0.46244,0.29617 l 0.41569,-1.66293"
           style="fill:#000000;fill-opacity:1;fill-rule:nonzero;stroke:none;stroke-width:0.08500815"
           id="path88-4"
           inkscape:connector-curvature="0" />
        <path
           d="m 298.86209,108.19976 c 0.0689,0 0.18447,0 0.18447,-0.11952 0,-0.11961 -0.11561,-0.11961 -0.18447,-0.11961 h -2.90303 c -0.0672,0 -0.18447,0 -0.18447,0.11961 0,0.11952 0.11731,0.11952 0.18447,0.11952 h 2.90303"
           style="fill:#000000;fill-opacity:1;fill-rule:nonzero;stroke:none;stroke-width:0.08500815"
           id="path90-1"
           inkscape:connector-curvature="0" />
        <path
           d="m 301.38683,106.42521 c 0,-0.12887 -0.0136,-0.12887 -0.15556,-0.12887 -0.30433,0.275 -0.77953,0.275 -0.86624,0.275 h -0.0714 v 0.18855 h 0.0714 c 0.0995,0 0.37744,-0.0133 0.62736,-0.11952 v 2.14246 c 0,0.13287 0,0.18064 -0.45479,0.18064 h -0.21507 v 0.18863 c 0.23632,-0.0173 0.61801,-0.0173 0.86623,-0.0173 0.24823,0 0.63076,0 0.86623,0.0173 v -0.18863 h -0.21422 c -0.45394,0 -0.45394,-0.0478 -0.45394,-0.18064 v -2.35762"
           style="fill:#000000;fill-opacity:1;fill-rule:nonzero;stroke:none;stroke-width:0.08500815"
           id="path92-8"
           inkscape:connector-curvature="0" />
        <path
           d="m 303.7152,108.05762 c -0.068,0.28691 -0.0841,0.34531 -0.45564,0.34531 -0.10201,0 -0.19382,0 -0.19382,0.16075 0,0.0677 0.0408,0.10099 0.10881,0.10099 0.22867,0 0.47265,-0.0252 0.70897,-0.0252 0.27883,0 0.56615,0.0252 0.83733,0.0252 0.0408,0 0.15131,0 0.15131,-0.16874 0,-0.093 -0.0842,-0.093 -0.20316,-0.093 -0.42165,0 -0.42165,-0.0584 -0.42165,-0.13415 0,-0.10226 0.35534,-1.47829 0.41314,-1.68953 0.11052,0.24439 0.34684,0.54065 0.77698,0.54065 0.98099,0 2.03509,-1.23262 2.03509,-2.47459 0,-0.79296 -0.48029,-1.35078 -1.1221,-1.35078 -0.42249,0 -0.82798,0.30416 -1.10681,0.63357 -0.085,-0.45692 -0.44714,-0.63357 -0.75912,-0.63357 -0.38934,0 -0.55001,0.32941 -0.62566,0.48081 -0.15132,0.2869 -0.26183,0.79431 -0.26183,0.81956 0,0.085 0.085,0.085 0.10116,0.085 0.085,0 0.0927,-0.009 0.14282,-0.19526 0.14536,-0.59906 0.31368,-1.00421 0.61801,-1.00421 0.14366,0 0.26182,0.0678 0.26182,0.3879 0,0.1939 -0.0255,0.2869 -0.0604,0.43167 z m 1.48595,-3.66597 c 0.0604,-0.22715 0.28732,-0.46355 0.44034,-0.59106 0.29413,-0.26166 0.5398,-0.32015 0.68346,-0.32015 0.33749,0 0.53981,0.2949 0.53981,0.79296 0,0.49942 -0.27798,1.47039 -0.431,1.79053 -0.28647,0.59106 -0.69196,0.86997 -1.00394,0.86997 -0.55766,0 -0.66817,-0.70132 -0.66817,-0.75181 0,-0.0159 0,-0.0332 0.0264,-0.13414 l 0.41314,-1.6563"
           style="fill:#000000;fill-opacity:1;fill-rule:nonzero;stroke:none;stroke-width:0.08500815"
           id="path94-5"
           inkscape:connector-curvature="0" />
        <path
           d="m 310.38069,109.05383 c 0,-0.0252 0,-0.0425 -0.14366,-0.18599 -1.05495,-1.06388 -1.32613,-2.6605 -1.32613,-3.95152 0,-1.47039 0.32218,-2.93941 1.36013,-3.99539 0.10966,-0.10099 0.10966,-0.11824 0.10966,-0.14349 0,-0.0584 -0.034,-0.0836 -0.0842,-0.0836 -0.085,0 -0.84498,0.57381 -1.34312,1.64704 -0.43015,0.92845 -0.53215,1.86618 -0.53215,2.57549 0,0.65745 0.0926,1.68018 0.55765,2.63389 0.5058,1.03871 1.23262,1.58727 1.31762,1.58727 0.0502,0 0.0842,-0.0252 0.0842,-0.0836"
           style="fill:#000000;fill-opacity:1;fill-rule:nonzero;stroke:none;stroke-width:0.08500815"
           id="path96-9"
           inkscape:connector-curvature="0" />
        <path
           d="m 315.00514,103.80985 c 0.0332,-0.11816 0.0332,-0.1355 0.0332,-0.1939 0,-0.15276 -0.11816,-0.2285 -0.24397,-0.2285 -0.085,0 -0.21932,0.0505 -0.29668,0.17673 -0.0153,0.0425 -0.0833,0.30416 -0.11816,0.45692 -0.0587,0.21915 -0.11816,0.44756 -0.16832,0.67471 l -0.37999,1.52088 c -0.0331,0.12615 -0.39698,0.71721 -0.95379,0.71721 -0.43184,0 -0.52365,-0.37191 -0.52365,-0.68406 0,-0.38781 0.14367,-0.91248 0.43099,-1.65494 0.13347,-0.34675 0.16832,-0.43966 0.16832,-0.6084 0,-0.37982 -0.27118,-0.69197 -0.69197,-0.69197 -0.80247,0 -1.1153,1.22463 -1.1153,1.30037 0,0.085 0.085,0.085 0.10201,0.085 0.0833,0 0.0927,-0.0173 0.13431,-0.15276 0.22782,-0.79296 0.5653,-1.04671 0.85263,-1.04671 0.0672,0 0.21082,0 0.21082,0.26965 0,0.21116 -0.0833,0.4304 -0.14366,0.59106 -0.33664,0.89522 -0.4888,1.37739 -0.4888,1.77327 0,0.75173 0.5313,1.00548 1.02945,1.00548 0.32983,0 0.61631,-0.1435 0.85348,-0.3799 -0.10966,0.4383 -0.21167,0.85271 -0.54915,1.30037 -0.21932,0.2869 -0.54065,0.5313 -0.92829,0.5313 -0.11816,0 -0.49815,-0.0252 -0.64181,-0.35466 0.13431,0 0.24482,0 0.36298,-0.10099 0.085,-0.0757 0.16832,-0.18591 0.16832,-0.34666 0,-0.26165 -0.22782,-0.29481 -0.31198,-0.29481 -0.19382,0 -0.47265,0.13542 -0.47265,0.54856 0,0.42232 0.37149,0.73447 0.89514,0.73447 0.86963,0 1.73842,-0.76771 1.97474,-1.72269 l 0.81183,-3.22504"
           style="fill:#000000;fill-opacity:1;fill-rule:nonzero;stroke:none;stroke-width:0.08500815"
           id="path98-7"
           inkscape:connector-curvature="0" />
        <path
           d="m 316.93652,104.33452 c 0.007,-0.012 0.0238,-0.0903 0.0238,-0.0956 0,-0.0305 -0.0238,-0.0836 -0.0952,-0.0836 -0.11986,0 -0.61545,0.0478 -0.76507,0.0598 -0.0485,0.005 -0.13176,0.0119 -0.13176,0.13678 0,0.0837 0.0833,0.0837 0.15556,0.0837 0.28648,0 0.28648,0.0425 0.28648,0.0903 0,0.0411 -0.0119,0.077 -0.0238,0.13015 l -0.84158,3.38307 c -0.0306,0.10762 -0.0306,0.11952 -0.0306,0.1315 0,0.0904 0.0714,0.19127 0.20316,0.19127 0.16152,0 0.23888,-0.11952 0.27458,-0.25103 0.0119,-0.0239 0.26948,-1.07586 0.29328,-1.15959 0.42419,0.0425 0.76507,0.17936 0.76507,0.49015 0,0.0305 0,0.0598 -0.0119,0.11953 -0.0238,0.0904 -0.0238,0.11952 -0.0238,0.18599 0,0.42368 0.34683,0.61495 0.63416,0.61495 0.57891,0 0.75827,-0.90848 0.75827,-0.91384 0,-0.0784 -0.0773,-0.0784 -0.0961,-0.0784 -0.0833,0 -0.0884,0.0306 -0.11901,0.14349 -0.0723,0.25766 -0.23292,0.68134 -0.5262,0.68134 -0.16066,0 -0.20827,-0.14876 -0.20827,-0.31079 0,-0.1009 0,-0.11289 0.0357,-0.26828 0.005,-0.0186 0.0289,-0.11953 0.0289,-0.186 0,-0.5313 -0.71747,-0.61495 -0.96825,-0.63357 0.17427,-0.10753 0.39444,-0.30416 0.49645,-0.39444 0.30433,-0.2869 0.60356,-0.56717 0.93849,-0.56717 0.0714,0 0.14962,0.0173 0.19722,0.077 -0.25757,0.0425 -0.31028,0.24576 -0.31028,0.33467 0,0.13151 0.10031,0.22188 0.23887,0.22188 0.16067,0 0.34004,-0.13151 0.34004,-0.38254 0,-0.1979 -0.14367,-0.41841 -0.4599,-0.41841 -0.34088,0 -0.65201,0.2444 -0.95634,0.52594 -0.25077,0.23913 -0.44884,0.42377 -0.69282,0.52603 l 0.59081,-2.38422"
           style="fill:#000000;fill-opacity:1;fill-rule:nonzero;stroke:none;stroke-width:0.08500815"
           id="path100-53"
           inkscape:connector-curvature="0" />
        <path
           d="m 320.57487,100.99795 c 0,-0.15276 0,-0.30416 -0.16917,-0.30416 -0.16831,0 -0.16831,0.1514 -0.16831,0.30416 v 7.83673 c 0,0.1514 0,0.3028 0.16831,0.3028 0.16917,0 0.16917,-0.1514 0.16917,-0.3028 v -7.83673"
           style="fill:#000000;fill-opacity:1;fill-rule:nonzero;stroke:none;stroke-width:0.08500815"
           id="path102-88"
           inkscape:connector-curvature="0" />
        <path
           d="m 324.43169,104.47665 c 0.0519,-0.21915 0.24567,-0.99621 0.83733,-0.99621 0.0425,0 0.24397,0 0.42164,0.1089 -0.23632,0.0425 -0.40464,0.25375 -0.40464,0.45692 0,0.13423 0.0918,0.29489 0.31963,0.29489 0.18617,0 0.45565,-0.1514 0.45565,-0.4888 0,-0.43966 -0.49815,-0.55782 -0.78463,-0.55782 -0.4905,0 -0.78462,0.44757 -0.88578,0.64156 -0.21167,-0.55655 -0.66817,-0.64156 -0.91299,-0.64156 -0.87729,0 -1.36013,1.08913 -1.36013,1.30037 0,0.085 0.085,0.085 0.10286,0.085 0.0671,0 0.0927,-0.0173 0.10881,-0.093 0.28818,-0.89522 0.84498,-1.10647 1.13146,-1.10647 0.16066,0 0.45734,0.0757 0.45734,0.56582 0,0.26174 -0.14366,0.82755 -0.45734,2.00968 -0.13432,0.52331 -0.43014,0.87796 -0.80248,0.87796 -0.0501,0 -0.24397,0 -0.42249,-0.11026 0.21167,-0.0411 0.39784,-0.21915 0.39784,-0.45555 0,-0.22851 -0.18617,-0.2949 -0.31283,-0.2949 -0.25333,0 -0.46415,0.21915 -0.46415,0.4888 0,0.38917 0.42164,0.55791 0.79398,0.55791 0.55765,0 0.86028,-0.59106 0.88748,-0.64156 0.10031,0.31215 0.40464,0.64156 0.91129,0.64156 0.86964,0 1.35078,-1.08921 1.35078,-1.30037 0,-0.085 -0.0757,-0.085 -0.10116,-0.085 -0.0757,0 -0.0935,0.0345 -0.11051,0.093 -0.27713,0.90321 -0.85263,1.10638 -1.12211,1.10638 -0.32983,0 -0.46499,-0.26965 -0.46499,-0.55782 0,-0.18464 0.0501,-0.37064 0.14366,-0.74255 l 0.28648,-1.15688"
           style="fill:#000000;fill-opacity:1;fill-rule:nonzero;stroke:none;stroke-width:0.08500815"
           id="path104-3"
           inkscape:connector-curvature="0" />
        <path
           d="m 328.24261,104.33452 c 0.007,-0.012 0.0238,-0.0903 0.0238,-0.0956 0,-0.0305 -0.0238,-0.0836 -0.0952,-0.0836 -0.11986,0 -0.61546,0.0478 -0.76507,0.0598 -0.0485,0.005 -0.13177,0.0119 -0.13177,0.13678 0,0.0837 0.0833,0.0837 0.15557,0.0837 0.28648,0 0.28648,0.0425 0.28648,0.0903 0,0.0411 -0.0119,0.077 -0.0238,0.13015 l -0.84158,3.38307 c -0.0306,0.10762 -0.0306,0.11952 -0.0306,0.1315 0,0.0904 0.0714,0.19127 0.20317,0.19127 0.16151,0 0.23887,-0.11952 0.27457,-0.25103 0.0119,-0.0239 0.26948,-1.07586 0.29328,-1.15959 0.42419,0.0425 0.76508,0.17936 0.76508,0.49015 0,0.0305 0,0.0598 -0.0119,0.11953 -0.0238,0.0904 -0.0238,0.11952 -0.0238,0.18599 0,0.42368 0.34684,0.61495 0.63416,0.61495 0.57891,0 0.75828,-0.90848 0.75828,-0.91384 0,-0.0784 -0.0774,-0.0784 -0.0961,-0.0784 -0.0833,0 -0.0884,0.0306 -0.11901,0.14349 -0.0723,0.25766 -0.23293,0.68134 -0.5262,0.68134 -0.16067,0 -0.20827,-0.14876 -0.20827,-0.31079 0,-0.1009 0,-0.11289 0.0357,-0.26828 0.005,-0.0186 0.0289,-0.11953 0.0289,-0.186 0,-0.5313 -0.71747,-0.61495 -0.96824,-0.63357 0.17427,-0.10753 0.39444,-0.30416 0.49645,-0.39444 0.30433,-0.2869 0.60355,-0.56717 0.93849,-0.56717 0.0714,0 0.14961,0.0173 0.19722,0.077 -0.25758,0.0425 -0.31028,0.24576 -0.31028,0.33467 0,0.13151 0.10031,0.22188 0.23887,0.22188 0.16066,0 0.34003,-0.13151 0.34003,-0.38254 0,-0.1979 -0.14366,-0.41841 -0.45989,-0.41841 -0.34089,0 -0.65202,0.2444 -0.95634,0.52594 -0.25078,0.23913 -0.44885,0.42377 -0.69282,0.52603 l 0.59081,-2.38422"
           style="fill:#000000;fill-opacity:1;fill-rule:nonzero;stroke:none;stroke-width:0.08500815"
           id="path106-1"
           inkscape:connector-curvature="0" />
        <path
           d="m 332.25244,107.01891 c 0,-0.55782 -0.21082,-0.88723 -0.54065,-0.88723 -0.27883,0 -0.44714,0.21116 -0.44714,0.44757 0,0.2285 0.16831,0.44765 0.44714,0.44765 0.10116,0 0.21167,-0.0332 0.29498,-0.11026 0.0255,-0.0159 0.0349,-0.0252 0.0425,-0.0252 0.009,0 0.017,0.009 0.017,0.12751 0,0.6243 -0.29583,1.13171 -0.57465,1.40926 -0.0927,0.093 -0.0927,0.11026 -0.0927,0.13551 0,0.0598 0.0425,0.093 0.085,0.093 0.0927,0 0.76847,-0.65083 0.76847,-1.63777"
           style="fill:#000000;fill-opacity:1;fill-rule:nonzero;stroke:none;stroke-width:0.08500815"
           id="path108-8"
           inkscape:connector-curvature="0" />
        <path
           d="m 337.70741,103.81784 c -0.13516,0 -0.25332,0 -0.37148,0.11825 -0.13517,0.12615 -0.15302,0.27092 -0.15302,0.3294 0,0.20317 0.15302,0.29617 0.31368,0.29617 0.24398,0 0.47265,-0.20325 0.47265,-0.54056 0,-0.41442 -0.39699,-0.72657 -0.99715,-0.72657 -1.13996,0 -2.26206,1.20737 -2.26206,2.39876 0,0.7598 0.48879,1.42661 1.36778,1.42661 1.20796,0 1.91693,-0.89531 1.91693,-0.99621 0,-0.0505 -0.0501,-0.11026 -0.10201,-0.11026 -0.0416,0 -0.0587,0.0173 -0.10966,0.085 -0.66646,0.83546 -1.5871,0.83546 -1.68911,0.83546 -0.5313,0 -0.75997,-0.41305 -0.75997,-0.92047 0,-0.34666 0.16916,-1.16486 0.45564,-1.68817 0.26352,-0.48217 0.72682,-0.84482 1.19181,-0.84482 0.28648,0 0.60781,0.1089 0.72597,0.3374"
           style="fill:#000000;fill-opacity:1;fill-rule:nonzero;stroke:none;stroke-width:0.08500815"
           id="path110-9"
           inkscape:connector-curvature="0" />
        <path
           d="m 340.45828,104.91632 c 0,-0.65882 -0.0927,-1.68155 -0.55596,-2.63526 -0.5075,-1.03871 -1.23261,-1.58727 -1.31762,-1.58727 -0.051,0 -0.085,0.0332 -0.085,0.0836 0,0.0252 0,0.0425 0.16066,0.19526 0.82713,0.83546 1.30913,2.17834 1.30913,3.94362 0,1.44378 -0.31283,2.93014 -1.36013,3.99402 -0.10966,0.10099 -0.10966,0.11825 -0.10966,0.14349 0,0.0504 0.034,0.0836 0.085,0.0836 0.085,0 0.84413,-0.5738 1.34228,-1.64567 0.43099,-0.92982 0.5313,-1.86618 0.5313,-2.57549"
           style="fill:#000000;fill-opacity:1;fill-rule:nonzero;stroke:none;stroke-width:0.08500815"
           id="path112-6"
           inkscape:connector-curvature="0" />
      </g>
      <g
         id="g5908"
         transform="translate(-135.18296,135.5283)">
        <g
           id="g5535"
           transform="translate(-0.20605151)">
          <path
             style="fill:none;stroke:#000000;stroke-width:1;stroke-linecap:round;stroke-linejoin:miter;stroke-miterlimit:4;stroke-dasharray:none;stroke-opacity:1"
             d="m 294.02966,141.85187 h 10.14021"
             id="path900-6-9-3-33-0"
             inkscape:connector-curvature="0" />
          <path
             style="fill:none;stroke:#000000;stroke-width:1;stroke-linecap:round;stroke-linejoin:miter;stroke-miterlimit:4;stroke-dasharray:none;stroke-opacity:1"
             d="M 310.68478,158.11085 V 147.97059"
             id="path900-6-9-3-5-9"
             inkscape:connector-curvature="0" />
          <path
             style="fill:none;stroke:#000000;stroke-width:1;stroke-linecap:round;stroke-linejoin:miter;stroke-miterlimit:4;stroke-dasharray:none;stroke-opacity:1"
             d="M 310.68478,135.06001 V 124.91978"
             id="path900-6-9-3-33"
             inkscape:connector-curvature="0" />
          <path
             style="fill:none;stroke:#000000;stroke-width:1;stroke-linecap:round;stroke-linejoin:miter;stroke-miterlimit:4;stroke-dasharray:none;stroke-opacity:1"
             d="m 316.78397,141.85187 h 10.14021"
             id="path900-6-9-3-33-0-5"
             inkscape:connector-curvature="0" />
          <rect
             y="136.16489"
             x="304.95609"
             height="11.373376"
             width="11.373375"
             id="rect815-7-9-7-8"
             style="opacity:1;fill:#47bb7e;fill-opacity:1;fill-rule:nonzero;stroke:#009647;stroke-width:5;stroke-linecap:round;stroke-linejoin:round;stroke-miterlimit:4;stroke-dasharray:none;stroke-dashoffset:0;stroke-opacity:1;paint-order:markers stroke fill" />
        </g>
        <g
           id="g5528"
           transform="translate(-0.46921779,-0.52918437)">
          <path
             style="fill:none;stroke:#000000;stroke-width:1;stroke-linecap:round;stroke-linejoin:miter;stroke-miterlimit:4;stroke-dasharray:none;stroke-opacity:1"
             d="m 257.68718,142.38105 h 10.14021"
             id="path900-6-9-3-33-0-5-0"
             inkscape:connector-curvature="0" />
          <path
             style="fill:none;stroke:#000000;stroke-width:1;stroke-linecap:round;stroke-linejoin:miter;stroke-miterlimit:4;stroke-dasharray:none;stroke-opacity:1"
             d="M 267.82739,142.38105 H 277.9676"
             id="path900-6-9-3-33-0-5-4"
             inkscape:connector-curvature="0" />
          <circle
             r="2.5925095"
             cy="142.43767"
             cx="267.86938"
             id="path860-6-0"
             style="opacity:1;fill:#d7263d;fill-opacity:1;fill-rule:nonzero;stroke:#000000;stroke-width:0.90232396;stroke-linecap:round;stroke-linejoin:round;stroke-miterlimit:4;stroke-dasharray:none;stroke-dashoffset:0;stroke-opacity:0;paint-order:markers stroke fill" />
        </g>
        <path
           d="m 277.9769,136.83583 c -0.13516,0 -0.25332,0 -0.37148,0.11825 -0.13517,0.12615 -0.15302,0.27092 -0.15302,0.3294 0,0.20317 0.15302,0.29617 0.31368,0.29617 0.24398,0 0.47265,-0.20325 0.47265,-0.54057 0,-0.41441 -0.39699,-0.72656 -0.99715,-0.72656 -1.13996,0 -2.26207,1.20737 -2.26207,2.39876 0,0.7598 0.4888,1.42661 1.36779,1.42661 1.20796,0 1.91693,-0.89531 1.91693,-0.99621 0,-0.0505 -0.0502,-0.11026 -0.10201,-0.11026 -0.0417,0 -0.0587,0.0173 -0.10966,0.085 -0.66646,0.83546 -1.5871,0.83546 -1.68911,0.83546 -0.5313,0 -0.75998,-0.41306 -0.75998,-0.92047 0,-0.34666 0.16917,-1.16487 0.45565,-1.68818 0.26352,-0.48216 0.72682,-0.84481 1.19181,-0.84481 0.28648,0 0.60781,0.1089 0.72597,0.3374"
           style="fill:#808080;fill-opacity:1;fill-rule:nonzero;stroke:none;stroke-width:0.08500815"
           id="path76-9-4"
           inkscape:connector-curvature="0" />
        <g
           id="g5834"
           transform="translate(-1.0583333,0.81185113)">
          <path
             inkscape:connector-curvature="0"
             id="path70-3-3"
             style="fill:#808080;fill-opacity:1;fill-rule:nonzero;stroke:none;stroke-width:0.08500815"
             d="m 258.0961,135.45348 c -0.23632,0.009 -0.40464,0.19391 -0.40464,0.37982 0,0.11825 0.0757,0.24576 0.26183,0.24576 0.18532,0 0.38764,-0.14341 0.38764,-0.47282 0,-0.3799 -0.36299,-0.72656 -1.00395,-0.72656 -1.11616,0 -1.42814,0.86071 -1.42814,1.23262 0,0.65881 0.62566,0.78496 0.86964,0.83673 0.44034,0.0837 0.87813,0.17674 0.87813,0.64156 0,0.21915 -0.19382,0.92846 -1.20712,0.92846 -0.11816,0 -0.76762,0 -0.96314,-0.44757 0.32133,0.0425 0.533,-0.21124 0.533,-0.44765 0,-0.19391 -0.13601,-0.2949 -0.31283,-0.2949 -0.22017,0 -0.47264,0.17665 -0.47264,0.55655 0,0.48217 0.48114,0.81957 1.20796,0.81957 1.36779,0 1.69677,-1.02146 1.69677,-1.40136 0,-0.30416 -0.16067,-0.51532 -0.26098,-0.61759 -0.22867,-0.23649 -0.47434,-0.27763 -0.84498,-0.35465 -0.30433,-0.0664 -0.64181,-0.12624 -0.64181,-0.50605 0,-0.2444 0.20232,-0.75981 0.94614,-0.75981 0.21082,0 0.63161,0.0585 0.75912,0.38789" />
          <path
             inkscape:connector-curvature="0"
             id="path72-17-3"
             style="fill:#808080;fill-opacity:1;fill-rule:nonzero;stroke:none;stroke-width:0.08500815"
             d="m 260.65995,135.91967 c 0.007,-0.012 0.0238,-0.0903 0.0238,-0.0956 0,-0.0305 -0.0238,-0.0836 -0.0952,-0.0836 -0.11986,0 -0.61546,0.0478 -0.76507,0.0598 -0.0485,0.005 -0.13176,0.0119 -0.13176,0.13678 0,0.0837 0.0833,0.0837 0.15556,0.0837 0.28648,0 0.28648,0.0425 0.28648,0.0903 0,0.0411 -0.0119,0.077 -0.0238,0.13015 l -0.84158,3.38306 c -0.0306,0.10763 -0.0306,0.11953 -0.0306,0.13151 0,0.0904 0.0714,0.19127 0.20317,0.19127 0.16152,0 0.23887,-0.11952 0.27458,-0.25103 0.0119,-0.0239 0.26947,-1.07586 0.29328,-1.15959 0.42419,0.0425 0.76507,0.17936 0.76507,0.49015 0,0.0305 0,0.0598 -0.0119,0.11952 -0.0238,0.0904 -0.0238,0.11953 -0.0238,0.186 0,0.42368 0.34683,0.61495 0.63416,0.61495 0.5789,0 0.75827,-0.90848 0.75827,-0.91384 0,-0.0784 -0.0774,-0.0784 -0.0961,-0.0784 -0.0833,0 -0.0884,0.0306 -0.11901,0.14349 -0.0723,0.25766 -0.23292,0.68134 -0.5262,0.68134 -0.16067,0 -0.20827,-0.14876 -0.20827,-0.31079 0,-0.1009 0,-0.11289 0.0357,-0.26829 0.005,-0.0186 0.0289,-0.11952 0.0289,-0.18599 0,-0.5313 -0.71747,-0.61495 -0.96825,-0.63357 0.17427,-0.10753 0.39444,-0.30416 0.49645,-0.39444 0.30433,-0.2869 0.60356,-0.56717 0.93849,-0.56717 0.0714,0 0.14961,0.0173 0.19722,0.077 -0.25758,0.0425 -0.31028,0.24575 -0.31028,0.33467 0,0.13151 0.10031,0.22187 0.23887,0.22187 0.16067,0 0.34003,-0.1315 0.34003,-0.38253 0,-0.1979 -0.14366,-0.41841 -0.45989,-0.41841 -0.34088,0 -0.65201,0.2444 -0.95634,0.52594 -0.25078,0.23913 -0.44884,0.42377 -0.69282,0.52603 l 0.59081,-2.38422" />
        </g>
        <path
           d="m 297.3293,136.83583 c -0.13516,0 -0.25332,0 -0.37148,0.11825 -0.13517,0.12615 -0.15302,0.27092 -0.15302,0.3294 0,0.20317 0.15302,0.29617 0.31368,0.29617 0.24398,0 0.47265,-0.20325 0.47265,-0.54057 0,-0.41441 -0.39699,-0.72656 -0.99715,-0.72656 -1.13996,0 -2.26207,1.20737 -2.26207,2.39876 0,0.7598 0.4888,1.42661 1.36779,1.42661 1.20796,0 1.91693,-0.89531 1.91693,-0.99621 0,-0.0505 -0.0502,-0.11026 -0.10201,-0.11026 -0.0417,0 -0.0587,0.0173 -0.10966,0.085 -0.66646,0.83546 -1.5871,0.83546 -1.68911,0.83546 -0.5313,0 -0.75998,-0.41306 -0.75998,-0.92047 0,-0.34666 0.16917,-1.16487 0.45565,-1.68818 0.26352,-0.48216 0.72682,-0.84481 1.19181,-0.84481 0.28648,0 0.60781,0.1089 0.72597,0.3374"
           style="fill:#808080;fill-opacity:1;fill-rule:nonzero;stroke:none;stroke-width:0.08500815"
           id="path76-9-4-8"
           inkscape:connector-curvature="0" />
        <g
           id="g5842"
           transform="translate(-0.93539)">
          <path
             inkscape:connector-curvature="0"
             id="path98-7-6"
             style="fill:#808080;fill-opacity:1;fill-rule:nonzero;stroke:none;stroke-width:0.08500815"
             d="m 318.28771,124.93938 c 0.0331,-0.11816 0.0331,-0.1355 0.0331,-0.1939 0,-0.15276 -0.11816,-0.22851 -0.24397,-0.22851 -0.085,0 -0.21933,0.0505 -0.29668,0.17674 -0.0153,0.0425 -0.0833,0.30415 -0.11816,0.45691 -0.0587,0.21916 -0.11817,0.44757 -0.16832,0.67471 l -0.37999,1.52089 c -0.0331,0.12615 -0.39698,0.71721 -0.95379,0.71721 -0.43184,0 -0.52365,-0.37191 -0.52365,-0.68406 0,-0.38781 0.14367,-0.91248 0.43099,-1.65494 0.13347,-0.34675 0.16832,-0.43966 0.16832,-0.6084 0,-0.37982 -0.27118,-0.69197 -0.69197,-0.69197 -0.80247,0 -1.1153,1.22463 -1.1153,1.30037 0,0.085 0.085,0.085 0.10201,0.085 0.0833,0 0.0926,-0.0173 0.13431,-0.15276 0.22782,-0.79296 0.5653,-1.04671 0.85263,-1.04671 0.0672,0 0.21082,0 0.21082,0.26965 0,0.21116 -0.0833,0.43039 -0.14366,0.59106 -0.33664,0.89522 -0.4888,1.37739 -0.4888,1.77327 0,0.75173 0.5313,1.00548 1.02945,1.00548 0.32983,0 0.61631,-0.1435 0.85348,-0.3799 -0.10966,0.4383 -0.21167,0.85271 -0.54915,1.30036 -0.21932,0.28691 -0.54065,0.53131 -0.92829,0.53131 -0.11816,0 -0.49815,-0.0253 -0.64181,-0.35466 0.13431,0 0.24482,0 0.36298,-0.10099 0.085,-0.0757 0.16832,-0.18591 0.16832,-0.34666 0,-0.26166 -0.22782,-0.29481 -0.31198,-0.29481 -0.19382,0 -0.47265,0.13542 -0.47265,0.54856 0,0.42232 0.37149,0.73447 0.89514,0.73447 0.86963,0 1.73842,-0.76771 1.97474,-1.72269 l 0.81183,-3.22504" />
          <path
             inkscape:connector-curvature="0"
             id="path100-53-0"
             style="fill:#808080;fill-opacity:1;fill-rule:nonzero;stroke:none;stroke-width:0.08500815"
             d="m 320.21909,125.46405 c 0.007,-0.012 0.0238,-0.0903 0.0238,-0.0956 0,-0.0305 -0.0238,-0.0836 -0.0952,-0.0836 -0.11986,0 -0.61546,0.0478 -0.76507,0.0598 -0.0485,0.005 -0.13176,0.0119 -0.13176,0.13678 0,0.0837 0.0833,0.0837 0.15556,0.0837 0.28648,0 0.28648,0.0425 0.28648,0.0903 0,0.0411 -0.0119,0.077 -0.0238,0.13015 l -0.84158,3.38306 c -0.0306,0.10763 -0.0306,0.11953 -0.0306,0.13151 0,0.0904 0.0714,0.19127 0.20317,0.19127 0.16152,0 0.23888,-0.11952 0.27458,-0.25103 0.0119,-0.0239 0.26948,-1.07586 0.29328,-1.15959 0.42419,0.0425 0.76507,0.17936 0.76507,0.49015 0,0.0305 0,0.0598 -0.0119,0.11952 -0.0238,0.0904 -0.0238,0.11953 -0.0238,0.186 0,0.42368 0.34683,0.61495 0.63416,0.61495 0.57891,0 0.75827,-0.90848 0.75827,-0.91384 0,-0.0784 -0.0773,-0.0784 -0.0961,-0.0784 -0.0833,0 -0.0884,0.0306 -0.11901,0.14349 -0.0723,0.25766 -0.23292,0.68134 -0.5262,0.68134 -0.16066,0 -0.20827,-0.14876 -0.20827,-0.31079 0,-0.1009 0,-0.11289 0.0357,-0.26829 0.005,-0.0186 0.0289,-0.11952 0.0289,-0.18599 0,-0.5313 -0.71747,-0.61495 -0.96824,-0.63357 0.17426,-0.10753 0.39443,-0.30416 0.49644,-0.39444 0.30433,-0.2869 0.60356,-0.56717 0.93849,-0.56717 0.0714,0 0.14962,0.0173 0.19722,0.077 -0.25757,0.0425 -0.31028,0.24575 -0.31028,0.33467 0,0.13151 0.10031,0.22187 0.23888,0.22187 0.16066,0 0.34003,-0.1315 0.34003,-0.38253 0,-0.1979 -0.14367,-0.41841 -0.4599,-0.41841 -0.34088,0 -0.65201,0.2444 -0.95634,0.52594 -0.25077,0.23913 -0.44884,0.42377 -0.69281,0.52603 l 0.5908,-2.38422" />
        </g>
        <g
           id="g5838">
          <path
             inkscape:connector-curvature="0"
             id="path104-3-4"
             style="fill:#808080;fill-opacity:1;fill-rule:nonzero;stroke:none;stroke-width:0.08500815"
             d="m 315.77026,155.67951 c 0.0519,-0.21915 0.24567,-0.99621 0.83733,-0.99621 0.0425,0 0.24397,0 0.42164,0.1089 -0.23632,0.0425 -0.40464,0.25375 -0.40464,0.45692 0,0.13422 0.0918,0.29489 0.31963,0.29489 0.18617,0 0.45564,-0.1514 0.45564,-0.4888 0,-0.43966 -0.49814,-0.55782 -0.78462,-0.55782 -0.4905,0 -0.78463,0.44757 -0.88579,0.64156 -0.21167,-0.55655 -0.66816,-0.64156 -0.91298,-0.64156 -0.87729,0 -1.36013,1.08912 -1.36013,1.30037 0,0.085 0.085,0.085 0.10286,0.085 0.0672,0 0.0927,-0.0173 0.10881,-0.093 0.28817,-0.89522 0.84498,-1.10647 1.13146,-1.10647 0.16066,0 0.45734,0.0757 0.45734,0.56582 0,0.26174 -0.14366,0.82755 -0.45734,2.00967 -0.13432,0.52331 -0.43015,0.87797 -0.80248,0.87797 -0.0502,0 -0.24398,0 -0.42249,-0.11026 0.21167,-0.0411 0.39784,-0.21915 0.39784,-0.45556 0,-0.2285 -0.18617,-0.29489 -0.31283,-0.29489 -0.25333,1e-5 -0.46415,0.21916 -0.46415,0.48881 0,0.38917 0.42164,0.55791 0.79398,0.55791 0.55765,0 0.86028,-0.59106 0.88748,-0.64156 0.10031,0.31215 0.40464,0.64156 0.91129,0.64156 0.86963,0 1.35078,-1.08921 1.35078,-1.30037 0,-0.085 -0.0757,-0.085 -0.10116,-0.085 -0.0757,0 -0.0935,0.0345 -0.11051,0.093 -0.27713,0.90321 -0.85263,1.10638 -1.12211,1.10638 -0.32983,0 -0.46499,-0.26965 -0.46499,-0.55782 0,-0.18464 0.0502,-0.37064 0.14366,-0.74255 l 0.28648,-1.15688" />
          <path
             inkscape:connector-curvature="0"
             id="path106-1-8"
             style="fill:#808080;fill-opacity:1;fill-rule:nonzero;stroke:none;stroke-width:0.08500815"
             d="m 319.58117,155.53738 c 0.007,-0.012 0.0238,-0.0903 0.0238,-0.0956 0,-0.0305 -0.0238,-0.0836 -0.0952,-0.0836 -0.11987,0 -0.61546,0.0478 -0.76508,0.0598 -0.0485,0.005 -0.13176,0.0119 -0.13176,0.13678 0,0.0837 0.0833,0.0837 0.15557,0.0837 0.28647,0 0.28647,0.0425 0.28647,0.0903 0,0.0411 -0.0119,0.077 -0.0238,0.13015 l -0.84158,3.38306 c -0.0306,0.10763 -0.0306,0.11953 -0.0306,0.13151 0,0.0904 0.0714,0.19127 0.20317,0.19127 0.16151,0 0.23887,-0.11952 0.27457,-0.25103 0.0119,-0.0239 0.26948,-1.07586 0.29328,-1.15959 0.42419,0.0425 0.76507,0.17936 0.76507,0.49015 0,0.0305 0,0.0598 -0.0119,0.11952 -0.0238,0.0904 -0.0238,0.11953 -0.0238,0.186 0,0.42368 0.34683,0.61495 0.63416,0.61495 0.57891,0 0.75827,-0.90848 0.75827,-0.91384 0,-0.0784 -0.0774,-0.0784 -0.096,-0.0784 -0.0833,0 -0.0884,0.0306 -0.11902,0.14349 -0.0722,0.25766 -0.23292,0.68134 -0.5262,0.68134 -0.16066,0 -0.20827,-0.14876 -0.20827,-0.31079 0,-0.1009 0,-0.11289 0.0357,-0.26829 0.005,-0.0186 0.0289,-0.11952 0.0289,-0.18599 0,-0.5313 -0.71747,-0.61495 -0.96824,-0.63357 0.17426,-0.10753 0.39444,-0.30416 0.49645,-0.39444 0.30432,-0.2869 0.60355,-0.56717 0.93849,-0.56717 0.0714,0 0.14961,0.0173 0.19721,0.077 -0.25757,0.0425 -0.31028,0.24575 -0.31028,0.33467 0,0.13151 0.10031,0.22187 0.23888,0.22187 0.16066,0 0.34003,-0.1315 0.34003,-0.38253 0,-0.1979 -0.14366,-0.41841 -0.45989,-0.41841 -0.34089,0 -0.65202,0.2444 -0.95635,0.52594 -0.25077,0.23913 -0.44884,0.42377 -0.69281,0.52603 l 0.5908,-2.38422" />
        </g>
        <g
           id="g10-88"
           transform="matrix(0.84129297,0,0,-0.84129297,322.67966,140.23584)"
           style="fill:#009bb4;fill-opacity:1">
          <g
             id="g12-97"
             transform="scale(0.1)"
             style="fill:#009bb4;fill-opacity:1">
            <path
               d="m 33.8438,52.1563 c -2.7813,-0.1094 -4.7657,-2.2813 -4.7657,-4.4688 0,-1.3906 0.8907,-2.8906 3.0782,-2.8906 2.1875,0 4.5625,1.6875 4.5625,5.5625 0,4.4687 -4.2657,8.5469 -11.8125,8.5469 -13.125,0 -16.79692,-10.125 -16.79692,-14.5 0,-7.75 7.35942,-9.2344 10.23442,-9.8438 5.1718,-0.9844 10.3281,-2.0781 10.3281,-7.5469 0,-2.5781 -2.2813,-10.9218 -14.2031,-10.9218 -1.3907,0 -9.0313,0 -11.32817,5.2656 3.78125,-0.5 6.26562,2.4844 6.26562,5.2656 0,2.2813 -1.59375,3.4688 -3.67187,3.4688 -2.59375,0 -5.562505,-2.0782 -5.562505,-6.5469 0,-5.6719 5.656255,-9.6406 14.203125,-9.6406 16.0938,0 19.9688,12.0156 19.9688,16.4843 0,3.5782 -1.8907,6.0625 -3.0782,7.2657 -2.6875,2.7812 -5.5781,3.2656 -9.9375,4.1718 -3.5781,0.7813 -7.5468,1.4844 -7.5468,5.9532 0,2.875 2.375,8.9375 11.125,8.9375 2.4843,0 7.4375,-0.6875 8.9375,-4.5625"
               style="fill:#808080;fill-opacity:1;fill-rule:nonzero;stroke:none"
               id="path14-76"
               inkscape:connector-curvature="0" />
            <path
               d="m 64,46.6719 c 0.0781,0.1406 0.2813,1.0625 0.2813,1.125 0,0.3594 -0.2813,0.9844 -1.125,0.9844 -1.4063,0 -7.2344,-0.5625 -9,-0.7032 -0.5625,-0.0625 -1.5469,-0.1406 -1.5469,-1.6093 0,-0.9844 0.9844,-0.9844 1.8281,-0.9844 3.375,0 3.375,-0.5 3.375,-1.0625 0,-0.4844 -0.1406,-0.9063 -0.2812,-1.5313 L 47.625,3.09375 C 47.2656,1.82813 47.2656,1.6875 47.2656,1.54688 c 0,-1.062505 0.8438,-2.250005 2.3907,-2.250005 1.9062,0 2.8125,1.40625 3.2343,2.953125 0.1407,0.28125 3.1719,12.6563 3.4532,13.6406 4.9843,-0.5 9,-2.1093 9,-5.7656 0,-0.35937 0,-0.70312 -0.1407,-1.40625 -0.2812,-1.0625 -0.2812,-1.40625 -0.2812,-2.1875 0,-4.98437 4.0781,-7.234375 7.4531,-7.234375 6.8125,0 8.9219,10.687505 8.9219,10.750025 0,0.9219 -0.9063,0.9219 -1.125,0.9219 -0.9844,0 -1.0469,-0.3594 -1.4063,-1.68755 C 77.9219,6.25 76.0313,1.26563 72.5781,1.26563 c -1.8906,0 -2.4531,1.75 -2.4531,3.65625 0,1.1875 0,1.32812 0.4219,3.15625 0.0625,0.21875 0.3437,1.40625 0.3437,2.18747 0,6.25 -8.4375,7.2344 -11.3906,7.4532 2.0469,1.2656 4.6406,3.5781 5.8438,4.6406 3.5781,3.375 7.0937,6.6719 11.0312,6.6719 0.8438,0 1.7656,-0.2032 2.3281,-0.9063 -3.0312,-0.5 -3.6562,-2.8906 -3.6562,-3.9375 0,-1.5469 1.1875,-2.6094 2.8125,-2.6094 1.8906,0 4,1.5469 4,4.5 0,2.3282 -1.6875,4.9219 -5.4063,4.9219 -4.0156,0 -7.6718,-2.875 -11.25,-6.1875 C 62.25,22 59.9219,19.8281 57.0469,18.625 L 64,46.6719"
               style="fill:#808080;fill-opacity:1;fill-rule:nonzero;stroke:none"
               id="path16-43"
               inkscape:connector-curvature="0" />
            <path
               d="m 137.297,15.8906 c 1.125,0 2.812,0 2.812,1.6875 0,1.75 -1.609,1.75 -2.812,1.75 H 95.4063 c -1.125,0 -2.8125,0 -2.8125,-1.6875 0,-1.75 1.6093,-1.75 2.8125,-1.75 h 41.8907"
               style="fill:#808080;fill-opacity:1;fill-rule:nonzero;stroke:none"
               id="path18-0"
               inkscape:connector-curvature="0" />
            <path
               d="m 170.547,44.7031 c 0,1.9063 -0.141,1.9688 -2.109,1.9688 -4.5,-4.4219 -10.891,-4.4844 -13.782,-4.4844 v -2.5312 c 1.688,0 6.328,0 10.203,1.9687 V 5.76563 c 0,-2.32813 0,-3.23438 -7.031,-3.23438 h -2.672 V 0 c 1.266,0.0625 9.907,0.28125 12.516,0.28125 2.172,0 11.031,-0.21875 12.578,-0.28125 v 2.53125 h -2.672 c -7.031,0 -7.031,0.90625 -7.031,3.23438 V 44.7031"
               style="fill:#808080;fill-opacity:1;fill-rule:nonzero;stroke:none"
               id="path20-30"
               inkscape:connector-curvature="0" />
          </g>
        </g>
      </g>
    </g>
  </g>
</svg>
