<?xml version="1.0" encoding="UTF-8" standalone="no"?>
<!-- Created with Inkscape (http://www.inkscape.org/) -->

<svg
   xmlns:dc="http://purl.org/dc/elements/1.1/"
   xmlns:cc="http://creativecommons.org/ns#"
   xmlns:rdf="http://www.w3.org/1999/02/22-rdf-syntax-ns#"
   xmlns:svg="http://www.w3.org/2000/svg"
   xmlns="http://www.w3.org/2000/svg"
   xmlns:sodipodi="http://sodipodi.sourceforge.net/DTD/sodipodi-0.dtd"
   xmlns:inkscape="http://www.inkscape.org/namespaces/inkscape"
   width="123mm"
   height="51mm"
   viewBox="0 0 123 51"
   version="1.1"
   id="svg8"
   inkscape:version="0.92.3 (2405546, 2018-03-11)"
   sodipodi:docname="model_ge.svg">
  <defs
     id="defs2">
    <marker
       inkscape:stockid="Arrow1Mend"
       orient="auto"
       refY="0"
       refX="0"
       id="marker1237"
       style="overflow:visible"
       inkscape:isstock="true"
       inkscape:collect="always">
      <path
         id="path1235"
         d="M 0,0 5,-5 -12.5,0 5,5 Z"
         style="fill:#000000;fill-opacity:1;fill-rule:evenodd;stroke:#000000;stroke-width:1.00000003pt;stroke-opacity:1"
         transform="matrix(-0.4,0,0,-0.4,-4,0)"
         inkscape:connector-curvature="0" />
    </marker>
    <marker
       inkscape:stockid="Arrow1Mend"
       orient="auto"
       refY="0"
       refX="0"
       id="marker1237-5"
       style="overflow:visible"
       inkscape:isstock="true">
      <path
         id="path1235-6"
         d="M 0,0 5,-5 -12.5,0 5,5 Z"
         style="fill:#242325;fill-opacity:1;fill-rule:evenodd;stroke:#242325;stroke-width:1.00000003pt;stroke-opacity:1"
         transform="matrix(-0.4,0,0,-0.4,-4,0)"
         inkscape:connector-curvature="0" />
    </marker>
    <marker
       inkscape:isstock="true"
       style="overflow:visible"
       id="marker2182"
       refX="0"
       refY="0"
       orient="auto"
       inkscape:stockid="Arrow1Mend">
      <path
         inkscape:connector-curvature="0"
         transform="matrix(-0.4,0,0,-0.4,-4,0)"
         style="fill:#000000;fill-opacity:1;fill-rule:evenodd;stroke:#000000;stroke-width:1.00000003pt;stroke-opacity:1"
         d="M 0,0 5,-5 -12.5,0 5,5 Z"
         id="path2180" />
    </marker>
    <marker
       inkscape:isstock="true"
       style="overflow:visible"
       id="marker2182-7"
       refX="0"
       refY="0"
       orient="auto"
       inkscape:stockid="Arrow1Mend">
      <path
         inkscape:connector-curvature="0"
         transform="matrix(-0.4,0,0,-0.4,-4,0)"
         style="fill:#000000;fill-opacity:1;fill-rule:evenodd;stroke:#000000;stroke-width:1.00000003pt;stroke-opacity:1"
         d="M 0,0 5,-5 -12.5,0 5,5 Z"
         id="path2180-0" />
    </marker>
  </defs>
  <sodipodi:namedview
     id="base"
     pagecolor="#ffffff"
     bordercolor="#666666"
     borderopacity="1.0"
     inkscape:pageopacity="0.0"
     inkscape:pageshadow="2"
     inkscape:zoom="1.4"
     inkscape:cx="374.28571"
     inkscape:cy="54.262818"
     inkscape:document-units="mm"
     inkscape:current-layer="layer1"
     showgrid="false"
     inkscape:window-width="1920"
     inkscape:window-height="1025"
     inkscape:window-x="0"
     inkscape:window-y="1227"
     inkscape:window-maximized="1" />
  <metadata
     id="metadata5">
    <rdf:RDF>
      <cc:Work
         rdf:about="">
        <dc:format>image/svg+xml</dc:format>
        <dc:type
           rdf:resource="http://purl.org/dc/dcmitype/StillImage" />
        <dc:title></dc:title>
      </cc:Work>
    </rdf:RDF>
  </metadata>
  <g
     inkscape:label="Layer 1"
     inkscape:groupmode="layer"
     id="layer1"
     transform="translate(0,-246)">
    <g
       id="g6476"
       transform="translate(-7.970154,3.9200263)">
      <g
         transform="translate(-7.1815476,26.080357)"
         id="g837" />
      <g
         transform="translate(-24.114886,27.214284)"
         id="g833" />
      <g
         transform="matrix(0.81566708,0,0,-0.81566708,42.369124,270.28476)"
         id="g10">
        <g
           transform="scale(0.1)"
           id="g12" />
      </g>
      <g
         transform="matrix(0.78242309,0,0,-0.78242309,90.095459,270.17199)"
         id="g10-7">
        <g
           transform="scale(0.1)"
           id="g12-5">
          <g
             id="g898"
             inkscape:export-xdpi="220.13991"
             inkscape:export-ydpi="220.13991">
            <circle
               r="7.4840302"
               cy="241.4375"
               cx="52.538692"
               id="path815-5-1-2"
               style="opacity:1;fill:none;fill-opacity:1;fill-rule:nonzero;stroke:#808080;stroke-width:1.58402157;stroke-linecap:round;stroke-linejoin:round;stroke-miterlimit:4;stroke-dasharray:none;stroke-dashoffset:0;stroke-opacity:1;paint-order:stroke markers fill"
               transform="matrix(12.780809,0,0,-12.780809,-1243.2788,3119.6885)" />
            <circle
               r="7.4840302"
               cy="240.30357"
               cx="118.11757"
               id="path815-5-1-2-6"
               style="opacity:1;fill:none;fill-opacity:1;fill-rule:nonzero;stroke:#808080;stroke-width:1.58402157;stroke-linecap:round;stroke-linejoin:round;stroke-miterlimit:4;stroke-dasharray:none;stroke-dashoffset:0;stroke-opacity:1;paint-order:stroke markers fill"
               transform="matrix(12.780809,0,0,-12.780809,-1459.7006,3105.196)" />
            <path
               d="M 12.8906,7.75 C 11.9063,3.875 11.7031,3.07813 3.85938,3.07813 c -1.6875,0 -2.6875,0 -2.6875,-1.98438 C 1.17188,0 2.0625,0 3.85938,0 H 39.3125 c 15.7031,0 27.4219,11.7188 27.4219,21.4531 0,7.1563 -5.7656,12.9219 -15.3906,14.0157 10.3281,1.875 20.75,9.2343 20.75,18.6718 0,7.3438 -6.5469,13.7032 -18.4688,13.7032 H 20.25 c -1.8906,0 -2.8906,0 -2.8906,-1.9844 0,-1.0938 0.9062,-1.0938 2.7812,-1.0938 0.2032,0 2.0938,0 3.7813,-0.2031 1.7812,-0.1875 2.6875,-0.2969 2.6875,-1.5781 0,-0.4063 -0.1094,-0.7031 -0.4063,-1.8906 z m 15,28.6094 L 34.0469,61 c 0.9062,3.4688 1.0937,3.7656 5.375,3.7656 h 12.8125 c 8.7344,0 10.8281,-5.8593 10.8281,-10.2343 0,-8.7344 -8.5469,-18.1719 -20.6719,-18.1719 z M 23.4219,3.07813 c -1.3906,0 -1.5938,0 -2.1875,0.09375 -0.9844,0.10937 -1.2813,0.20312 -1.2813,1 0,0.29687 0,0.5 0.4844,2.28125 L 27.2969,34.1719 H 46.0781 C 55.6094,34.1719 57.5,26.8281 57.5,22.5469 57.5,12.7188 48.6563,3.07813 36.9375,3.07813 H 23.4219"
               style="fill:#000000;fill-opacity:1;fill-rule:nonzero;stroke:none"
               id="path14"
               inkscape:connector-curvature="0"
               transform="matrix(1.0424885,0,0,1.0424885,-609.98117,-1.4412863)" />
            <path
               d="m 87.9844,60.2031 c 0.8906,3.5782 1.0937,4.5625 8.5469,4.5625 2.2812,0 3.1718,0 3.1718,1.9844 0,1.0938 -0.9843,1.0938 -2.6718,1.0938 h -13.125 c -2.5782,0 -2.6719,0 -3.8594,-1.8907 L 43.7813,9.34375 36.0313,65.5625 c -0.2969,2.2813 -0.5,2.2813 -3.0782,2.2813 H 19.3438 c -1.8907,0 -2.9844,0 -2.9844,-1.8907 0,-1.1875 0.9062,-1.1875 2.8906,-1.1875 1.2813,0 3.0781,-0.0937 4.2656,-0.2031 1.5938,-0.1875 2.1875,-0.4844 2.1875,-1.5781 0,-0.4063 -0.0937,-0.7031 -0.4062,-1.8906 L 12.6875,10.5313 C 11.6875,6.5625 10,3.375 1.95313,3.07813 1.46875,3.07813 0.171875,2.98438 0.171875,1.1875 0.171875,0.296875 0.765625,0 1.5625,0 4.73438,0 8.21875,0.296875 11.5,0.296875 14.875,0.296875 18.4531,0 21.7344,0 c 0.4844,0 1.7812,0 1.7812,1.98438 0,1.09375 -1.0937,1.09375 -1.7812,1.09375 -5.6719,0.09375 -6.7656,2.09375 -6.7656,4.375 0,0.6875 0.1093,1.1875 0.4062,2.28125 l 13.5,54.14062 h 0.1094 L 37.5156,2.28125 C 37.7188,1.09375 37.8281,0 39.0156,0 c 1.0938,0 1.6875,1.09375 2.1875,1.78125 l 40.125,62.89065 h 0.1094 L 67.2188,7.75 C 66.2344,3.875 66.0313,3.07813 58.1875,3.07813 c -1.6875,0 -2.7812,0 -2.7812,-1.89063 C 55.4063,0 56.5938,0 56.8906,0 59.6719,0 66.4375,0.296875 69.2188,0.296875 73.2813,0.296875 77.5625,0 81.625,0 c 0.5938,0 1.8906,0 1.8906,1.98438 0,1.09375 -0.8906,1.09375 -2.7812,1.09375 -3.6719,0 -6.4531,0 -6.4531,1.79687 0,0.39063 0,0.59375 0.5,2.375 l 13.2031,52.9531"
               style="fill:#000000;fill-opacity:1;fill-rule:nonzero;stroke:none"
               id="path14-3"
               inkscape:connector-curvature="0" />
          </g>
        </g>
      </g>
      <path
         sodipodi:nodetypes="cc"
         inkscape:connector-curvature="0"
         id="path1107"
         d="m 48.286456,257.21801 c 13.404907,-9.87175 24.464867,-12.23197 41.577384,0.28348"
         style="fill:none;stroke:#242325;stroke-width:1;stroke-linecap:round;stroke-linejoin:miter;stroke-miterlimit:4;stroke-dasharray:none;stroke-opacity:1;marker-end:url(#marker1237)" />
      <path
         sodipodi:nodetypes="cc"
         inkscape:connector-curvature="0"
         id="path1107-2"
         d="M 90.948757,277.68949 C 77.54385,287.56124 66.48389,289.92146 49.371374,277.40601"
         style="fill:none;stroke:#242325;stroke-width:1;stroke-linecap:round;stroke-linejoin:miter;stroke-miterlimit:4;stroke-dasharray:none;stroke-opacity:1;marker-end:url(#marker1237-5)" />
      <path
         sodipodi:nodetypes="cc"
         inkscape:connector-curvature="0"
         id="path2172"
         d="M 36.549049,271.65823 C -0.66777922,298.40374 0.34234158,229.84129 35.519115,261.50659"
         style="fill:none;stroke:#000000;stroke-width:1;stroke-linecap:round;stroke-linejoin:miter;stroke-miterlimit:4;stroke-dasharray:none;stroke-opacity:1;marker-end:url(#marker2182)" />
      <path
         sodipodi:nodetypes="cc"
         inkscape:connector-curvature="0"
         id="path2172-9"
         d="m 102.98948,263.28402 c 37.21682,-26.74551 36.2067,41.81694 1.02993,10.15164"
         style="fill:none;stroke:#000000;stroke-width:1;stroke-linecap:round;stroke-linejoin:miter;stroke-miterlimit:4;stroke-dasharray:none;stroke-opacity:1;marker-end:url(#marker2182-7)" />
      <g
         transform="matrix(0.35277777,0,0,-0.35277777,64.02995,246.39486)"
         id="g10-3">
        <g
           transform="scale(0.1)"
           id="g12-6">
          <path
             inkscape:connector-curvature="0"
             id="path14-0"
             style="fill:#000000;fill-opacity:1;fill-rule:nonzero;stroke:none"
             d="m 40.9063,67.8125 c 0,0.4063 -0.2969,1 -1,1 -1.0938,0 -5.0625,-3.9844 -6.75,-6.8594 -2.1875,5.3594 -6.0625,6.9532 -9.25,6.9532 -11.7188,0 -23.93755,-14.7032 -23.93755,-29.1094 0,-9.7344 5.85938,-15.8906 13.12505,-15.8906 4.2656,0 8.1406,2.3906 11.7187,5.9687 C 23.9063,26.3906 20.6406,12.9844 20.3438,12.0938 19.5469,9.3125 18.75,8.90625 13.1875,8.8125 c -1.2969,0 -2.2812,0 -2.2812,-1.98437 0,-0.10938 0,-1.09375 1.2812,-1.09375 3.1875,0 6.6563,0.29687 9.9375,0.29687 3.375,0 6.9531,-0.29687 10.2344,-0.29687 0.5,0 1.7812,0 1.7812,1.98437 0,1.09375 -0.9843,1.09375 -2.5781,1.09375 -4.7656,0 -4.7656,0.6875 -4.7656,1.5781 0,0.7032 0.2031,1.2969 0.3906,2.1875 z M 13.3906,26.0938 c -5.96872,0 -6.35935,7.6406 -6.35935,9.3437 0,4.7656 2.875,15.5938 4.56255,19.7656 3.0781,7.3438 8.25,11.5157 12.3125,11.5157 6.4687,0 7.8593,-8.0469 7.8593,-8.7344 0,-0.5938 -5.4687,-22.3594 -5.7656,-22.75 -1.4844,-2.7813 -7.0469,-9.1406 -12.6094,-9.1406" />
          <path
             inkscape:connector-curvature="0"
             id="path16"
             style="fill:#000000;fill-opacity:1;fill-rule:nonzero;stroke:none"
             d="m 76.875,1.15625 c 0,0.29688 0,0.5 -1.6875,2.1875 C 62.7813,15.8594 59.5938,34.6406 59.5938,49.8281 c 0,17.2969 3.7812,34.5782 16,47 1.2812,1.1875 1.2812,1.3907 1.2812,1.6875 0,0.6875 -0.3906,0.9844 -0.9844,0.9844 -1,0 -9.9375,-6.75 -15.7968,-19.375 -5.0625,-10.9219 -6.2657,-21.9531 -6.2657,-30.2969 0,-7.7343 1.0938,-19.7656 6.5625,-30.9843 5.9532,-12.2188 14.5,-18.671925 15.5,-18.671925 0.5938,0 0.9844,0.296875 0.9844,0.984375" />
          <path
             inkscape:connector-curvature="0"
             id="path18"
             style="fill:#000000;fill-opacity:1;fill-rule:nonzero;stroke:none"
             d="m 173.984,85.2031 c 0.891,3.5782 1.094,4.5625 8.547,4.5625 2.282,0 3.172,0 3.172,1.9844 0,1.0938 -0.984,1.0938 -2.672,1.0938 h -13.125 c -2.578,0 -2.672,0 -3.859,-1.8907 l -36.266,-56.6093 -7.75,56.2187 c -0.297,2.2813 -0.5,2.2813 -3.078,2.2813 h -13.609 c -1.891,0 -2.985,0 -2.985,-1.8907 0,-1.1875 0.907,-1.1875 2.891,-1.1875 1.281,0 3.078,-0.0937 4.266,-0.2031 1.593,-0.1875 2.187,-0.4844 2.187,-1.5781 0,-0.4063 -0.094,-0.7031 -0.406,-1.8906 L 98.6875,35.5313 c -1,-3.9688 -2.6875,-7.1563 -10.7344,-7.4532 -0.4843,0 -1.7812,-0.0937 -1.7812,-1.8906 0,-0.8906 0.5937,-1.1875 1.3906,-1.1875 3.1719,0 6.6563,0.2969 9.9375,0.2969 3.375,0 6.953,-0.2969 10.234,-0.2969 0.485,0 1.782,0 1.782,1.9844 0,1.0937 -1.094,1.0937 -1.782,1.0937 -5.671,0.0938 -6.765,2.0938 -6.765,4.375 0,0.6875 0.109,1.1875 0.406,2.2813 l 13.5,54.1406 h 0.109 l 8.532,-61.5937 c 0.203,-1.1875 0.312,-2.2813 1.5,-2.2813 1.093,0 1.687,1.0938 2.187,1.7813 l 40.125,62.8906 h 0.11 L 153.219,32.75 c -0.985,-3.875 -1.188,-4.6719 -9.031,-4.6719 -1.688,0 -2.782,0 -2.782,-1.8906 C 141.406,25 142.594,25 142.891,25 c 2.781,0 9.547,0.2969 12.328,0.2969 4.062,0 8.344,-0.2969 12.406,-0.2969 0.594,0 1.891,0 1.891,1.9844 0,1.0937 -0.891,1.0937 -2.782,1.0937 -3.671,0 -6.453,0 -6.453,1.7969 0,0.3906 0,0.5938 0.5,2.375 l 13.203,52.9531" />
          <path
             inkscape:connector-curvature="0"
             id="path20"
             style="fill:#000000;fill-opacity:1;fill-rule:nonzero;stroke:none"
             d="m 205.797,95.9219 c 0,1.7969 0,3.5781 -1.984,3.5781 -1.985,0 -1.985,-1.7812 -1.985,-3.5781 V 3.73438 c 0,-1.78125 0,-3.562505 1.985,-3.562505 1.984,0 1.984,1.781255 1.984,3.562505 V 95.9219" />
          <path
             inkscape:connector-curvature="0"
             id="path22"
             style="fill:#000000;fill-opacity:1;fill-rule:nonzero;stroke:none"
             d="m 233.891,32.75 c -0.985,-3.875 -1.188,-4.6719 -9.032,-4.6719 -1.687,0 -2.687,0 -2.687,-1.9843 C 222.172,25 223.063,25 224.859,25 h 35.454 c 15.703,0 27.421,11.7188 27.421,21.4531 0,7.1563 -5.765,12.9219 -15.39,14.0157 10.328,1.875 20.75,9.2343 20.75,18.6718 0,7.3438 -6.547,13.7032 -18.469,13.7032 H 241.25 c -1.891,0 -2.891,0 -2.891,-1.9844 0,-1.0938 0.907,-1.0938 2.782,-1.0938 0.203,0 2.093,0 3.781,-0.2031 1.781,-0.1875 2.687,-0.2969 2.687,-1.5781 0,-0.4063 -0.109,-0.7031 -0.406,-1.8906 z m 15,28.6094 L 255.047,86 c 0.906,3.4688 1.094,3.7656 5.375,3.7656 h 12.812 c 8.735,0 10.829,-5.8593 10.829,-10.2343 0,-8.7344 -8.547,-18.1719 -20.672,-18.1719 z m -4.469,-33.2813 c -1.391,0 -1.594,0 -2.188,0.0938 -0.984,0.1094 -1.281,0.2031 -1.281,1 0,0.2969 0,0.5 0.485,2.2812 l 6.859,27.7188 h 18.781 c 9.531,0 11.422,-7.3438 11.422,-11.625 0,-9.8281 -8.844,-19.4688 -20.562,-19.4688 h -13.516" />
          <path
             inkscape:connector-curvature="0"
             id="path24"
             style="fill:#000000;fill-opacity:1;fill-rule:nonzero;stroke:none"
             d="m 326.703,49.8281 c 0,7.75 -1.094,19.7813 -6.547,31 -5.968,12.2188 -14.5,18.6719 -15.5,18.6719 -0.593,0 -1,-0.3906 -1,-0.9844 0,-0.2968 0,-0.5 1.891,-2.2968 9.734,-9.8282 15.406,-25.625 15.406,-46.3907 0,-16.9843 -3.687,-34.4687 -16,-46.98435 -1.297,-1.1875 -1.297,-1.39062 -1.297,-1.6875 0,-0.59375 0.407,-0.984375 1,-0.984375 1,0 9.938,6.750005 15.797,19.359425 5.063,10.9375 6.25,21.9531 6.25,30.2968" />
        </g>
      </g>
      <g
         transform="matrix(0.35277777,0,0,-0.35277777,65.099028,292.63248)"
         id="g10-6">
        <g
           transform="scale(0.1)"
           id="g12-2">
          <path
             inkscape:connector-curvature="0"
             id="path14-6"
             style="fill:#000000;fill-opacity:1;fill-rule:nonzero;stroke:none"
             d="m 40.9063,67.8125 c 0,0.4063 -0.2969,1 -1,1 -1.0938,0 -5.0625,-3.9844 -6.75,-6.8594 -2.1875,5.3594 -6.0625,6.9532 -9.25,6.9532 -11.7188,0 -23.93755,-14.7032 -23.93755,-29.1094 0,-9.7344 5.85938,-15.8906 13.12505,-15.8906 4.2656,0 8.1406,2.3906 11.7187,5.9687 C 23.9063,26.3906 20.6406,12.9844 20.3438,12.0938 19.5469,9.3125 18.75,8.90625 13.1875,8.8125 c -1.2969,0 -2.2812,0 -2.2812,-1.98437 0,-0.10938 0,-1.09375 1.2812,-1.09375 3.1875,0 6.6563,0.29687 9.9375,0.29687 3.375,0 6.9531,-0.29687 10.2344,-0.29687 0.5,0 1.7812,0 1.7812,1.98437 0,1.09375 -0.9843,1.09375 -2.5781,1.09375 -4.7656,0 -4.7656,0.6875 -4.7656,1.5781 0,0.7032 0.2031,1.2969 0.3906,2.1875 z M 13.3906,26.0938 c -5.96872,0 -6.35935,7.6406 -6.35935,9.3437 0,4.7656 2.875,15.5938 4.56255,19.7656 3.0781,7.3438 8.25,11.5157 12.3125,11.5157 6.4687,0 7.8593,-8.0469 7.8593,-8.7344 0,-0.5938 -5.4687,-22.3594 -5.7656,-22.75 -1.4844,-2.7813 -7.0469,-9.1406 -12.6094,-9.1406" />
          <path
             inkscape:connector-curvature="0"
             id="path16-1"
             style="fill:#000000;fill-opacity:1;fill-rule:nonzero;stroke:none"
             d="m 76.875,1.15625 c 0,0.29688 0,0.5 -1.6875,2.1875 C 62.7813,15.8594 59.5938,34.6406 59.5938,49.8281 c 0,17.2969 3.7812,34.5782 16,47 1.2812,1.1875 1.2812,1.3907 1.2812,1.6875 0,0.6875 -0.3906,0.9844 -0.9844,0.9844 -1,0 -9.9375,-6.75 -15.7968,-19.375 -5.0625,-10.9219 -6.2657,-21.9531 -6.2657,-30.2969 0,-7.7343 1.0938,-19.7656 6.5625,-30.9843 5.9532,-12.2188 14.5,-18.671925 15.5,-18.671925 0.5938,0 0.9844,0.296875 0.9844,0.984375" />
          <path
             inkscape:connector-curvature="0"
             id="path18-8"
             style="fill:#000000;fill-opacity:1;fill-rule:nonzero;stroke:none"
             d="m 97.8906,32.75 c -0.9843,-3.875 -1.1875,-4.6719 -9.0312,-4.6719 -1.6875,0 -2.6875,0 -2.6875,-1.9843 C 86.1719,25 87.0625,25 88.8594,25 h 35.4536 c 15.703,0 27.421,11.7188 27.421,21.4531 0,7.1563 -5.765,12.9219 -15.39,14.0157 10.328,1.875 20.75,9.2343 20.75,18.6718 0,7.3438 -6.547,13.7032 -18.469,13.7032 H 105.25 c -1.891,0 -2.891,0 -2.891,-1.9844 0,-1.0938 0.907,-1.0938 2.782,-1.0938 0.203,0 2.093,0 3.781,-0.2031 1.781,-0.1875 2.687,-0.2969 2.687,-1.5781 0,-0.4063 -0.109,-0.7031 -0.406,-1.8906 z M 112.891,61.3594 119.047,86 c 0.906,3.4688 1.094,3.7656 5.375,3.7656 h 12.812 c 8.735,0 10.829,-5.8593 10.829,-10.2343 0,-8.7344 -8.547,-18.1719 -20.672,-18.1719 z m -4.469,-33.2813 c -1.391,0 -1.594,0 -2.188,0.0938 -0.984,0.1094 -1.281,0.2031 -1.281,1 0,0.2969 0,0.5 0.485,2.2812 l 6.859,27.7188 h 18.781 c 9.531,0 11.422,-7.3438 11.422,-11.625 0,-9.8281 -8.844,-19.4688 -20.562,-19.4688 h -13.516" />
          <path
             inkscape:connector-curvature="0"
             id="path20-7"
             style="fill:#000000;fill-opacity:1;fill-rule:nonzero;stroke:none"
             d="m 178.797,95.9219 c 0,1.7969 0,3.5781 -1.984,3.5781 -1.985,0 -1.985,-1.7812 -1.985,-3.5781 V 3.73438 c 0,-1.78125 0,-3.562505 1.985,-3.562505 1.984,0 1.984,1.781255 1.984,3.562505 V 95.9219" />
          <path
             inkscape:connector-curvature="0"
             id="path22-9"
             style="fill:#000000;fill-opacity:1;fill-rule:nonzero;stroke:none"
             d="m 281.984,85.2031 c 0.891,3.5782 1.094,4.5625 8.547,4.5625 2.282,0 3.172,0 3.172,1.9844 0,1.0938 -0.984,1.0938 -2.672,1.0938 h -13.125 c -2.578,0 -2.672,0 -3.859,-1.8907 l -36.266,-56.6093 -7.75,56.2187 c -0.297,2.2813 -0.5,2.2813 -3.078,2.2813 h -13.609 c -1.891,0 -2.985,0 -2.985,-1.8907 0,-1.1875 0.907,-1.1875 2.891,-1.1875 1.281,0 3.078,-0.0937 4.266,-0.2031 1.593,-0.1875 2.187,-0.4844 2.187,-1.5781 0,-0.4063 -0.094,-0.7031 -0.406,-1.8906 L 206.688,35.5313 c -1,-3.9688 -2.688,-7.1563 -10.735,-7.4532 -0.484,0 -1.781,-0.0937 -1.781,-1.8906 0,-0.8906 0.594,-1.1875 1.391,-1.1875 3.171,0 6.656,0.2969 9.937,0.2969 3.375,0 6.953,-0.2969 10.234,-0.2969 0.485,0 1.782,0 1.782,1.9844 0,1.0937 -1.094,1.0937 -1.782,1.0937 -5.671,0.0938 -6.765,2.0938 -6.765,4.375 0,0.6875 0.109,1.1875 0.406,2.2813 l 13.5,54.1406 h 0.109 l 8.532,-61.5937 c 0.203,-1.1875 0.312,-2.2813 1.5,-2.2813 1.093,0 1.687,1.0938 2.187,1.7813 l 40.125,62.8906 h 0.11 L 261.219,32.75 c -0.985,-3.875 -1.188,-4.6719 -9.031,-4.6719 -1.688,0 -2.782,0 -2.782,-1.8906 C 249.406,25 250.594,25 250.891,25 c 2.781,0 9.547,0.2969 12.328,0.2969 4.062,0 8.344,-0.2969 12.406,-0.2969 0.594,0 1.891,0 1.891,1.9844 0,1.0937 -0.891,1.0937 -2.782,1.0937 -3.671,0 -6.453,0 -6.453,1.7969 0,0.3906 0,0.5938 0.5,2.375 l 13.203,52.9531" />
          <path
             inkscape:connector-curvature="0"
             id="path24-2"
             style="fill:#000000;fill-opacity:1;fill-rule:nonzero;stroke:none"
             d="m 326.703,49.8281 c 0,7.75 -1.094,19.7813 -6.547,31 -5.968,12.2188 -14.5,18.6719 -15.5,18.6719 -0.593,0 -1,-0.3906 -1,-0.9844 0,-0.2968 0,-0.5 1.891,-2.2968 9.734,-9.8282 15.406,-25.625 15.406,-46.3907 0,-16.9843 -3.687,-34.4687 -16,-46.98435 -1.297,-1.1875 -1.297,-1.39062 -1.297,-1.6875 0,-0.59375 0.407,-0.984375 1,-0.984375 1,0 9.938,6.750005 15.797,19.359425 5.063,10.9375 6.25,21.9531 6.25,30.2968" />
        </g>
      </g>
      <g
         transform="matrix(0.35277777,0,0,-0.35277777,13.45772,250.93843)"
         id="g10-0">
        <g
           transform="scale(0.1)"
           id="g12-23">
          <path
             inkscape:connector-curvature="0"
             id="path14-7"
             style="fill:#000000;fill-opacity:1;fill-rule:nonzero;stroke:none"
             d="m 40.9063,67.8125 c 0,0.4063 -0.2969,1 -1,1 -1.0938,0 -5.0625,-3.9844 -6.75,-6.8594 -2.1875,5.3594 -6.0625,6.9532 -9.25,6.9532 -11.7188,0 -23.93755,-14.7032 -23.93755,-29.1094 0,-9.7344 5.85938,-15.8906 13.12505,-15.8906 4.2656,0 8.1406,2.3906 11.7187,5.9687 C 23.9063,26.3906 20.6406,12.9844 20.3438,12.0938 19.5469,9.3125 18.75,8.90625 13.1875,8.8125 c -1.2969,0 -2.2812,0 -2.2812,-1.98437 0,-0.10938 0,-1.09375 1.2812,-1.09375 3.1875,0 6.6563,0.29687 9.9375,0.29687 3.375,0 6.9531,-0.29687 10.2344,-0.29687 0.5,0 1.7812,0 1.7812,1.98437 0,1.09375 -0.9843,1.09375 -2.5781,1.09375 -4.7656,0 -4.7656,0.6875 -4.7656,1.5781 0,0.7032 0.2031,1.2969 0.3906,2.1875 z M 13.3906,26.0938 c -5.96872,0 -6.35935,7.6406 -6.35935,9.3437 0,4.7656 2.875,15.5938 4.56255,19.7656 3.0781,7.3438 8.25,11.5157 12.3125,11.5157 6.4687,0 7.8593,-8.0469 7.8593,-8.7344 0,-0.5938 -5.4687,-22.3594 -5.7656,-22.75 -1.4844,-2.7813 -7.0469,-9.1406 -12.6094,-9.1406" />
          <path
             inkscape:connector-curvature="0"
             id="path16-5"
             style="fill:#000000;fill-opacity:1;fill-rule:nonzero;stroke:none"
             d="m 76.875,1.15625 c 0,0.29688 0,0.5 -1.6875,2.1875 C 62.7813,15.8594 59.5938,34.6406 59.5938,49.8281 c 0,17.2969 3.7812,34.5782 16,47 1.2812,1.1875 1.2812,1.3907 1.2812,1.6875 0,0.6875 -0.3906,0.9844 -0.9844,0.9844 -1,0 -9.9375,-6.75 -15.7968,-19.375 -5.0625,-10.9219 -6.2657,-21.9531 -6.2657,-30.2969 0,-7.7343 1.0938,-19.7656 6.5625,-30.9843 5.9532,-12.2188 14.5,-18.671925 15.5,-18.671925 0.5938,0 0.9844,0.296875 0.9844,0.984375" />
          <path
             inkscape:connector-curvature="0"
             id="path18-9"
             style="fill:#000000;fill-opacity:1;fill-rule:nonzero;stroke:none"
             d="m 98.8906,32.75 c -0.9843,-3.875 -1.1875,-4.6719 -9.0312,-4.6719 -1.6875,0 -2.6875,0 -2.6875,-1.9843 C 87.1719,25 88.0625,25 89.8594,25 h 35.4536 c 15.703,0 27.421,11.7188 27.421,21.4531 0,7.1563 -5.765,12.9219 -15.39,14.0157 10.328,1.875 20.75,9.2343 20.75,18.6718 0,7.3438 -6.547,13.7032 -18.469,13.7032 H 106.25 c -1.891,0 -2.891,0 -2.891,-1.9844 0,-1.0938 0.907,-1.0938 2.782,-1.0938 0.203,0 2.093,0 3.781,-0.2031 1.781,-0.1875 2.687,-0.2969 2.687,-1.5781 0,-0.4063 -0.109,-0.7031 -0.406,-1.8906 z M 113.891,61.3594 120.047,86 c 0.906,3.4688 1.094,3.7656 5.375,3.7656 h 12.812 c 8.735,0 10.829,-5.8593 10.829,-10.2343 0,-8.7344 -8.547,-18.1719 -20.672,-18.1719 z m -4.469,-33.2813 c -1.391,0 -1.594,0 -2.188,0.0938 -0.984,0.1094 -1.281,0.2031 -1.281,1 0,0.2969 0,0.5 0.485,2.2812 l 6.859,27.7188 h 18.781 c 9.531,0 11.422,-7.3438 11.422,-11.625 0,-9.8281 -8.844,-19.4688 -20.562,-19.4688 h -13.516" />
          <path
             inkscape:connector-curvature="0"
             id="path20-2"
             style="fill:#000000;fill-opacity:1;fill-rule:nonzero;stroke:none"
             d="m 178.797,95.9219 c 0,1.7969 0,3.5781 -1.984,3.5781 -1.985,0 -1.985,-1.7812 -1.985,-3.5781 V 3.73438 c 0,-1.78125 0,-3.562505 1.985,-3.562505 1.984,0 1.984,1.781255 1.984,3.562505 V 95.9219" />
          <path
             inkscape:connector-curvature="0"
             id="path22-2"
             style="fill:#000000;fill-opacity:1;fill-rule:nonzero;stroke:none"
             d="m 206.891,32.75 c -0.985,-3.875 -1.188,-4.6719 -9.032,-4.6719 -1.687,0 -2.687,0 -2.687,-1.9843 C 195.172,25 196.063,25 197.859,25 h 35.454 c 15.703,0 27.421,11.7188 27.421,21.4531 0,7.1563 -5.765,12.9219 -15.39,14.0157 10.328,1.875 20.75,9.2343 20.75,18.6718 0,7.3438 -6.547,13.7032 -18.469,13.7032 H 214.25 c -1.891,0 -2.891,0 -2.891,-1.9844 0,-1.0938 0.907,-1.0938 2.782,-1.0938 0.203,0 2.093,0 3.781,-0.2031 1.781,-0.1875 2.687,-0.2969 2.687,-1.5781 0,-0.4063 -0.109,-0.7031 -0.406,-1.8906 z m 15,28.6094 L 228.047,86 c 0.906,3.4688 1.094,3.7656 5.375,3.7656 h 12.812 c 8.735,0 10.829,-5.8593 10.829,-10.2343 0,-8.7344 -8.547,-18.1719 -20.672,-18.1719 z m -4.469,-33.2813 c -1.391,0 -1.594,0 -2.188,0.0938 -0.984,0.1094 -1.281,0.2031 -1.281,1 0,0.2969 0,0.5 0.485,2.2812 l 6.859,27.7188 h 18.781 c 9.531,0 11.422,-7.3438 11.422,-11.625 0,-9.8281 -8.844,-19.4688 -20.562,-19.4688 h -13.516" />
          <path
             inkscape:connector-curvature="0"
             id="path24-8"
             style="fill:#000000;fill-opacity:1;fill-rule:nonzero;stroke:none"
             d="m 299.703,49.8281 c 0,7.75 -1.094,19.7813 -6.547,31 -5.968,12.2188 -14.5,18.6719 -15.5,18.6719 -0.593,0 -1,-0.3906 -1,-0.9844 0,-0.2968 0,-0.5 1.891,-2.2968 9.734,-9.8282 15.406,-25.625 15.406,-46.3907 0,-16.9843 -3.687,-34.4687 -16,-46.98435 -1.297,-1.1875 -1.297,-1.39062 -1.297,-1.6875 0,-0.59375 0.407,-0.984375 1,-0.984375 1,0 9.938,6.750005 15.797,19.359425 5.063,10.9375 6.25,21.9531 6.25,30.2968" />
        </g>
      </g>
      <g
         transform="matrix(0.35277777,0,0,-0.35277777,110.94112,253.61113)"
         id="g10-9">
        <g
           transform="scale(0.1)"
           id="g12-7">
          <path
             inkscape:connector-curvature="0"
             id="path14-36"
             style="fill:#000000;fill-opacity:1;fill-rule:nonzero;stroke:none"
             d="m 41.9063,67.8125 c 0,0.4063 -0.2969,1 -1,1 -1.0938,0 -5.0625,-3.9844 -6.75,-6.8594 -2.1875,5.3594 -6.0625,6.9532 -9.25,6.9532 -11.7188,0 -23.93755,-14.7032 -23.93755,-29.1094 0,-9.7344 5.85938,-15.8906 13.12505,-15.8906 4.2656,0 8.1406,2.3906 11.7187,5.9687 C 24.9063,26.3906 21.6406,12.9844 21.3438,12.0938 20.5469,9.3125 19.75,8.90625 14.1875,8.8125 c -1.2969,0 -2.2812,0 -2.2812,-1.98437 0,-0.10938 0,-1.09375 1.2812,-1.09375 3.1875,0 6.6563,0.29687 9.9375,0.29687 3.375,0 6.9531,-0.29687 10.2344,-0.29687 0.5,0 1.7812,0 1.7812,1.98437 0,1.09375 -0.9843,1.09375 -2.5781,1.09375 -4.7656,0 -4.7656,0.6875 -4.7656,1.5781 0,0.7032 0.2031,1.2969 0.3906,2.1875 z M 14.3906,26.0938 c -5.96872,0 -6.35935,7.6406 -6.35935,9.3437 0,4.7656 2.87505,15.5938 4.56255,19.7656 3.0781,7.3438 8.25,11.5157 12.3125,11.5157 6.4687,0 7.8593,-8.0469 7.8593,-8.7344 0,-0.5938 -5.4687,-22.3594 -5.7656,-22.75 -1.4844,-2.7813 -7.0469,-9.1406 -12.6094,-9.1406" />
          <path
             inkscape:connector-curvature="0"
             id="path16-12"
             style="fill:#000000;fill-opacity:1;fill-rule:nonzero;stroke:none"
             d="m 77.875,1.15625 c 0,0.29688 0,0.5 -1.6875,2.1875 C 63.7813,15.8594 60.5938,34.6406 60.5938,49.8281 c 0,17.2969 3.7812,34.5782 16,47 1.2812,1.1875 1.2812,1.3907 1.2812,1.6875 0,0.6875 -0.3906,0.9844 -0.9844,0.9844 -1,0 -9.9375,-6.75 -15.7968,-19.375 -5.0625,-10.9219 -6.2657,-21.9531 -6.2657,-30.2969 0,-7.7343 1.0938,-19.7656 6.5625,-30.9843 5.9532,-12.2188 14.5,-18.671925 15.5,-18.671925 0.5938,0 0.9844,0.296875 0.9844,0.984375" />
          <path
             inkscape:connector-curvature="0"
             id="path18-93"
             style="fill:#000000;fill-opacity:1;fill-rule:nonzero;stroke:none"
             d="m 174.984,85.2031 c 0.891,3.5782 1.094,4.5625 8.547,4.5625 2.282,0 3.172,0 3.172,1.9844 0,1.0938 -0.984,1.0938 -2.672,1.0938 h -13.125 c -2.578,0 -2.672,0 -3.859,-1.8907 l -36.266,-56.6093 -7.75,56.2187 c -0.297,2.2813 -0.5,2.2813 -3.078,2.2813 h -13.609 c -1.891,0 -2.985,0 -2.985,-1.8907 0,-1.1875 0.907,-1.1875 2.891,-1.1875 1.281,0 3.078,-0.0937 4.266,-0.2031 1.593,-0.1875 2.187,-0.4844 2.187,-1.5781 0,-0.4063 -0.094,-0.7031 -0.406,-1.8906 L 99.6875,35.5313 c -1,-3.9688 -2.6875,-7.1563 -10.7344,-7.4532 -0.4843,0 -1.7812,-0.0937 -1.7812,-1.8906 0,-0.8906 0.5937,-1.1875 1.3906,-1.1875 3.1719,0 6.6563,0.2969 9.9375,0.2969 3.375,0 6.953,-0.2969 10.234,-0.2969 0.485,0 1.782,0 1.782,1.9844 0,1.0937 -1.094,1.0937 -1.782,1.0937 -5.671,0.0938 -6.765,2.0938 -6.765,4.375 0,0.6875 0.109,1.1875 0.406,2.2813 l 13.5,54.1406 h 0.109 l 8.532,-61.5937 c 0.203,-1.1875 0.312,-2.2813 1.5,-2.2813 1.093,0 1.687,1.0938 2.187,1.7813 l 40.125,62.8906 h 0.11 L 154.219,32.75 c -0.985,-3.875 -1.188,-4.6719 -9.031,-4.6719 -1.688,0 -2.782,0 -2.782,-1.8906 C 142.406,25 143.594,25 143.891,25 c 2.781,0 9.547,0.2969 12.328,0.2969 4.062,0 8.344,-0.2969 12.406,-0.2969 0.594,0 1.891,0 1.891,1.9844 0,1.0937 -0.891,1.0937 -2.782,1.0937 -3.671,0 -6.453,0 -6.453,1.7969 0,0.3906 0,0.5938 0.5,2.375 l 13.203,52.9531" />
          <path
             inkscape:connector-curvature="0"
             id="path20-1"
             style="fill:#000000;fill-opacity:1;fill-rule:nonzero;stroke:none"
             d="m 206.797,95.9219 c 0,1.7969 0,3.5781 -1.984,3.5781 -1.985,0 -1.985,-1.7812 -1.985,-3.5781 V 3.73438 c 0,-1.78125 0,-3.562505 1.985,-3.562505 1.984,0 1.984,1.781255 1.984,3.562505 V 95.9219" />
          <path
             inkscape:connector-curvature="0"
             id="path22-94"
             style="fill:#000000;fill-opacity:1;fill-rule:nonzero;stroke:none"
             d="m 310.984,85.2031 c 0.891,3.5782 1.094,4.5625 8.547,4.5625 2.282,0 3.172,0 3.172,1.9844 0,1.0938 -0.984,1.0938 -2.672,1.0938 h -13.125 c -2.578,0 -2.672,0 -3.859,-1.8907 l -36.266,-56.6093 -7.75,56.2187 c -0.297,2.2813 -0.5,2.2813 -3.078,2.2813 h -13.609 c -1.891,0 -2.985,0 -2.985,-1.8907 0,-1.1875 0.907,-1.1875 2.891,-1.1875 1.281,0 3.078,-0.0937 4.266,-0.2031 1.593,-0.1875 2.187,-0.4844 2.187,-1.5781 0,-0.4063 -0.094,-0.7031 -0.406,-1.8906 L 235.688,35.5313 c -1,-3.9688 -2.688,-7.1563 -10.735,-7.4532 -0.484,0 -1.781,-0.0937 -1.781,-1.8906 0,-0.8906 0.594,-1.1875 1.391,-1.1875 3.171,0 6.656,0.2969 9.937,0.2969 3.375,0 6.953,-0.2969 10.234,-0.2969 0.485,0 1.782,0 1.782,1.9844 0,1.0937 -1.094,1.0937 -1.782,1.0937 -5.671,0.0938 -6.765,2.0938 -6.765,4.375 0,0.6875 0.109,1.1875 0.406,2.2813 l 13.5,54.1406 h 0.109 l 8.532,-61.5937 c 0.203,-1.1875 0.312,-2.2813 1.5,-2.2813 1.093,0 1.687,1.0938 2.187,1.7813 l 40.125,62.8906 h 0.11 L 290.219,32.75 c -0.985,-3.875 -1.188,-4.6719 -9.031,-4.6719 -1.688,0 -2.782,0 -2.782,-1.8906 C 278.406,25 279.594,25 279.891,25 c 2.781,0 9.547,0.2969 12.328,0.2969 4.062,0 8.344,-0.2969 12.406,-0.2969 0.594,0 1.891,0 1.891,1.9844 0,1.0937 -0.891,1.0937 -2.782,1.0937 -3.671,0 -6.453,0 -6.453,1.7969 0,0.3906 0,0.5938 0.5,2.375 l 13.203,52.9531" />
          <path
             inkscape:connector-curvature="0"
             id="path24-7"
             style="fill:#000000;fill-opacity:1;fill-rule:nonzero;stroke:none"
             d="m 355.703,49.8281 c 0,7.75 -1.094,19.7813 -6.547,31 -5.968,12.2188 -14.5,18.6719 -15.5,18.6719 -0.593,0 -1,-0.3906 -1,-0.9844 0,-0.2968 0,-0.5 1.891,-2.2968 9.734,-9.8282 15.406,-25.625 15.406,-46.3907 0,-16.9843 -3.687,-34.4687 -16,-46.98435 -1.297,-1.1875 -1.297,-1.39062 -1.297,-1.6875 0,-0.59375 0.407,-0.984375 1,-0.984375 1,0 9.938,6.750005 15.797,19.359425 5.063,10.9375 6.25,21.9531 6.25,30.2968" />
        </g>
      </g>
    </g>
  </g>
</svg>
