<?xml version="1.0" encoding="UTF-8" standalone="no"?>
<!-- Created with Inkscape (http://www.inkscape.org/) -->

<svg
   xmlns:dc="http://purl.org/dc/elements/1.1/"
   xmlns:cc="http://creativecommons.org/ns#"
   xmlns:rdf="http://www.w3.org/1999/02/22-rdf-syntax-ns#"
   xmlns:svg="http://www.w3.org/2000/svg"
   xmlns="http://www.w3.org/2000/svg"
   xmlns:sodipodi="http://sodipodi.sourceforge.net/DTD/sodipodi-0.dtd"
   xmlns:inkscape="http://www.inkscape.org/namespaces/inkscape"
   width="151mm"
   height="25mm"
   viewBox="0 0 151 25"
   version="1.1"
   id="svg8"
   inkscape:version="0.92.3 (2405546, 2018-03-11)"
   sodipodi:docname="permute.svg">
  <sodipodi:namedview
     id="base"
     pagecolor="#ffffff"
     bordercolor="#666666"
     borderopacity="1.0"
     inkscape:pageopacity="0.0"
     inkscape:pageshadow="2"
     inkscape:zoom="1.979899"
     inkscape:cx="281.83577"
     inkscape:cy="125.86193"
     inkscape:document-units="mm"
     inkscape:current-layer="layer1"
     showgrid="false"
     showguides="true"
     inkscape:guide-bbox="true"
     inkscape:window-width="1920"
     inkscape:window-height="1025"
     inkscape:window-x="0"
     inkscape:window-y="1227"
     inkscape:window-maximized="1" />
  <defs
     id="defs2" />
  <metadata
     id="metadata5">
    <rdf:RDF>
      <cc:Work
         rdf:about="">
        <dc:format>image/svg+xml</dc:format>
        <dc:type
           rdf:resource="http://purl.org/dc/dcmitype/StillImage" />
        <dc:title></dc:title>
      </cc:Work>
    </rdf:RDF>
  </metadata>
  <g
     id="layer1"
     inkscape:groupmode="layer"
     inkscape:label="Layer 1"
     transform="translate(0,-272)">
    <g
       id="g3206"
       transform="matrix(10.022624,0,0,7.1536423,-41.780917,-34.90535)">
      <g
         word-spacing="normal"
         letter-spacing="normal"
         font-size-adjust="none"
         font-stretch="normal"
         font-weight="normal"
         font-variant="normal"
         font-style="normal"
         stroke-miterlimit="10.433"
         xml:space="preserve"
         transform="matrix(0.02428571,0,0,-0.02428571,-4.25,61.5)"
         id="g3204"
         style="font-style:normal;font-variant:normal;font-weight:normal;font-stretch:normal;letter-spacing:normal;word-spacing:normal;text-anchor:start;fill:none;fill-opacity:1;fill-rule:evenodd;stroke:#000000;stroke-linecap:butt;stroke-linejoin:miter;stroke-miterlimit:10.43299961;stroke-dasharray:none;stroke-dashoffset:0;stroke-opacity:1"><path
           id="path3200"
           d="m 488.35,417.65 h 0.16 0.16 l 0.15,0.01 h 0.08 l 0.08,0.01 h 0.07 l 0.08,0.01 0.07,0.01 0.07,0.01 0.07,0.02 0.07,0.02 0.07,0.02 0.06,0.02 0.06,0.02 0.06,0.03 0.05,0.03 0.06,0.04 0.05,0.03 0.04,0.05 0.04,0.04 0.04,0.05 0.02,0.03 0.02,0.03 0.01,0.03 0.02,0.03 0.01,0.03 0.02,0.03 0.01,0.04 0.01,0.03 0.01,0.04 v 0.04 l 0.01,0.04 0.01,0.04 v 0.04 l 0.01,0.04 v 0.05 0.04 c 0,1 -0.91,1 -1.75,1 h -26.96 c -0.84,0 -1.73,0 -1.73,-1 0,-1 0.89,-1 1.73,-1 z"
           inkscape:connector-curvature="0"
           style="fill:#000000;stroke-width:0" /><path
           id="path3202"
           d="m 527.54,417.65 -0.25,-0.19 -0.24,-0.2 -0.24,-0.19 -0.23,-0.2 -0.22,-0.19 -0.21,-0.19 -0.21,-0.19 -0.19,-0.19 -0.19,-0.18 -0.19,-0.18 -0.17,-0.18 -0.17,-0.18 -0.16,-0.17 -0.16,-0.17 -0.14,-0.17 -0.14,-0.16 -0.14,-0.15 -0.12,-0.16 -0.12,-0.15 -0.11,-0.14 -0.11,-0.14 -0.1,-0.13 -0.1,-0.13 -0.08,-0.12 -0.09,-0.11 -0.07,-0.11 -0.07,-0.11 -0.06,-0.09 -0.06,-0.09 -0.05,-0.08 -0.05,-0.07 -0.04,-0.07 c -2.24,-3.44 -2.64,-6.58 -2.64,-6.62 0,-0.6 0.61,-0.6 1,-0.6 0.84,0 0.89,0.1 1.09,1 1.16,4.88 4.09,9.06 9.72,11.36 0.59,0.19 0.75,0.3 0.75,0.64 0,0.35 -0.3,0.5 -0.41,0.55 -2.18,0.84 -8.22,3.34 -10.1,11.72 -0.16,0.59 -0.21,0.73 -1.05,0.73 -0.39,0 -1,0 -1,-0.59 0,-0.1 0.45,-3.24 2.55,-6.58 1,-1.48 2.43,-3.23 4.57,-4.83 h -37.01 c -0.89,0 -1.8,0 -1.8,-1 0,-1 0.91,-1 1.8,-1 z"
           inkscape:connector-curvature="0"
           style="fill:#000000;stroke-width:0" /></g>    </g>
    <g
       id="g1091"
       transform="translate(-63.075609,99.02136)">
      <line
         style="stroke:#242423;stroke-width:0.5;stroke-miterlimit:4;stroke-dasharray:none;stroke-opacity:1"
         x1="67.043602"
         y1="223.41812"
         x2="67.035774"
         y2="229.73083"
         id="line780-2-7-9-5-9-75-6-5-3" />
      <g
         id="g909"
         transform="translate(-19.251695,-2.1448217e-6)">
        <line
           id="line780-2-7-9-5-9-75-6-5-6-6"
           y2="229.73083"
           x2="90.983337"
           y1="223.41812"
           x1="90.991158"
           style="stroke:#242423;stroke-width:0.5;stroke-miterlimit:4;stroke-dasharray:none;stroke-opacity:1" />
      </g>
      <line
         style="stroke:#242423;stroke-width:0.5;stroke-miterlimit:4;stroke-dasharray:none;stroke-opacity:1"
         x1="76.435326"
         y1="223.41812"
         x2="76.427498"
         y2="229.73083"
         id="line780-2-7-9-5-9-75-6-5-3-7" />
      <g
         id="g909-5"
         transform="translate(-9.859976,-2.1448212e-6)">
        <line
           id="line780-2-7-9-5-9-75-6-5-6-6-3"
           y2="229.73083"
           x2="90.983337"
           y1="223.41812"
           x1="90.991158"
           style="stroke:#242423;stroke-width:0.5;stroke-miterlimit:4;stroke-dasharray:none;stroke-opacity:1" />
      </g>
      <rect
         style="opacity:1;fill:#96eb8f;fill-opacity:1;fill-rule:nonzero;stroke:#1e8117;stroke-width:0.7252875;stroke-linecap:round;stroke-linejoin:round;stroke-miterlimit:4;stroke-dasharray:none;stroke-dashoffset:0;stroke-opacity:0.94901961;paint-order:markers stroke fill"
         id="rect861"
         width="19.73818"
         height="6.5793939"
         x="64.214386"
         y="229.94212" />
      <g
         id="g997"
         transform="matrix(0.43994826,0,0,0.43994826,34.573263,191.7004)">
        <g
           word-spacing="normal"
           letter-spacing="normal"
           font-size-adjust="none"
           font-stretch="normal"
           font-weight="normal"
           font-variant="normal"
           font-style="normal"
           stroke-miterlimit="10.433"
           xml:space="preserve"
           transform="matrix(0.3,0,0,-0.3,-52.5,222.75)"
           id="g995"
           style="font-style:normal;font-variant:normal;font-weight:normal;font-stretch:normal;letter-spacing:normal;word-spacing:normal;text-anchor:start;fill:none;fill-opacity:1;fill-rule:evenodd;stroke:#000000;stroke-linecap:butt;stroke-linejoin:miter;stroke-miterlimit:10.43299961;stroke-dasharray:none;stroke-dashoffset:0;stroke-opacity:1"><path
             id="path993"
             d="m 464.44,411.93 -0.19,-0.3 -0.18,-0.29 -0.19,-0.28 -0.19,-0.26 -0.18,-0.25 -0.19,-0.23 -0.19,-0.22 -0.18,-0.21 -0.19,-0.2 -0.19,-0.18 -0.18,-0.17 -0.19,-0.16 -0.19,-0.15 -0.18,-0.14 -0.19,-0.13 -0.19,-0.12 -0.19,-0.11 -0.19,-0.1 -0.19,-0.09 -0.19,-0.09 -0.19,-0.07 -0.2,-0.07 -0.19,-0.07 -0.2,-0.05 -0.19,-0.05 -0.2,-0.04 -0.2,-0.04 -0.19,-0.03 -0.41,-0.05 -0.4,-0.03 c -0.61,-0.05 -1.05,-0.05 -1.05,-1 0,-0.3 0.25,-0.55 0.64,-0.55 1.34,0 2.89,0.16 4.28,0.16 1.64,0 3.39,-0.16 4.99,-0.16 0.29,0 0.95,0 0.95,0.95 0,0.55 -0.45,0.6 -0.8,0.6 -1.15,0.09 -2.34,0.5 -2.34,1.73 0,0.61 0.3,1.16 0.69,1.84 l 3.79,6.39 h 12.5 l -0.14,1.54 h -11.42 l 9.83,16.45 1.59,-16.45 0.14,-1.54 c 0.11,-1.04 0.8,-7.82 0.8,-8.32 0,-1.5 -2.59,-1.64 -3.58,-1.64 -0.7,0 -1.2,0 -1.2,-1 0,-0.55 0.59,-0.55 0.7,-0.55 2.03,0 4.19,0.16 6.22,0.16 1.25,0 4.39,-0.16 5.64,-0.16 0.3,0 0.89,0 0.89,1 0,0.55 -0.5,0.55 -1.14,0.55 -3.09,0 -3.09,0.34 -3.25,1.79 l -3.03,31.13 c -0.11,1 -0.11,1.2 -0.95,1.2 -0.8,0 -0.99,-0.34 -1.3,-0.84 z"
             inkscape:connector-curvature="0"
             style="fill:#000000;stroke-width:0" /></g>      </g>
    </g>
    <g
       transform="translate(-31.325595,99.02136)"
       id="g1079">
      <line
         style="stroke:#242423;stroke-width:0.5;stroke-miterlimit:4;stroke-dasharray:none;stroke-opacity:1"
         x1="124.28796"
         y1="223.41812"
         x2="124.28012"
         y2="229.73083"
         id="line780-2-7-9-5-9-75-6-5-3-5" />
      <g
         id="g909-6"
         transform="translate(37.992658,-1.8746577e-5)">
        <line
           id="line780-2-7-9-5-9-75-6-5-6-6-2"
           y2="229.73083"
           x2="90.983337"
           y1="223.41812"
           x1="90.991158"
           style="stroke:#242423;stroke-width:0.5;stroke-miterlimit:4;stroke-dasharray:none;stroke-opacity:1" />
      </g>
      <line
         style="stroke:#242423;stroke-width:0.5;stroke-miterlimit:4;stroke-dasharray:none;stroke-opacity:1"
         x1="133.67966"
         y1="223.41812"
         x2="133.67183"
         y2="229.73083"
         id="line780-2-7-9-5-9-75-6-5-3-7-9" />
      <g
         id="g909-5-1"
         transform="translate(47.384377,-1.8746577e-5)">
        <line
           id="line780-2-7-9-5-9-75-6-5-6-6-3-2"
           y2="229.73083"
           x2="90.983337"
           y1="223.41812"
           x1="90.991158"
           style="stroke:#242423;stroke-width:0.5;stroke-miterlimit:4;stroke-dasharray:none;stroke-opacity:1" />
      </g>
      <rect
         style="opacity:1;fill:#96eb8f;fill-opacity:1;fill-rule:nonzero;stroke:#1e8117;stroke-width:0.7252875;stroke-linecap:round;stroke-linejoin:round;stroke-miterlimit:4;stroke-dasharray:none;stroke-dashoffset:0;stroke-opacity:0.94901961;paint-order:markers stroke fill"
         id="rect861-7"
         width="19.73818"
         height="6.5793939"
         x="121.45875"
         y="229.94212" />
      <g
         id="g953"
         transform="matrix(0.4233268,0,0,0.4233268,93.31034,193.22066)">
        <g
           style="font-style:normal;font-variant:normal;font-weight:normal;font-stretch:normal;letter-spacing:normal;word-spacing:normal;text-anchor:start;fill:none;fill-opacity:1;fill-rule:evenodd;stroke:#000000;stroke-linecap:butt;stroke-linejoin:miter;stroke-miterlimit:10.43299961;stroke-dasharray:none;stroke-dashoffset:0;stroke-opacity:1"
           id="content"
           transform="matrix(0.3,0,0,-0.3,-52.5,222.75)"
           xml:space="preserve"
           stroke-miterlimit="10.433"
           font-style="normal"
           font-variant="normal"
           font-weight="normal"
           font-stretch="normal"
           font-size-adjust="none"
           letter-spacing="normal"
           word-spacing="normal"><path
             style="fill:#000000;stroke-width:0"
             inkscape:connector-curvature="0"
             d="m 489.44,451.33 -0.8,0.75 c 0,-0.04 -1.89,-2.39 -4.08,-2.39 -1.14,0 -2.39,0.75 -3.23,1.25 -1.35,0.8 -2.25,1.14 -3.1,1.14 -1.89,0 -2.84,-1.09 -5.37,-3.89 l 0.8,-0.75 c 0,0.06 1.89,2.39 4.07,2.39 1.15,0 2.39,-0.73 3.24,-1.23 1.34,-0.8 2.25,-1.16 3.09,-1.16 1.89,0 2.85,1.11 5.38,3.89 z"
             id="path948" /><path
             style="fill:#000000;stroke-width:0"
             inkscape:connector-curvature="0"
             d="m 464.44,411.93 -0.19,-0.3 -0.18,-0.29 -0.19,-0.28 -0.19,-0.26 -0.18,-0.25 -0.19,-0.23 -0.19,-0.22 -0.18,-0.21 -0.19,-0.2 -0.19,-0.18 -0.18,-0.17 -0.19,-0.16 -0.19,-0.15 -0.18,-0.14 -0.19,-0.13 -0.19,-0.12 -0.19,-0.11 -0.19,-0.1 -0.19,-0.09 -0.19,-0.09 -0.19,-0.07 -0.2,-0.07 -0.19,-0.07 -0.2,-0.05 -0.19,-0.05 -0.2,-0.04 -0.2,-0.04 -0.19,-0.03 -0.41,-0.05 -0.4,-0.03 c -0.61,-0.05 -1.05,-0.05 -1.05,-1 0,-0.3 0.25,-0.55 0.64,-0.55 1.34,0 2.89,0.16 4.28,0.16 1.64,0 3.39,-0.16 4.99,-0.16 0.29,0 0.95,0 0.95,0.95 0,0.55 -0.45,0.6 -0.8,0.6 -1.15,0.09 -2.34,0.5 -2.34,1.73 0,0.61 0.3,1.16 0.69,1.84 l 3.79,6.39 h 12.5 l -0.14,1.54 h -11.42 l 9.83,16.45 1.59,-16.45 0.14,-1.54 c 0.11,-1.04 0.8,-7.82 0.8,-8.32 0,-1.5 -2.59,-1.64 -3.58,-1.64 -0.7,0 -1.2,0 -1.2,-1 0,-0.55 0.59,-0.55 0.7,-0.55 2.03,0 4.19,0.16 6.22,0.16 1.25,0 4.39,-0.16 5.64,-0.16 0.3,0 0.89,0 0.89,1 0,0.55 -0.5,0.55 -1.14,0.55 -3.09,0 -3.09,0.34 -3.25,1.79 l -3.03,31.13 c -0.11,1 -0.11,1.2 -0.95,1.2 -0.8,0 -0.99,-0.34 -1.3,-0.84 z"
             id="path950" /></g>      </g>
    </g>
    <rect
       y="328.96408"
       x="52.581192"
       height="6.5793939"
       width="19.73818"
       id="rect861-9"
       style="opacity:1;fill:#96eb8f;fill-opacity:1;fill-rule:nonzero;stroke:#1e8117;stroke-width:0.7252875;stroke-linecap:round;stroke-linejoin:round;stroke-miterlimit:4;stroke-dasharray:none;stroke-dashoffset:0;stroke-opacity:0.94901961;paint-order:markers stroke fill" />
    <g
       transform="matrix(0.43994826,0,0,0.43994826,22.940067,290.72198)"
       id="g997-2">
      <g
         style="font-style:normal;font-variant:normal;font-weight:normal;font-stretch:normal;letter-spacing:normal;word-spacing:normal;text-anchor:start;fill:none;fill-opacity:1;fill-rule:evenodd;stroke:#000000;stroke-linecap:butt;stroke-linejoin:miter;stroke-miterlimit:10.43299961;stroke-dasharray:none;stroke-dashoffset:0;stroke-opacity:1"
         id="g995-0"
         transform="matrix(0.3,0,0,-0.3,-52.5,222.75)"
         xml:space="preserve"
         stroke-miterlimit="10.433"
         font-style="normal"
         font-variant="normal"
         font-weight="normal"
         font-stretch="normal"
         font-size-adjust="none"
         letter-spacing="normal"
         word-spacing="normal"><path
           style="fill:#000000;stroke-width:0"
           inkscape:connector-curvature="0"
           d="m 464.44,411.93 -0.19,-0.3 -0.18,-0.29 -0.19,-0.28 -0.19,-0.26 -0.18,-0.25 -0.19,-0.23 -0.19,-0.22 -0.18,-0.21 -0.19,-0.2 -0.19,-0.18 -0.18,-0.17 -0.19,-0.16 -0.19,-0.15 -0.18,-0.14 -0.19,-0.13 -0.19,-0.12 -0.19,-0.11 -0.19,-0.1 -0.19,-0.09 -0.19,-0.09 -0.19,-0.07 -0.2,-0.07 -0.19,-0.07 -0.2,-0.05 -0.19,-0.05 -0.2,-0.04 -0.2,-0.04 -0.19,-0.03 -0.41,-0.05 -0.4,-0.03 c -0.61,-0.05 -1.05,-0.05 -1.05,-1 0,-0.3 0.25,-0.55 0.64,-0.55 1.34,0 2.89,0.16 4.28,0.16 1.64,0 3.39,-0.16 4.99,-0.16 0.29,0 0.95,0 0.95,0.95 0,0.55 -0.45,0.6 -0.8,0.6 -1.15,0.09 -2.34,0.5 -2.34,1.73 0,0.61 0.3,1.16 0.69,1.84 l 3.79,6.39 h 12.5 l -0.14,1.54 h -11.42 l 9.83,16.45 1.59,-16.45 0.14,-1.54 c 0.11,-1.04 0.8,-7.82 0.8,-8.32 0,-1.5 -2.59,-1.64 -3.58,-1.64 -0.7,0 -1.2,0 -1.2,-1 0,-0.55 0.59,-0.55 0.7,-0.55 2.03,0 4.19,0.16 6.22,0.16 1.25,0 4.39,-0.16 5.64,-0.16 0.3,0 0.89,0 0.89,1 0,0.55 -0.5,0.55 -1.14,0.55 -3.09,0 -3.09,0.34 -3.25,1.79 l -3.03,31.13 c -0.11,1 -0.11,1.2 -0.95,1.2 -0.8,0 -0.99,-0.34 -1.3,-0.84 z"
           id="path993-2" /></g>    </g>
    <g
       id="g1186"
       transform="matrix(0.56252757,0,0,0.56252757,30.123865,277.91531)">
      <g
         word-spacing="normal"
         letter-spacing="normal"
         font-size-adjust="none"
         font-stretch="normal"
         font-weight="normal"
         font-variant="normal"
         font-style="normal"
         stroke-miterlimit="10.433"
         xml:space="preserve"
         transform="matrix(0.3,0,0,-0.3,-52.5,222.75)"
         id="g1184"
         style="font-style:normal;font-variant:normal;font-weight:normal;font-stretch:normal;letter-spacing:normal;word-spacing:normal;text-anchor:start;fill:none;fill-opacity:1;fill-rule:evenodd;stroke:#000000;stroke-linecap:butt;stroke-linejoin:miter;stroke-miterlimit:10.43299961;stroke-dasharray:none;stroke-dashoffset:0;stroke-opacity:1"><path
           id="path1180"
           d="m 489.75,422.5 h 0.14 0.15 0.14 l 0.07,0.01 h 0.08 l 0.07,0.01 0.07,0.01 0.07,0.01 0.07,0.01 0.07,0.01 0.06,0.02 0.07,0.02 0.06,0.02 0.06,0.02 0.06,0.03 0.06,0.03 0.05,0.04 0.05,0.03 0.05,0.05 0.04,0.04 0.04,0.05 0.02,0.03 0.02,0.03 0.01,0.02 0.02,0.03 0.01,0.03 0.02,0.04 0.01,0.03 0.01,0.04 0.01,0.03 0.01,0.04 v 0.04 l 0.01,0.04 v 0.04 l 0.01,0.04 v 0.04 0.05 c 0,1 -0.95,1 -1.64,1 h -29.84 c -0.71,0 -1.64,0 -1.64,-1 0,-0.98 0.93,-0.98 1.68,-0.98 z"
           inkscape:connector-curvature="0"
           style="fill:#000000;stroke-width:0" /><path
           id="path1182"
           d="m 489.8,412.82 h 0.07 0.06 l 0.14,0.01 h 0.14 0.07 l 0.07,0.01 0.07,0.01 h 0.07 l 0.06,0.01 0.07,0.02 0.07,0.01 0.06,0.02 0.07,0.02 0.06,0.02 0.06,0.02 0.06,0.03 0.05,0.03 0.05,0.04 0.05,0.04 0.05,0.04 0.04,0.05 0.02,0.02 0.02,0.03 0.02,0.02 0.02,0.03 0.01,0.03 0.02,0.03 0.01,0.03 0.02,0.03 0.01,0.04 0.01,0.03 0.01,0.04 0.01,0.04 v 0.04 l 0.01,0.04 v 0.04 l 0.01,0.04 v 0.05 0.04 c 0,1 -0.95,1 -1.69,1 H 460 c -0.75,0 -1.68,0 -1.68,-1 0,-1 0.93,-1 1.64,-1 z"
           inkscape:connector-curvature="0"
           style="fill:#000000;stroke-width:0" /></g>    </g>
    <g
       id="g1309"
       transform="translate(-68.896443,99.02136)">
      <line
         style="stroke:#242423;stroke-width:0.5;stroke-miterlimit:4;stroke-dasharray:none;stroke-opacity:1"
         x1="129.00272"
         y1="227.66861"
         x2="128.99489"
         y2="229.73083"
         id="line780-2-7-9-5-9-75-6-5-3-7-1-3" />
      <line
         style="stroke:#242423;stroke-width:0.5;stroke-miterlimit:4;stroke-dasharray:none;stroke-opacity:1"
         x1="124.30685"
         y1="227.66861"
         x2="124.29903"
         y2="229.73083"
         id="line780-2-7-9-5-9-75-6-5-3-0" />
      <path
         sodipodi:nodetypes="csc"
         inkscape:connector-curvature="0"
         id="path1273"
         d="m 129.00271,223.41811 c 0,2.4144 -2.08656,3.16605 -4.53152,3.7877 -0.12986,0.033 -0.16435,0.53004 -0.16435,0.53004"
         style="fill:none;stroke:#242423;stroke-width:0.5;stroke-linecap:butt;stroke-linejoin:miter;stroke-miterlimit:4;stroke-dasharray:none;stroke-opacity:1" />
      <path
         sodipodi:nodetypes="csc"
         inkscape:connector-curvature="0"
         id="path1273-5"
         d="m 124.30684,223.41811 c 0,2.4144 2.08656,3.16605 4.53152,3.7877 0.12986,0.033 0.16435,0.53004 0.16435,0.53004"
         style="fill:none;stroke:#242423;stroke-width:0.5;stroke-linecap:butt;stroke-linejoin:miter;stroke-miterlimit:4;stroke-dasharray:none;stroke-opacity:1" />
    </g>
    <g
       transform="translate(-59.504729,99.088606)"
       id="g1309-9">
      <line
         style="stroke:#242423;stroke-width:0.5;stroke-miterlimit:4;stroke-dasharray:none;stroke-opacity:1"
         x1="129.00272"
         y1="227.66861"
         x2="128.99489"
         y2="229.73083"
         id="line780-2-7-9-5-9-75-6-5-3-7-1-3-2" />
      <line
         style="stroke:#242423;stroke-width:0.5;stroke-miterlimit:4;stroke-dasharray:none;stroke-opacity:1"
         x1="124.30685"
         y1="227.66861"
         x2="124.29903"
         y2="229.73083"
         id="line780-2-7-9-5-9-75-6-5-3-0-2" />
      <path
         sodipodi:nodetypes="csc"
         inkscape:connector-curvature="0"
         id="path1273-8"
         d="m 129.00271,223.41811 c 0,2.4144 -2.08656,3.16605 -4.53152,3.7877 -0.12986,0.033 -0.16435,0.53004 -0.16435,0.53004"
         style="fill:none;stroke:#242423;stroke-width:0.5;stroke-linecap:butt;stroke-linejoin:miter;stroke-miterlimit:4;stroke-dasharray:none;stroke-opacity:1" />
      <path
         sodipodi:nodetypes="csc"
         inkscape:connector-curvature="0"
         id="path1273-5-9"
         d="m 124.30684,223.41811 c 0,2.4144 2.08656,3.16605 4.53152,3.7877 0.12986,0.033 0.16435,0.53004 0.16435,0.53004"
         style="fill:none;stroke:#242423;stroke-width:0.5;stroke-linecap:butt;stroke-linejoin:miter;stroke-miterlimit:4;stroke-dasharray:none;stroke-opacity:1" />
    </g>
    <g
       id="g1139-94"
       transform="translate(117.87354,24.587351)">
      <g
         transform="translate(0.18898809)"
         id="g1128-7">
        <path
           inkscape:connector-curvature="0"
           id="path900-6-9-3-18-8"
           d="M 5.1026786,258.72269 V 248.58248"
           style="fill:none;stroke:#000000;stroke-width:0.99999994;stroke-linecap:round;stroke-linejoin:miter;stroke-miterlimit:4;stroke-dasharray:none;stroke-opacity:1" />
        <path
           inkscape:connector-curvature="0"
           id="path900-6-9-3-18-6-4"
           d="M 12.53621,258.72269 V 248.58248"
           style="fill:none;stroke:#000000;stroke-width:0.99999994;stroke-linecap:round;stroke-linejoin:miter;stroke-miterlimit:4;stroke-dasharray:none;stroke-opacity:1" />
        <path
           inkscape:connector-curvature="0"
           id="path900-6-9-3-18-7-5"
           d="M 19.969742,258.72269 V 248.58248"
           style="fill:none;stroke:#000000;stroke-width:0.99999994;stroke-linecap:round;stroke-linejoin:miter;stroke-miterlimit:4;stroke-dasharray:none;stroke-opacity:1" />
        <path
           inkscape:connector-curvature="0"
           id="path900-6-9-3-18-5-0"
           d="M 27.403274,258.72269 V 248.58248"
           style="fill:none;stroke:#000000;stroke-width:0.99999994;stroke-linecap:round;stroke-linejoin:miter;stroke-miterlimit:4;stroke-dasharray:none;stroke-opacity:1" />
      </g>
      <rect
         y="258.24042"
         x="2.6857913"
         height="11.373376"
         width="27.512346"
         id="rect815-7-9-7-5-3"
         style="opacity:1;fill:#47bb7e;fill-opacity:1;fill-rule:nonzero;stroke:#009647;stroke-width:5;stroke-linecap:round;stroke-linejoin:round;stroke-miterlimit:4;stroke-dasharray:none;stroke-dashoffset:0;stroke-opacity:1;paint-order:markers stroke fill" />
      <g
         transform="matrix(0.98418277,0,0,-0.98418277,12.510105,267.83189)"
         id="g10-7-2-6">
        <g
           transform="scale(0.1)"
           id="g12-1-6-1" />
      </g>
    </g>
    <g
       id="g10-0"
       transform="matrix(0.98414132,0,0,-0.98414132,130.81648,292.01436)">
      <g
         id="g12-6"
         transform="scale(0.1)">
        <path
           d="m 66.3281,89.8594 -1.5937,1.5 c 0,-0.0938 -3.7813,-4.7656 -8.1406,-4.7656 -2.2969,0 -4.7657,1.4843 -6.4688,2.4843 -2.6719,1.5782 -4.4687,2.2813 -6.1562,2.2813 -3.7657,0 -5.6563,-2.1875 -10.7188,-7.75 l 1.5781,-1.4844 c 0,0.0938 3.7813,4.7656 8.1563,4.7656 2.2812,0 4.7656,-1.5 6.4531,-2.4843 2.6875,-1.5938 4.4688,-2.2813 6.1563,-2.2813 3.7812,0 5.6718,2.1719 10.7343,7.7344"
           style="fill:#000000;fill-opacity:1;fill-rule:nonzero;stroke:none"
           id="path14-1"
           inkscape:connector-curvature="0" />
        <path
           d="M 15.7813,11.4219 C 11.8125,4.76563 7.9375,3.375 3.5625,3.07813 2.375,2.98438 1.48438,2.98438 1.48438,1.09375 1.48438,0.5 1.96875,0 2.76563,0 5.45313,0 8.53125,0.296875 11.3125,0.296875 14.5938,0.296875 18.0625,0 21.25,0 c 0.5938,0 1.875,0 1.875,1.89063 0,1.09375 -0.8906,1.1875 -1.5781,1.1875 -2.2813,0.20312 -4.6719,1 -4.6719,3.48437 0,1.1875 0.5938,2.28125 1.3906,3.6719 l 7.5469,12.7187 H 50.75 c 0.2031,-2.0937 1.5938,-15.60935 1.5938,-16.59372 0,-2.98438 -5.1719,-3.28125 -7.1563,-3.28125 -1.3906,0 -2.3906,0 -2.3906,-1.98438 C 42.7969,0 44,0 44.1875,0 48.2656,0 52.5313,0.296875 56.6094,0.296875 59.0938,0.296875 65.3438,0 67.8281,0 c 0.6094,0 1.7969,0 1.7969,1.98438 0,1.09375 -1,1.09375 -2.2812,1.09375 -6.1719,0 -6.1719,0.70312 -6.4688,3.57812 L 54.8281,68.7344 c -0.2031,2 -0.2031,2.3906 -1.8906,2.3906 -1.5937,0 -1.9844,-0.6875 -2.5937,-1.6875 z m 11.9218,14.6094 19.5625,32.7812 3.1875,-32.7812 z"
           style="fill:#000000;fill-opacity:1;fill-rule:nonzero;stroke:none"
           id="path16-5"
           inkscape:connector-curvature="0" />
      </g>
    </g>
    <g
       id="g1139"
       transform="translate(0.6425591,24.587351)">
      <g
         transform="translate(0.18898809)"
         id="g1128">
        <path
           inkscape:connector-curvature="0"
           id="path900-6-9-3-18"
           d="M 5.1026786,258.72269 V 248.58248"
           style="fill:none;stroke:#000000;stroke-width:0.99999994;stroke-linecap:round;stroke-linejoin:miter;stroke-miterlimit:4;stroke-dasharray:none;stroke-opacity:1" />
        <path
           inkscape:connector-curvature="0"
           id="path900-6-9-3-18-6"
           d="M 12.53621,258.72269 V 248.58248"
           style="fill:none;stroke:#000000;stroke-width:0.99999994;stroke-linecap:round;stroke-linejoin:miter;stroke-miterlimit:4;stroke-dasharray:none;stroke-opacity:1" />
        <path
           inkscape:connector-curvature="0"
           id="path900-6-9-3-18-7"
           d="M 19.969742,258.72269 V 248.58248"
           style="fill:none;stroke:#000000;stroke-width:0.99999994;stroke-linecap:round;stroke-linejoin:miter;stroke-miterlimit:4;stroke-dasharray:none;stroke-opacity:1" />
        <path
           inkscape:connector-curvature="0"
           id="path900-6-9-3-18-5"
           d="M 27.403274,258.72269 V 248.58248"
           style="fill:none;stroke:#000000;stroke-width:0.99999994;stroke-linecap:round;stroke-linejoin:miter;stroke-miterlimit:4;stroke-dasharray:none;stroke-opacity:1" />
      </g>
      <rect
         y="258.24042"
         x="2.6857913"
         height="11.373376"
         width="27.512346"
         id="rect815-7-9-7-5"
         style="opacity:1;fill:#47bb7e;fill-opacity:1;fill-rule:nonzero;stroke:#009647;stroke-width:5;stroke-linecap:round;stroke-linejoin:round;stroke-miterlimit:4;stroke-dasharray:none;stroke-dashoffset:0;stroke-opacity:1;paint-order:markers stroke fill" />
      <g
         transform="matrix(0.98418277,0,0,-0.98418277,12.510105,267.83189)"
         id="g10-7-2">
        <g
           transform="scale(0.1)"
           id="g12-1-6">
          <path
             inkscape:connector-curvature="0"
             id="path14-1-1"
             style="fill:#000000;fill-opacity:1;fill-rule:nonzero;stroke:none"
             d="m 20.177109,15.534835 c -3.9688,-6.6562699 -7.8438,-8.0468999 -12.2187999,-8.3437699 -1.1875,-0.09375 -2.07812,-0.09375 -2.07812,-1.98438 0,-0.59375 0.48437,-1.09375 1.28125,-1.09375 2.6875,0 5.7656199,0.296875 8.5468699,0.296875 3.2813,0 6.75,-0.296875 9.9375,-0.296875 0.5938,0 1.875,0 1.875,1.89063 0,1.09375 -0.8906,1.1875 -1.5781,1.1875 -2.2813,0.20312 -4.6719,1 -4.6719,3.4843699 0,1.1875 0.5938,2.28125 1.3906,3.6719 l 7.5469,12.7187 h 24.9375 c 0.2031,-2.0937 1.5938,-15.60935 1.5938,-16.59372 0,-2.9843799 -5.1719,-3.2812499 -7.1563,-3.2812499 -1.3906,0 -2.3906,0 -2.3906,-1.98438 0,-1.09375 1.2031,-1.09375 1.3906,-1.09375 4.0781,0 8.3438,0.296875 12.4219,0.296875 2.4844,0 8.7344,-0.296875 11.2187,-0.296875 0.6094,0 1.7969,0 1.7969,1.98438 0,1.09375 -1,1.09375 -2.2812,1.09375 -6.1719,0 -6.1719,0.70312 -6.4688,3.5781199 l -6.0469,62.07815 c -0.2031,2 -0.2031,2.3906 -1.8906,2.3906 -1.5937,0 -1.9844,-0.6875 -2.5937,-1.6875 z m 11.9218,14.6094 19.5625,32.7812 3.1875,-32.7812 z" />
        </g>
      </g>
    </g>
    <g
       id="g10"
       transform="matrix(1.2126118,0,0,-1.2126118,39.996371,291.64729)">
      <g
         id="g12"
         transform="scale(0.1)">
        <path
           d="m 57.4688,23.8438 c 1.6875,0 3.4687,0 3.4687,1.9843 0,2 -1.7812,2 -3.4687,2 H 3.71875 c -1.6875,0 -3.46875,0 -3.46875,-2 0,-1.9843 1.78125,-1.9843 3.46875,-1.9843 H 57.4688"
           style="fill:#000000;fill-opacity:1;fill-rule:nonzero;stroke:none"
           id="path14"
           inkscape:connector-curvature="0" />
        <path
           d="m 135.844,23.8438 c -5.453,-4.1719 -8.141,-8.2344 -8.938,-9.5313 -4.468,-6.85937 -5.265,-13.10937 -5.265,-13.21875 0,-1.1875 1.187,-1.1875 1.984,-1.1875 1.688,0 1.797,0.203125 2.188,1.98438 2.281,9.73437 8.14,18.07817 19.375,22.65627 1.187,0.3906 1.484,0.5937 1.484,1.2812 0,0.7032 -0.594,1 -0.797,1.0938 -4.359,1.6875 -16.391,6.6562 -20.156,23.3437 -0.297,1.2032 -0.406,1.5 -2.094,1.5 -0.797,0 -1.984,0 -1.984,-1.2031 0,-0.1875 0.89,-6.4531 5.062,-13.1094 1.985,-2.9687 4.875,-6.4531 9.141,-9.625 H 62.0469 c -1.7969,0 -3.5781,0 -3.5781,-2 0,-1.9843 1.7812,-1.9843 3.5781,-1.9843 h 73.7971"
           style="fill:#000000;fill-opacity:1;fill-rule:nonzero;stroke:none"
           id="path16"
           inkscape:connector-curvature="0" />
      </g>
    </g>
    <g
       id="g1419"
       transform="translate(8.1642857,34.77381)">
      <path
         style="fill:none;stroke:#000000;stroke-width:1;stroke-linecap:round;stroke-linejoin:miter;stroke-miterlimit:4;stroke-dasharray:none;stroke-opacity:1"
         d="m 76.276637,248.53623 v -4.97261"
         id="path900-6-9-3-18-0-2"
         inkscape:connector-curvature="0" />
      <path
         style="fill:none;stroke:#000000;stroke-width:1;stroke-linecap:round;stroke-linejoin:miter;stroke-miterlimit:4;stroke-dasharray:none;stroke-opacity:1"
         d="m 83.710168,248.53623 v -4.97261"
         id="path900-6-9-3-18-6-2-9"
         inkscape:connector-curvature="0" />
      <path
         style="fill:none;stroke:#000000;stroke-width:1;stroke-linecap:round;stroke-linejoin:miter;stroke-miterlimit:4;stroke-dasharray:none;stroke-opacity:1"
         d="m 83.710169,238.39602 c 0,2.4144 -4.75335,4.06316 -7.292805,4.42495 -0.132647,0.0189 -0.140726,0.74265 -0.140726,0.74265"
         id="path1273-2-8-3"
         inkscape:connector-curvature="0"
         sodipodi:nodetypes="csc" />
      <path
         style="fill:none;stroke:#000000;stroke-width:1;stroke-linecap:round;stroke-linejoin:miter;stroke-miterlimit:4;stroke-dasharray:none;stroke-opacity:1"
         d="m 76.276638,238.39602 c 0,2.4144 4.75335,4.06316 7.292805,4.42495 0.132647,0.0189 0.140726,0.74265 0.140726,0.74265"
         id="path1273-2-8-9-1"
         inkscape:connector-curvature="0"
         sodipodi:nodetypes="csc" />
      <g
         transform="translate(56.117907,-10.186459)"
         id="g1139-9">
        <g
           id="g1128-2"
           transform="translate(0.18898809)">
          <path
             style="fill:none;stroke:#000000;stroke-width:1;stroke-linecap:round;stroke-linejoin:miter;stroke-miterlimit:4;stroke-dasharray:none;stroke-opacity:1"
             d="m 5.1026786,258.72269 v -4.97261"
             id="path900-6-9-3-18-0"
             inkscape:connector-curvature="0" />
          <path
             style="fill:none;stroke:#000000;stroke-width:1;stroke-linecap:round;stroke-linejoin:miter;stroke-miterlimit:4;stroke-dasharray:none;stroke-opacity:1"
             d="m 12.53621,258.72269 v -4.97261"
             id="path900-6-9-3-18-6-2"
             inkscape:connector-curvature="0" />
        </g>
        <rect
           style="opacity:1;fill:#47bb7e;fill-opacity:1;fill-rule:nonzero;stroke:#009647;stroke-width:5;stroke-linecap:round;stroke-linejoin:round;stroke-miterlimit:4;stroke-dasharray:none;stroke-dashoffset:0;stroke-opacity:1;paint-order:markers stroke fill"
           id="rect815-7-9-7-5-5"
           width="27.512346"
           height="11.373376"
           x="2.6857913"
           y="258.24042" />
        <g
           id="g10-7-2-9"
           transform="matrix(0.98418277,0,0,-0.98418277,12.510105,267.83189)">
          <g
             id="g12-1-6-2"
             transform="scale(0.1)">
            <path
               d="m 20.177109,15.534835 c -3.9688,-6.6562699 -7.8438,-8.0468999 -12.2187999,-8.3437699 -1.1875,-0.09375 -2.07812,-0.09375 -2.07812,-1.98438 0,-0.59375 0.48437,-1.09375 1.28125,-1.09375 2.6875,0 5.7656199,0.296875 8.5468699,0.296875 3.2813,0 6.75,-0.296875 9.9375,-0.296875 0.5938,0 1.875,0 1.875,1.89063 0,1.09375 -0.8906,1.1875 -1.5781,1.1875 -2.2813,0.20312 -4.6719,1 -4.6719,3.4843699 0,1.1875 0.5938,2.28125 1.3906,3.6719 l 7.5469,12.7187 h 24.9375 c 0.2031,-2.0937 1.5938,-15.60935 1.5938,-16.59372 0,-2.9843799 -5.1719,-3.2812499 -7.1563,-3.2812499 -1.3906,0 -2.3906,0 -2.3906,-1.98438 0,-1.09375 1.2031,-1.09375 1.3906,-1.09375 4.0781,0 8.3438,0.296875 12.4219,0.296875 2.4844,0 8.7344,-0.296875 11.2187,-0.296875 0.6094,0 1.7969,0 1.7969,1.98438 0,1.09375 -1,1.09375 -2.2812,1.09375 -6.1719,0 -6.1719,0.70312 -6.4688,3.5781199 l -6.0469,62.07815 c -0.2031,2 -0.2031,2.3906 -1.8906,2.3906 -1.5937,0 -1.9844,-0.6875 -2.5937,-1.6875 z m 11.9218,14.6094 19.5625,32.7812 3.1875,-32.7812 z"
               style="fill:#000000;fill-opacity:1;fill-rule:nonzero;stroke:none"
               id="path14-1-1-2"
               inkscape:connector-curvature="0" />
          </g>
        </g>
      </g>
      <path
         style="fill:none;stroke:#000000;stroke-width:1;stroke-linecap:round;stroke-linejoin:miter;stroke-miterlimit:4;stroke-dasharray:none;stroke-opacity:1"
         d="m 68.843105,238.39602 c 0,2.4144 -4.75335,4.06316 -7.292805,4.42495 -0.132647,0.0189 -0.140726,0.74265 -0.140726,0.74265"
         id="path1273-2-8"
         inkscape:connector-curvature="0"
         sodipodi:nodetypes="csc" />
      <path
         style="fill:none;stroke:#000000;stroke-width:1;stroke-linecap:round;stroke-linejoin:miter;stroke-miterlimit:4;stroke-dasharray:none;stroke-opacity:1"
         d="m 61.409574,238.39602 c 0,2.4144 4.75335,4.06316 7.292805,4.42495 0.132647,0.0189 0.140726,0.74265 0.140726,0.74265"
         id="path1273-2-8-9"
         inkscape:connector-curvature="0"
         sodipodi:nodetypes="csc" />
    </g>
    <g
       id="g10-6"
       transform="matrix(1.2110018,0,0,-1.2110018,103.53453,289.94779)">
      <g
         id="g12-3"
         transform="scale(0.1)">
        <path
           d="m 62.565391,19.4844 c 1.4844,0 3.375,0 3.375,1.9844 0,1.9843 -1.8906,1.9843 -3.2812,1.9843 H 3.1591408 c -1.39062,0 -3.28124999,0 -3.28124999,-1.9843 0,-1.9844 1.89062999,-1.9844 3.37499999,-1.9844 z m 0.0938,-19.26565 c 1.3906,0 3.2812,0 3.2812,1.98438 0,1.98437 -1.8906,1.98437 -3.375,1.98437 H 3.2528908 c -1.48437,0 -3.37499999,0 -3.37499999,-1.98437 0,-1.98438 1.89062999,-1.98438 3.28124999,-1.98438 H 62.659191"
           style="fill:#000000;fill-opacity:1;fill-rule:nonzero;stroke:none"
           id="path14-2"
           inkscape:connector-curvature="0" />
      </g>
    </g>
  </g>
</svg>
