<?xml version="1.0" encoding="UTF-8" standalone="no"?>
<!-- Created with Inkscape (http://www.inkscape.org/) -->

<svg
   xmlns:dc="http://purl.org/dc/elements/1.1/"
   xmlns:cc="http://creativecommons.org/ns#"
   xmlns:rdf="http://www.w3.org/1999/02/22-rdf-syntax-ns#"
   xmlns:svg="http://www.w3.org/2000/svg"
   xmlns="http://www.w3.org/2000/svg"
   xmlns:sodipodi="http://sodipodi.sourceforge.net/DTD/sodipodi-0.dtd"
   xmlns:inkscape="http://www.inkscape.org/namespaces/inkscape"
   width="118mm"
   height="37mm"
   viewBox="0 0 118 37"
   version="1.1"
   id="svg8"
   inkscape:version="0.92.3 (2405546, 2018-03-11)"
   sodipodi:docname="proba.svg">
  <defs
     id="defs2" />
  <sodipodi:namedview
     id="base"
     pagecolor="#ffffff"
     bordercolor="#666666"
     borderopacity="1.0"
     inkscape:pageopacity="0.0"
     inkscape:pageshadow="2"
     inkscape:zoom="1.979899"
     inkscape:cx="255.29908"
     inkscape:cy="127.18599"
     inkscape:document-units="mm"
     inkscape:current-layer="layer1"
     showgrid="false"
     inkscape:window-width="1920"
     inkscape:window-height="1172"
     inkscape:window-x="0"
     inkscape:window-y="0"
     inkscape:window-maximized="1" />
  <metadata
     id="metadata5">
    <rdf:RDF>
      <cc:Work
         rdf:about="">
        <dc:format>image/svg+xml</dc:format>
        <dc:type
           rdf:resource="http://purl.org/dc/dcmitype/StillImage" />
        <dc:title></dc:title>
      </cc:Work>
    </rdf:RDF>
  </metadata>
  <g
     inkscape:label="Layer 1"
     inkscape:groupmode="layer"
     id="layer1"
     transform="translate(0,-260)">
    <path
       inkscape:connector-curvature="0"
       id="path900-36"
       d="M 51.59939,281.46507 V 267.01996"
       style="fill:none;stroke:#000000;stroke-width:1;stroke-linecap:round;stroke-linejoin:miter;stroke-miterlimit:4;stroke-dasharray:none;stroke-opacity:1" />
    <path
       inkscape:connector-curvature="0"
       id="path900-7-7"
       d="M 107.07496,281.46508 V 267.01997"
       style="fill:none;stroke:#000000;stroke-width:1;stroke-linecap:round;stroke-linejoin:miter;stroke-miterlimit:4;stroke-dasharray:none;stroke-opacity:1" />
    <path
       inkscape:connector-curvature="0"
       id="path900-56-5"
       d="M 97.971677,281.46508 V 267.01997"
       style="fill:none;stroke:#000000;stroke-width:1;stroke-linecap:round;stroke-linejoin:miter;stroke-miterlimit:4;stroke-dasharray:none;stroke-opacity:1" />
    <g
       id="g979-6"
       transform="translate(-7.2069411,173.67935)">
      <g
         word-spacing="normal"
         letter-spacing="normal"
         font-size-adjust="none"
         font-stretch="normal"
         font-weight="normal"
         font-variant="normal"
         font-style="normal"
         stroke-miterlimit="10.433"
         xml:space="preserve"
         transform="matrix(0.3,0,0,-0.3,-52.5,222.75)"
         id="g977-2"
         style="font-style:normal;font-variant:normal;font-weight:normal;font-stretch:normal;letter-spacing:normal;word-spacing:normal;text-anchor:start;fill:none;fill-opacity:1;fill-rule:evenodd;stroke:#000000;stroke-linecap:butt;stroke-linejoin:miter;stroke-miterlimit:10.43299961;stroke-dasharray:none;stroke-dashoffset:0;stroke-opacity:1"><g
           transform="translate(3.5277778)"
           id="g1103"><path
             style="fill:#000000;stroke-width:0"
             inkscape:connector-curvature="0"
             d="m 433.32998,408.84 v 0.13 l -0.01,0.14 -0.02,0.13 -0.02,0.13 -0.03,0.12 -0.04,0.13 -0.04,0.12 -0.05,0.12 -0.05,0.12 -0.06,0.11 -0.06,0.11 -0.07,0.11 -0.07,0.1 -0.08,0.1 -0.09,0.1 -0.08,0.09 -0.1,0.09 -0.09,0.08 -0.1,0.08 -0.1,0.07 -0.11,0.07 -0.11,0.07 -0.12,0.06 -0.11,0.05 -0.12,0.05 -0.13,0.04 -0.12,0.04 -0.13,0.03 -0.13,0.02 -0.13,0.02 -0.13,0.01 h -0.14 c -1.44,0 -2.64,-1.2 -2.64,-2.64 0,-1.44 1.2,-2.64 2.64,-2.64 1.45,0 2.64,1.2 2.64,2.64 z"
             id="path971-9" /><path
             style="fill:#000000;stroke-width:0"
             inkscape:connector-curvature="0"
             d="m 447.12998,408.84 v 0.13 l -0.01,0.14 -0.02,0.13 -0.02,0.13 -0.03,0.12 -0.04,0.13 -0.04,0.12 -0.05,0.12 -0.05,0.12 -0.06,0.11 -0.06,0.11 -0.07,0.11 -0.08,0.1 -0.08,0.1 -0.08,0.1 -0.09,0.09 -0.09,0.09 -0.09,0.08 -0.1,0.08 -0.11,0.07 -0.11,0.07 -0.11,0.07 -0.11,0.06 -0.12,0.05 -0.12,0.05 -0.12,0.04 -0.12,0.04 -0.13,0.03 -0.13,0.02 -0.13,0.02 -0.14,0.01 h -0.13 c -1.44,0 -2.64,-1.2 -2.64,-2.64 0,-1.44 1.2,-2.64 2.64,-2.64 1.45,0 2.64,1.2 2.64,2.64 z"
             id="path973-1" /><path
             style="fill:#000000;stroke-width:0"
             inkscape:connector-curvature="0"
             d="m 460.92998,408.84 -0.01,0.13 -0.01,0.14 -0.01,0.13 -0.03,0.13 -0.03,0.12 -0.03,0.13 -0.04,0.12 -0.05,0.12 -0.06,0.12 -0.05,0.11 -0.07,0.11 -0.07,0.11 -0.07,0.1 -0.08,0.1 -0.08,0.1 -0.09,0.09 -0.09,0.09 -0.1,0.08 -0.1,0.08 -0.1,0.07 -0.11,0.07 -0.11,0.07 -0.11,0.06 -0.12,0.05 -0.12,0.05 -0.12,0.04 -0.13,0.04 -0.12,0.03 -0.13,0.02 -0.14,0.02 -0.13,0.01 h -0.13 c -1.44,0 -2.65,-1.2 -2.65,-2.64 0,-1.44 1.21,-2.64 2.65,-2.64 1.45,0 2.64,1.2 2.64,2.64 z"
             id="path975-2" /></g></g>    </g>
    <g
       id="g10-0"
       transform="matrix(0.70165145,0,0,-0.70165145,0.26229591,284.48547)">
      <g
         id="g12-9"
         transform="scale(0.1)">
        <path
           d="m 50.3438,152.109 c -1.3907,-1.296 -4.6719,-4.078 -4.6719,-5.859 0,-1 1,-1.984 1.9844,-1.984 0.9062,0 1.3906,0.687 1.8906,1.281 1.1875,1.5 3.4844,4.281 7.8437,6.453 0.7032,0.406 1.6875,0.906 1.6875,2.094 0,0.984 -0.6875,1.484 -1.3906,1.984 -2.1719,1.485 -3.2656,3.281 -4.0625,5.656 -0.2031,0.907 -0.5937,2.188 -1.9844,2.188 -1.3906,0 -1.9843,-1.281 -1.9843,-2.078 0,-0.5 0.7812,-3.672 2.375,-5.766 H 18.5625 c -1.6875,0 -3.4844,0 -3.4844,-1.984 0,-1.985 1.7969,-1.985 3.4844,-1.985 h 31.7813"
           style="fill:#000000;fill-opacity:1;fill-rule:nonzero;stroke:none"
           id="path14-3"
           inkscape:connector-curvature="0" />
        <path
           d="m 29.8281,135.938 -13.3125,-13.5 1.7969,-1.797 11.5156,10.14 11.4375,-10.14 1.7813,1.797 -13.2188,13.5"
           style="fill:#000000;fill-opacity:1;fill-rule:nonzero;stroke:none"
           id="path16-6"
           inkscape:connector-curvature="0" />
        <path
           d="m 32.7656,72.5625 c 1.0938,-4.0781 4.5782,-6.6562 8.8438,-6.6562 3.4687,0 5.7656,2.2812 7.3437,5.4687 1.7032,3.5781 2.9844,9.625 2.9844,9.8281 0,1 -0.8906,1 -1.1875,1 -1,0 -1.0937,-0.4062 -1.3906,-1.7968 -1.3906,-5.5625 -3.2813,-12.3125 -7.4531,-12.3125 -2.0782,0 -3.0782,1.2968 -3.0782,4.5625 0,2.1875 1.1875,6.8593 1.9844,10.3437 l 2.7813,10.7188 c 0.2968,1.5 1.2968,5.2656 1.6875,6.7652 0.5,2.282 1.5,6.047 1.5,6.641 0,1.797 -1.3907,2.688 -2.8907,2.688 -0.5,0 -3.0781,-0.094 -3.875,-3.469 C 38.125,99.0781 33.7656,81.7031 32.5625,76.4375 32.4688,76.0469 28.5,68.0938 21.25,68.0938 c -5.1719,0 -6.1562,4.4687 -6.1562,8.1406 0,5.5625 2.7812,13.4219 5.3593,20.2656 1.1875,2.9844 1.6875,4.375 1.6875,6.266 0,4.468 -3.1875,8.14 -8.1406,8.14 -9.4375,0 -13.125,-14.406 -13.125,-15.2966 0,-1 1,-1 1.20313,-1 0.98437,0 1.09375,0.2031 1.57812,1.7969 2.48438,8.6407 6.26563,12.3127 10.03125,12.3127 0.9063,0 2.4844,-0.094 2.4844,-3.281 0,-2.375 -1.0781,-5.266 -1.6875,-6.7505 -3.6719,-9.8281 -5.75002,-16 -5.75002,-20.8594 0,-9.4375 6.84372,-11.9218 12.21872,-11.9218 6.5469,0 10.125,4.4687 11.8125,6.6562"
           style="fill:#000000;fill-opacity:1;fill-rule:nonzero;stroke:none"
           id="path18-0"
           inkscape:connector-curvature="0" />
        <path
           d="m 151.25,99.4844 c 1.484,0 3.375,0 3.375,1.9846 0,1.984 -1.891,1.984 -3.281,1.984 H 91.8438 c -1.3907,0 -3.2813,0 -3.2813,-1.984 0,-1.9846 1.8906,-1.9846 3.375,-1.9846 z m 0.094,-19.2656 c 1.39,0 3.281,0 3.281,1.9843 0,1.9844 -1.891,1.9844 -3.375,1.9844 H 91.9375 c -1.4844,0 -3.375,0 -3.375,-1.9844 0,-1.9843 1.8906,-1.9843 3.2813,-1.9843 h 59.5002"
           style="fill:#000000;fill-opacity:1;fill-rule:nonzero;stroke:none"
           id="path20-6"
           inkscape:connector-curvature="0" />
        <path
           d="m 221.078,74.5469 c 0.406,-3.9688 3.078,-8.1406 7.75,-8.1406 2.078,0 8.141,1.3906 8.141,9.4375 v 5.5625 h -2.485 v -5.5625 c 0,-5.7657 -2.484,-6.3594 -3.578,-6.3594 -3.265,0 -3.672,4.4687 -3.672,4.9687 v 19.8594 c 0,4.1719 0,8.0465 -3.578,11.7345 -3.875,3.859 -8.828,5.453 -13.609,5.453 -8.141,0 -15,-4.672 -15,-11.219 0,-2.9841 2,-4.6716 4.578,-4.6716 2.781,0 4.563,1.9844 4.563,4.5626 0,1.203 -0.5,4.484 -5.063,4.578 2.688,3.469 7.547,4.563 10.734,4.563 4.86,0 10.532,-3.875 10.532,-12.7036 v -3.6875 c -5.078,-0.2969 -12.032,-0.5938 -18.282,-3.5781 -7.453,-3.375 -9.937,-8.5313 -9.937,-12.9063 0,-8.0469 9.641,-10.5312 15.891,-10.5312 6.562,0 11.125,3.9687 13.015,8.6406 z m -0.687,16.2969 v -9.9375 c 0,-9.4375 -7.157,-12.8125 -11.625,-12.8125 -4.875,0 -8.938,3.4687 -8.938,8.4375 0,5.4687 4.172,13.7187 20.563,14.3125"
           style="fill:#000000;fill-opacity:1;fill-rule:nonzero;stroke:none"
           id="path22-2"
           inkscape:connector-curvature="0" />
        <path
           d="m 254.594,99.9844 v 10.9216 l -13.813,-1.093 v -3.079 c 6.953,0 7.75,-0.687 7.75,-5.562 V 74.5469 c 0,-4.4688 -1.093,-4.4688 -7.75,-4.4688 V 67 c 3.875,0.0938 8.547,0.2969 11.328,0.2969 3.969,0 8.641,0 12.61,-0.2969 v 3.0781 h -2.078 c -7.36,0 -7.547,1.0938 -7.547,4.6719 v 15.2969 c 0,9.8281 4.172,18.6721 11.719,18.6721 0.687,0 0.89,0 1.093,-0.094 -0.297,-0.109 -2.297,-1.297 -2.297,-3.875 0,-2.781 2.094,-4.266 4.282,-4.266 1.781,0 4.265,1.188 4.265,4.36 0,3.187 -3.078,6.062 -7.343,6.062 -7.25,0 -10.829,-6.656 -12.219,-10.9216"
           style="fill:#000000;fill-opacity:1;fill-rule:nonzero;stroke:none"
           id="path24-6"
           inkscape:connector-curvature="0" />
        <path
           d="m 300.047,84.0938 c -8.641,0 -8.641,9.9218 -8.641,12.2031 0,2.6875 0.11,5.8751 1.594,8.3591 0.797,1.188 3.078,3.969 7.047,3.969 8.641,0 8.641,-9.9375 8.641,-12.2187 0,-2.6875 -0.094,-5.8594 -1.579,-8.3438 -0.796,-1.1875 -3.078,-3.9687 -7.062,-3.9687 z m -11.516,-3.875 c 0,0.3906 0,2.6718 1.688,4.6562 3.875,-2.7812 7.953,-3.0781 9.828,-3.0781 9.25,0 16.094,6.8594 16.094,14.5 0,3.6875 -1.578,7.3591 -4.063,9.6411 3.578,3.375 7.141,3.875 8.938,3.875 0.203,0 0.687,0 0.984,-0.094 -1.094,-0.406 -1.578,-1.5 -1.578,-2.688 0,-1.687 1.281,-2.875 2.875,-2.875 1,0 2.875,0.688 2.875,2.969 0,1.703 -1.188,4.875 -5.063,4.875 -1.984,0 -6.359,-0.594 -10.531,-4.672 -4.172,3.281 -8.344,3.578 -10.531,3.578 -9.234,0 -16.094,-6.859 -16.094,-14.4997 0,-4.375 2.188,-8.1407 4.672,-10.2344 -1.281,-1.4844 -3.078,-4.7656 -3.078,-8.25 0,-3.0781 1.297,-6.8438 4.375,-8.8281 -5.969,-1.7032 -9.141,-5.9688 -9.141,-9.9375 0,-7.1563 9.828,-12.625 21.953,-12.625 11.719,0 22.047,5.0781 22.047,12.8125 0,3.4843 -1.39,8.5468 -6.453,11.3281 -5.265,2.7812 -11.031,2.7812 -17.078,2.7812 -2.484,0 -6.766,0 -7.453,0.1094 -3.188,0.3906 -5.266,3.4688 -5.266,6.6563 z m 14.297,-31.3907 c -10.031,0 -16.875,5.0625 -16.875,10.3282 0,4.5625 3.766,8.2343 8.141,8.5468 h 5.859 c 8.547,0 19.672,0 19.672,-8.5468 0,-5.375 -7.062,-10.3282 -16.797,-10.3282"
           style="fill:#000000;fill-opacity:1;fill-rule:nonzero;stroke:none"
           id="path26-1"
           inkscape:connector-curvature="0" />
        <path
           d="M 355.922,101.172 V 74.5469 c 0,-4.4688 -1.094,-4.4688 -7.75,-4.4688 V 67 c 3.484,0.0938 8.547,0.2969 11.234,0.2969 2.578,0 7.75,-0.2031 11.125,-0.2969 v 3.0781 c -6.656,0 -7.75,0 -7.75,4.4688 v 18.2812 c 0,10.3279 7.047,15.8909 13.407,15.8909 6.265,0 7.359,-5.36 7.359,-11.0315 V 74.5469 c 0,-4.4688 -1.094,-4.4688 -7.75,-4.4688 V 67 c 3.469,0.0938 8.547,0.2969 11.219,0.2969 2.593,0 7.75,-0.2031 11.125,-0.2969 v 3.0781 c -6.657,0 -7.75,0 -7.75,4.4688 v 18.2812 c 0,10.3279 7.062,15.8909 13.422,15.8909 6.25,0 7.343,-5.36 7.343,-11.0315 V 74.5469 c 0,-4.4688 -1.093,-4.4688 -7.75,-4.4688 V 67 c 3.485,0.0938 8.547,0.2969 11.235,0.2969 2.578,0 7.75,-0.2031 11.125,-0.2969 v 3.0781 c -5.172,0 -7.657,0 -7.75,2.9844 v 18.9688 c 0,8.5467 0,11.6247 -3.078,15.2027 -1.391,1.688 -4.672,3.672 -10.438,3.672 -8.344,0 -12.719,-5.953 -14.406,-9.734 -1.391,8.641 -8.735,9.734 -13.203,9.734 -7.25,0 -11.922,-4.265 -14.703,-10.422 v 10.422 l -14.016,-1.093 v -3.079 c 6.953,0 7.75,-0.687 7.75,-5.562"
           style="fill:#000000;fill-opacity:1;fill-rule:nonzero;stroke:none"
           id="path28-8"
           inkscape:connector-curvature="0" />
        <path
           d="m 461.078,74.5469 c 0.406,-3.9688 3.078,-8.1406 7.75,-8.1406 2.078,0 8.141,1.3906 8.141,9.4375 v 5.5625 h -2.485 v -5.5625 c 0,-5.7657 -2.484,-6.3594 -3.578,-6.3594 -3.265,0 -3.672,4.4687 -3.672,4.9687 v 19.8594 c 0,4.1719 0,8.0465 -3.578,11.7345 -3.875,3.859 -8.828,5.453 -13.609,5.453 -8.141,0 -15,-4.672 -15,-11.219 0,-2.9841 2,-4.6716 4.578,-4.6716 2.781,0 4.563,1.9844 4.563,4.5626 0,1.203 -0.5,4.484 -5.063,4.578 2.688,3.469 7.547,4.563 10.734,4.563 4.86,0 10.532,-3.875 10.532,-12.7036 v -3.6875 c -5.078,-0.2969 -12.032,-0.5938 -18.282,-3.5781 -7.453,-3.375 -9.937,-8.5313 -9.937,-12.9063 0,-8.0469 9.641,-10.5312 15.891,-10.5312 6.562,0 11.125,3.9687 13.015,8.6406 z m -0.687,16.2969 v -9.9375 c 0,-9.4375 -7.157,-12.8125 -11.625,-12.8125 -4.875,0 -8.938,3.4687 -8.938,8.4375 0,5.4687 4.172,13.7187 20.563,14.3125"
           style="fill:#000000;fill-opacity:1;fill-rule:nonzero;stroke:none"
           id="path30-7"
           inkscape:connector-curvature="0" />
        <path
           d="m 506.516,90.3438 c 2.968,3.7812 6.75,8.6406 9.14,11.2192 3.078,3.578 7.141,5.078 11.813,5.171 v 3.079 c -2.578,-0.204 -5.563,-0.297 -8.141,-0.297 -2.984,0 -8.25,0.203 -9.547,0.297 v -3.079 c 2.094,-0.203 2.891,-1.484 2.891,-3.078 0,-1.593 -1,-2.875 -1.5,-3.484 l -6.156,-7.7345 -7.75,10.0315 c -0.891,0.984 -0.891,1.187 -0.891,1.781 0,1.484 1.5,2.391 3.484,2.484 v 3.079 c -2.593,-0.094 -9.14,-0.297 -10.734,-0.297 -2.078,0 -6.75,0.093 -9.437,0.297 v -3.079 c 6.953,0 7.046,-0.093 11.718,-6.062 l 9.844,-12.8126 -9.344,-11.8125 c -4.765,-5.7656 -10.625,-5.9688 -12.718,-5.9688 V 67 c 2.593,0.2031 5.671,0.2969 8.25,0.2969 2.875,0 7.046,-0.2031 9.437,-0.2969 v 3.0781 C 494.688,70.375 494,71.6719 494,73.1563 c 0,2.1875 2.875,5.4687 8.938,12.625 l 7.546,-9.9375 c 0.797,-1.0938 2.079,-2.6875 2.079,-3.2813 0,-0.8906 -0.891,-2.3906 -3.563,-2.4844 V 67 c 2.969,0.0938 8.531,0.2969 10.719,0.2969 2.687,0 6.562,-0.0938 9.547,-0.2969 v 3.0781 c -5.375,0 -7.157,0.2032 -9.438,3.0782 l -13.312,17.1875"
           style="fill:#000000;fill-opacity:1;fill-rule:nonzero;stroke:none"
           id="path32-9"
           inkscape:connector-curvature="0" />
        <path
           d="m 454.703,42.5469 c -0.562,-0.4844 -3.015,-2.6719 -3.015,-3.7969 0,-0.9844 0.843,-1.75 1.75,-1.75 0.781,0 1.203,0.4844 1.625,1.0469 1.75,2.0469 3.921,3.5156 5.75,4.3594 0.984,0.4218 1.765,0.7812 1.765,1.9062 0,0.9063 -0.703,1.3281 -1.344,1.6719 -2.312,1.4062 -2.937,3.1719 -3.296,4.0781 -0.141,0.4219 -0.563,1.4844 -1.75,1.4844 -0.5,0 -1.688,-0.4219 -1.688,-1.7656 0,-0.9844 1.047,-2.9532 1.688,-3.7969 h -25.25 c -1.125,0 -2.813,0 -2.813,-1.6719 0,-1.7656 1.625,-1.7656 2.813,-1.7656 h 23.765"
           style="fill:#000000;fill-opacity:1;fill-rule:nonzero;stroke:none"
           id="path34-2"
           inkscape:connector-curvature="0" />
        <path
           d="m 443.734,12.3906 c -0.343,-1.4062 -0.984,-4.0781 -1.125,-4.15622 -1.328,-2.17188 -4.14,-5.96875 -8.5,-5.96875 -4.859,0 -4.859,4.5625 -4.859,5.82812 0,4.15625 1.969,9.14065 3.938,14.28125 0.562,1.4063 0.984,2.4531 0.984,3.5781 0,3.6563 -3.094,6.0469 -6.672,6.0469 -7.031,0 -10.203,-9.625 -10.203,-10.75 0,-0.9219 0.984,-0.9219 1.203,-0.9219 0.984,0 1.047,0.3594 1.266,1.125 1.687,5.7657 4.781,8.5782 7.515,8.5782 1.203,0 1.766,-0.7657 1.766,-2.4532 0,-1.625 -0.563,-3.0937 -1.266,-4.7187 -3.797,-9.7031 -3.797,-11.7344 -3.797,-13.64065 0,-1.1875 0,-4.42187 2.594,-6.67187 2.047,-1.687505 4.781,-2.250005 7.25,-2.250005 4.422,0 6.813,2.390625 9.141,4.640625 1.547,-4.5 6.25,-4.640625 7.094,-4.640625 2.39,0 4.218,1.406255 5.562,3.718755 1.547,2.75 2.531,6.82817 2.531,7.03127 0,0.9219 -0.984,0.9219 -1.203,0.9219 -0.984,0 -1.047,-0.2813 -1.547,-2.18755 -0.843,-3.29687 -2.172,-7.51562 -5.125,-7.51562 -1.828,0 -2.328,1.60937 -2.328,3.4375 0,1.20312 0.563,3.73437 1.063,5.56247 0.484,1.8907 1.187,4.7813 1.547,6.3282 l 1.609,6.25 c 0.422,1.7656 1.203,4.8593 1.203,5.2031 0,1.4062 -1.125,2.25 -2.328,2.25 -2.594,0 -3.094,-2.0313 -3.656,-4.2813 l -3.657,-14.625"
           style="fill:#000000;fill-opacity:1;fill-rule:nonzero;stroke:none"
           id="path36-0"
           inkscape:connector-curvature="0" />
      </g>
    </g>
    <rect
       style="opacity:1;fill:#000000;fill-opacity:0;fill-rule:nonzero;stroke:#d58384;stroke-width:5.28501129;stroke-linecap:round;stroke-linejoin:round;stroke-miterlimit:4;stroke-dasharray:none;stroke-dashoffset:0;stroke-opacity:1;paint-order:markers stroke fill"
       id="rect815-3-6-1-3-6-2-9-2"
       width="3.1355963"
       height="2.3968327"
       x="105.50716"
       y="264.69687" />
    <rect
       style="opacity:1;fill:#000000;fill-opacity:0;fill-rule:nonzero;stroke:#d58384;stroke-width:5.28501129;stroke-linecap:round;stroke-linejoin:round;stroke-miterlimit:4;stroke-dasharray:none;stroke-dashoffset:0;stroke-opacity:1;paint-order:markers stroke fill"
       id="rect815-3-6-1-3-6-2-9-3"
       width="3.1355963"
       height="2.3968327"
       x="96.403877"
       y="264.69687" />
    <g
       id="g1138"
       transform="translate(0.13362616)">
      <path
         transform="translate(-0.13363476,-1.2291666e-6)"
         inkscape:connector-curvature="0"
         id="path900-5-5"
         d="M 60.604158,281.46508 V 267.01997"
         style="fill:none;stroke:#000000;stroke-width:1;stroke-linecap:round;stroke-linejoin:miter;stroke-miterlimit:4;stroke-dasharray:none;stroke-opacity:1" />
      <path
         inkscape:connector-curvature="0"
         id="path900-3-3"
         d="M 114.03656,281.6547 V 267.20959"
         style="fill:none;stroke:#000000;stroke-width:1;stroke-linecap:round;stroke-linejoin:miter;stroke-miterlimit:4;stroke-dasharray:none;stroke-opacity:1"
         transform="translate(-25.377563,-0.18962281)" />
    </g>
    <rect
       style="opacity:1;fill:#000000;fill-opacity:0;fill-rule:nonzero;stroke:#d58384;stroke-width:5.28501129;stroke-linecap:round;stroke-linejoin:round;stroke-miterlimit:4;stroke-dasharray:none;stroke-dashoffset:0;stroke-opacity:1;paint-order:markers stroke fill"
       id="rect815-3-6-1-3-6-2-9-7"
       width="3.1355963"
       height="2.3968327"
       x="87.224754"
       y="264.69687" />
    <rect
       style="opacity:1;fill:#000000;fill-opacity:0;fill-rule:nonzero;stroke:#d58384;stroke-width:5.28501129;stroke-linecap:round;stroke-linejoin:round;stroke-miterlimit:4;stroke-dasharray:none;stroke-dashoffset:0;stroke-opacity:1;paint-order:markers stroke fill"
       id="rect815-3-6-1-3-6-2-9-5"
       width="3.1355963"
       height="2.3968327"
       x="59.036362"
       y="264.69687" />
    <rect
       style="opacity:1;fill:#000000;fill-opacity:0;fill-rule:nonzero;stroke:#d58384;stroke-width:5.28501129;stroke-linecap:round;stroke-linejoin:round;stroke-miterlimit:4;stroke-dasharray:none;stroke-dashoffset:0;stroke-opacity:1;paint-order:markers stroke fill"
       id="rect815-3-6-1-3-6-2-9-9"
       width="3.1355963"
       height="2.3968327"
       x="50.031593"
       y="264.69687" />
    <path
       d="m 44.91173,296.48508 c 0,-0.10831 0,-0.18243 -0.328361,-0.79811 -2.414065,-4.56635 -3.034303,-11.41868 -3.034303,-16.95985 0,-6.31081 0.735773,-12.61591 3.113362,-17.14801 0.249302,-0.43325 0.249302,-0.5074 0.249302,-0.61568 0,-0.25084 -0.07601,-0.35916 -0.191549,-0.35916 -0.194584,0 -1.933684,2.46274 -3.073822,7.06898 -0.985085,3.98488 -1.219194,8.00962 -1.219194,11.05387 0,2.82186 0.212828,7.21149 1.276962,11.30464 1.158395,4.45804 2.82147,6.81247 3.016054,6.81247 0.115544,0 0.191549,-0.1083 0.191549,-0.35915"
       style="fill:#000000;fill-opacity:1;fill-rule:nonzero;stroke:none;stroke-width:0.26644769"
       id="path14-5"
       inkscape:connector-curvature="0" />
    <path
       d="m 113.22352,260.96342 c 0,0.10831 0,0.18243 0.32836,0.79811 2.41407,4.56635 3.03431,11.41868 3.03431,16.95985 0,6.31081 -0.73578,12.61591 -3.11337,17.14801 -0.2493,0.43325 -0.2493,0.5074 -0.2493,0.61568 0,0.25084 0.076,0.35916 0.19155,0.35916 0.19459,0 1.93369,-2.46274 3.07382,-7.06898 0.98509,-3.98488 1.2192,-8.00962 1.2192,-11.05387 0,-2.82186 -0.21283,-7.21149 -1.27696,-11.30464 -1.1584,-4.45804 -2.82147,-6.81247 -3.01606,-6.81247 -0.11554,0 -0.19155,0.1083 -0.19155,0.35915"
       style="fill:#000000;fill-opacity:1;fill-rule:nonzero;stroke:none;stroke-width:0.26644772"
       id="path14-5-2"
       inkscape:connector-curvature="0" />
    <g
       id="g10"
       transform="matrix(0.51502146,0,0,-0.51502146,104.80496,267.41219)">
      <g
         id="g12"
         transform="scale(0.1)">
        <path
           d="m 32.7656,20.5625 c 1.0938,-4.0781 4.5782,-6.6562 8.8438,-6.6562 3.4687,0 5.7656,2.2812 7.3437,5.4687 1.7032,3.5781 2.9844,9.625 2.9844,9.8281 0,1 -0.8906,1 -1.1875,1 -1,0 -1.0937,-0.4062 -1.3906,-1.7968 -1.3906,-5.5625 -3.2813,-12.3125 -7.4531,-12.3125 -2.0782,0 -3.0782,1.2968 -3.0782,4.5625 0,2.1875 1.1875,6.8593 1.9844,10.3437 l 2.7813,10.7188 c 0.2968,1.5 1.2968,5.2656 1.6875,6.7656 0.5,2.2812 1.5,6.0469 1.5,6.6406 0,1.7969 -1.3907,2.6875 -2.8907,2.6875 -0.5,0 -3.0781,-0.0937 -3.875,-3.4687 C 38.125,47.0781 33.7656,29.7031 32.5625,24.4375 32.4688,24.0469 28.5,16.0938 21.25,16.0938 c -5.1719,0 -6.1562,4.4687 -6.1562,8.1406 0,5.5625 2.7812,13.4219 5.3593,20.2656 1.1875,2.9844 1.6875,4.375 1.6875,6.2656 0,4.4688 -3.1875,8.1407 -8.1406,8.1407 -9.4375,0 -13.125,-14.4063 -13.125,-15.2969 0,-1 1,-1 1.20313,-1 0.98437,0 1.09375,0.2031 1.57812,1.7969 2.48438,8.6406 6.26563,12.3125 10.03125,12.3125 0.9063,0 2.4844,-0.0938 2.4844,-3.2813 0,-2.375 -1.0781,-5.2656 -1.6875,-6.75 -3.6719,-9.8281 -5.75002,-16 -5.75002,-20.8594 0,-9.4375 6.84372,-11.9218 12.21872,-11.9218 6.5469,0 10.125,4.4687 11.8125,6.6562"
           style="fill:#000000;fill-opacity:1;fill-rule:nonzero;stroke:none"
           id="path14"
           inkscape:connector-curvature="0" />
        <path
           d="m 78.5469,44.7031 c 0,1.9063 -0.1406,1.9688 -2.1094,1.9688 -4.5,-4.4219 -10.8906,-4.4844 -13.7812,-4.4844 v -2.5312 c 1.6875,0 6.3281,0 10.2031,1.9687 V 5.76563 c 0,-2.32813 0,-3.23438 -7.0313,-3.23438 H 63.1563 V 0 C 64.4219,0.0625 73.0625,0.28125 75.6719,0.28125 77.8438,0.28125 86.7031,0.0625 88.25,0 v 2.53125 h -2.6719 c -7.0312,0 -7.0312,0.90625 -7.0312,3.23438 V 44.7031"
           style="fill:#000000;fill-opacity:1;fill-rule:nonzero;stroke:none"
           id="path16"
           inkscape:connector-curvature="0" />
      </g>
    </g>
    <g
       id="g10-2"
       transform="matrix(0.50209205,0,0,-0.50209205,95.677742,267.3741)">
      <g
         id="g12-8"
         transform="scale(0.1)">
        <path
           d="m 32.7656,20.5625 c 1.0938,-4.0781 4.5782,-6.6562 8.8438,-6.6562 3.4687,0 5.7656,2.2812 7.3437,5.4687 1.7032,3.5781 2.9844,9.625 2.9844,9.8281 0,1 -0.8906,1 -1.1875,1 -1,0 -1.0937,-0.4062 -1.3906,-1.7968 -1.3906,-5.5625 -3.2813,-12.3125 -7.4531,-12.3125 -2.0782,0 -3.0782,1.2968 -3.0782,4.5625 0,2.1875 1.1875,6.8593 1.9844,10.3437 l 2.7813,10.7188 c 0.2968,1.5 1.2968,5.2656 1.6875,6.7656 0.5,2.2812 1.5,6.0469 1.5,6.6406 0,1.7969 -1.3907,2.6875 -2.8907,2.6875 -0.5,0 -3.0781,-0.0937 -3.875,-3.4687 C 38.125,47.0781 33.7656,29.7031 32.5625,24.4375 32.4688,24.0469 28.5,16.0938 21.25,16.0938 c -5.1719,0 -6.1562,4.4687 -6.1562,8.1406 0,5.5625 2.7812,13.4219 5.3593,20.2656 1.1875,2.9844 1.6875,4.375 1.6875,6.2656 0,4.4688 -3.1875,8.1407 -8.1406,8.1407 -9.4375,0 -13.125,-14.4063 -13.125,-15.2969 0,-1 1,-1 1.20313,-1 0.98437,0 1.09375,0.2031 1.57812,1.7969 2.48438,8.6406 6.26563,12.3125 10.03125,12.3125 0.9063,0 2.4844,-0.0938 2.4844,-3.2813 0,-2.375 -1.0781,-5.2656 -1.6875,-6.75 -3.6719,-9.8281 -5.75002,-16 -5.75002,-20.8594 0,-9.4375 6.84372,-11.9218 12.21872,-11.9218 6.5469,0 10.125,4.4687 11.8125,6.6562"
           style="fill:#000000;fill-opacity:1;fill-rule:nonzero;stroke:none"
           id="path14-9"
           inkscape:connector-curvature="0" />
        <path
           d="M 90.5,12.7969 H 88.1094 C 87.9063,11.25 87.2031,7.09375 86.2813,6.39063 85.7188,5.96875 80.3125,5.96875 79.3281,5.96875 H 66.3906 c 7.375,6.54685 9.8438,8.51565 14.0625,11.81255 5.2032,4.1562 10.0469,8.5156 10.0469,15.1875 0,8.5156 -7.4531,13.7031 -16.4531,13.7031 -8.7188,0 -14.625,-6.1094 -14.625,-12.5781 0,-3.5782 3.0312,-3.9375 3.7344,-3.9375 1.6875,0 3.7187,1.2031 3.7187,3.7343 0,1.2657 -0.4844,3.7188 -4.1406,3.7188 2.1719,5 6.9531,6.5469 10.2656,6.5469 7.0313,0 10.6875,-5.4844 10.6875,-11.1875 0,-6.1094 -4.3594,-10.9688 -6.6094,-13.5 L 60.125,2.73438 C 59.4219,2.10938 59.4219,1.96875 59.4219,0 H 88.3906 L 90.5,12.7969"
           style="fill:#000000;fill-opacity:1;fill-rule:nonzero;stroke:none"
           id="path16-7"
           inkscape:connector-curvature="0" />
      </g>
    </g>
    <g
       id="g10-3"
       transform="matrix(0.35357201,0,0,-0.35357201,60.394173,266.51372)">
      <g
         id="g12-6"
         transform="matrix(0.14099781,0,0,0.14099781,73.831534,-2.4455933)">
        <path
           d="m 32.7656,21.5625 c 1.0938,-4.0781 4.5782,-6.6562 8.8438,-6.6562 3.4687,0 5.7656,2.2812 7.3437,5.4687 1.7032,3.5781 2.9844,9.625 2.9844,9.8281 0,1 -0.8906,1 -1.1875,1 -1,0 -1.0937,-0.4062 -1.3906,-1.7968 -1.3906,-5.5625 -3.2813,-12.3125 -7.4531,-12.3125 -2.0782,0 -3.0782,1.2968 -3.0782,4.5625 0,2.1875 1.1875,6.8593 1.9844,10.3437 l 2.7813,10.7188 c 0.2968,1.5 1.2968,5.2656 1.6875,6.7656 0.5,2.2812 1.5,6.0469 1.5,6.6406 0,1.7969 -1.3907,2.6875 -2.8907,2.6875 -0.5,0 -3.0781,-0.0937 -3.875,-3.4687 C 38.125,48.0781 33.7656,30.7031 32.5625,25.4375 32.4688,25.0469 28.5,17.0938 21.25,17.0938 c -5.1719,0 -6.1562,4.4687 -6.1562,8.1406 0,5.5625 2.7812,13.4219 5.3593,20.2656 1.1875,2.9844 1.6875,4.375 1.6875,6.2656 0,4.4688 -3.1875,8.1407 -8.1406,8.1407 -9.4375,0 -13.125,-14.4063 -13.125,-15.2969 0,-1 1,-1 1.20313,-1 0.98437,0 1.09375,0.2031 1.57812,1.7969 2.48438,8.6406 6.26563,12.3125 10.03125,12.3125 0.9063,0 2.4844,-0.0938 2.4844,-3.2813 0,-2.375 -1.0781,-5.2656 -1.6875,-6.75 -3.6719,-9.8281 -5.75002,-16 -5.75002,-20.8594 0,-9.4375 6.84372,-11.9218 12.21872,-11.9218 6.5469,0 10.125,4.4687 11.8125,6.6562"
           style="fill:#000000;fill-opacity:1;fill-rule:nonzero;stroke:none"
           id="path14-1"
           inkscape:connector-curvature="0" />
        <path
           d="m 74.1875,24.4844 c 5.4844,0 9.4219,-3.7969 9.4219,-11.3281 0,-8.7188 -5.0625,-11.31255 -9.1406,-11.31255 -2.8125,0 -9,0.76563 -11.9532,4.92188 3.3125,0.14062 4.0782,2.45312 4.0782,3.93747 0,2.25 -1.6875,3.8594 -3.8594,3.8594 -1.9688,0 -3.9375,-1.1875 -3.9375,-4.0781 0,-6.6094 7.3125,-10.89065 15.8125,-10.89065 9.7812,0 16.5312,6.53125 16.5312,13.56255 0,5.4843 -4.5,10.9687 -12.2343,12.5937 7.375,2.6719 10.0468,7.9375 10.0468,12.2344 0,5.5469 -6.3906,9.6875 -14.2031,9.6875 -7.7969,0 -13.7812,-3.7813 -13.7812,-9.4063 0,-2.3906 1.5468,-3.7343 3.6562,-3.7343 2.1875,0 3.5938,1.625 3.5938,3.5937 0,2.0313 -1.4063,3.5156 -3.5938,3.6563 2.4688,3.0937 7.3125,3.8593 9.9219,3.8593 3.1562,0 7.5937,-1.5468 7.5937,-7.6562 0,-2.9531 -0.9843,-6.1875 -2.8125,-8.375 C 77,26.9375 75.0313,26.7969 71.5156,26.5938 c -1.75,-0.1407 -1.8906,-0.1407 -2.25,-0.2188 -0.1406,0 -0.7031,-0.1406 -0.7031,-0.9062 0,-0.9844 0.6406,-0.9844 1.8281,-0.9844 h 3.7969"
           style="fill:#000000;fill-opacity:1;fill-rule:nonzero;stroke:none"
           id="path16-2"
           inkscape:connector-curvature="0" />
      </g>
    </g>
    <g
       id="g10-9"
       transform="matrix(0.47880287,0,0,-0.47880287,49.307496,267.28868)">
      <g
         id="g12-3"
         transform="scale(0.1)">
        <path
           d="m 32.7656,20.5625 c 1.0938,-4.0781 4.5782,-6.6562 8.8438,-6.6562 3.4687,0 5.7656,2.2812 7.3437,5.4687 1.7032,3.5781 2.9844,9.625 2.9844,9.8281 0,1 -0.8906,1 -1.1875,1 -1,0 -1.0937,-0.4062 -1.3906,-1.7968 -1.3906,-5.5625 -3.2813,-12.3125 -7.4531,-12.3125 -2.0782,0 -3.0782,1.2968 -3.0782,4.5625 0,2.1875 1.1875,6.8593 1.9844,10.3437 l 2.7813,10.7188 c 0.2968,1.5 1.2968,5.2656 1.6875,6.7656 0.5,2.2812 1.5,6.0469 1.5,6.6406 0,1.7969 -1.3907,2.6875 -2.8907,2.6875 -0.5,0 -3.0781,-0.0937 -3.875,-3.4687 C 38.125,47.0781 33.7656,29.7031 32.5625,24.4375 32.4688,24.0469 28.5,16.0938 21.25,16.0938 c -5.1719,0 -6.1562,4.4687 -6.1562,8.1406 0,5.5625 2.7812,13.4219 5.3593,20.2656 1.1875,2.9844 1.6875,4.375 1.6875,6.2656 0,4.4688 -3.1875,8.1407 -8.1406,8.1407 -9.4375,0 -13.125,-14.4063 -13.125,-15.2969 0,-1 1,-1 1.20313,-1 0.98437,0 1.09375,0.2031 1.57812,1.7969 2.48438,8.6406 6.26563,12.3125 10.03125,12.3125 0.9063,0 2.4844,-0.0938 2.4844,-3.2813 0,-2.375 -1.0781,-5.2656 -1.6875,-6.75 -3.6719,-9.8281 -5.75002,-16 -5.75002,-20.8594 0,-9.4375 6.84372,-11.9218 12.21872,-11.9218 6.5469,0 10.125,4.4687 11.8125,6.6562"
           style="fill:#000000;fill-opacity:1;fill-rule:nonzero;stroke:none"
           id="path14-19"
           inkscape:connector-curvature="0" />
        <path
           d="m 77,46.6719 c 0.0781,0.1406 0.2813,1.0625 0.2813,1.125 0,0.3594 -0.2813,0.9844 -1.125,0.9844 -1.4063,0 -7.2344,-0.5625 -9,-0.7032 -0.5625,-0.0625 -1.5469,-0.1406 -1.5469,-1.6093 0,-0.9844 0.9844,-0.9844 1.8281,-0.9844 3.375,0 3.375,-0.5 3.375,-1.0625 0,-0.4844 -0.1406,-0.9063 -0.2812,-1.5313 L 60.625,3.09375 C 60.2656,1.82813 60.2656,1.6875 60.2656,1.54688 c 0,-1.062505 0.8438,-2.250005 2.3907,-2.250005 1.9062,0 2.8125,1.40625 3.2343,2.953125 0.1407,0.28125 3.1719,12.6563 3.4532,13.6406 4.9843,-0.5 9,-2.1093 9,-5.7656 0,-0.35937 0,-0.70312 -0.1407,-1.40625 -0.2812,-1.0625 -0.2812,-1.40625 -0.2812,-2.1875 0,-4.98437 4.0781,-7.234375 7.4531,-7.234375 6.8125,0 8.9219,10.687505 8.9219,10.750025 0,0.9219 -0.9063,0.9219 -1.125,0.9219 -0.9844,0 -1.0469,-0.3594 -1.4063,-1.68755 C 90.9219,6.25 89.0313,1.26563 85.5781,1.26563 c -1.8906,0 -2.4531,1.75 -2.4531,3.65625 0,1.1875 0,1.32812 0.4219,3.15625 0.0625,0.21875 0.3437,1.40625 0.3437,2.18747 0,6.25 -8.4375,7.2344 -11.3906,7.4532 2.0469,1.2656 4.6406,3.5781 5.8438,4.6406 3.5781,3.375 7.0937,6.6719 11.0312,6.6719 0.8438,0 1.7656,-0.2032 2.3281,-0.9063 -3.0312,-0.5 -3.6562,-2.8906 -3.6562,-3.9375 0,-1.5469 1.1875,-2.6094 2.8125,-2.6094 1.8906,0 4,1.5469 4,4.5 0,2.3282 -1.6875,4.9219 -5.4063,4.9219 -4.0156,0 -7.6718,-2.875 -11.25,-6.1875 C 75.25,22 72.9219,19.8281 70.0469,18.625 L 77,46.6719"
           style="fill:#000000;fill-opacity:1;fill-rule:nonzero;stroke:none"
           id="path16-4"
           inkscape:connector-curvature="0" />
      </g>
    </g>
    <g
       id="g10-7"
       transform="matrix(0.50327612,0,0,-0.50327612,56.487822,267.3599)">
      <g
         id="g12-84"
         transform="scale(0.1)">
        <path
           d="m 32.7656,20.5625 c 1.0938,-4.0781 4.5782,-6.6562 8.8438,-6.6562 3.4687,0 5.7656,2.2812 7.3437,5.4687 1.7032,3.5781 2.9844,9.625 2.9844,9.8281 0,1 -0.8906,1 -1.1875,1 -1,0 -1.0937,-0.4062 -1.3906,-1.7968 -1.3906,-5.5625 -3.2813,-12.3125 -7.4531,-12.3125 -2.0782,0 -3.0782,1.2968 -3.0782,4.5625 0,2.1875 1.1875,6.8593 1.9844,10.3437 l 2.7813,10.7188 c 0.2968,1.5 1.2968,5.2656 1.6875,6.7656 0.5,2.2812 1.5,6.0469 1.5,6.6406 0,1.7969 -1.3907,2.6875 -2.8907,2.6875 -0.5,0 -3.0781,-0.0937 -3.875,-3.4687 C 38.125,47.0781 33.7656,29.7031 32.5625,24.4375 32.4688,24.0469 28.5,16.0938 21.25,16.0938 c -5.1719,0 -6.1562,4.4687 -6.1562,8.1406 0,5.5625 2.7812,13.4219 5.3593,20.2656 1.1875,2.9844 1.6875,4.375 1.6875,6.2656 0,4.4688 -3.1875,8.1407 -8.1406,8.1407 -9.4375,0 -13.125,-14.4063 -13.125,-15.2969 0,-1 1,-1 1.20313,-1 0.98437,0 1.09375,0.2031 1.57812,1.7969 2.48438,8.6406 6.26563,12.3125 10.03125,12.3125 0.9063,0 2.4844,-0.0938 2.4844,-3.2813 0,-2.375 -1.0781,-5.2656 -1.6875,-6.75 -3.6719,-9.8281 -5.75002,-16 -5.75002,-20.8594 0,-9.4375 6.84372,-11.9218 12.21872,-11.9218 6.5469,0 10.125,4.4687 11.8125,6.6562"
           style="fill:#000000;fill-opacity:1;fill-rule:nonzero;stroke:none"
           id="path14-50"
           inkscape:connector-curvature="0" />
        <path
           d="m 78,46.6719 c 0.0781,0.1406 0.2813,1.0625 0.2813,1.125 0,0.3594 -0.2813,0.9844 -1.125,0.9844 -1.4063,0 -7.2344,-0.5625 -9,-0.7032 -0.5625,-0.0625 -1.5469,-0.1406 -1.5469,-1.6093 0,-0.9844 0.9844,-0.9844 1.8281,-0.9844 3.375,0 3.375,-0.5 3.375,-1.0625 0,-0.4844 -0.1406,-0.9063 -0.2812,-1.5313 L 61.625,3.09375 C 61.2656,1.82813 61.2656,1.6875 61.2656,1.54688 c 0,-1.062505 0.8438,-2.250005 2.3907,-2.250005 1.9062,0 2.8125,1.40625 3.2343,2.953125 0.1407,0.28125 3.1719,12.6563 3.4532,13.6406 4.9843,-0.5 9,-2.1093 9,-5.7656 0,-0.35937 0,-0.70312 -0.1407,-1.40625 -0.2812,-1.0625 -0.2812,-1.40625 -0.2812,-2.1875 0,-4.98437 4.0781,-7.234375 7.4531,-7.234375 6.8125,0 8.9219,10.687505 8.9219,10.750025 0,0.9219 -0.9063,0.9219 -1.125,0.9219 -0.9844,0 -1.0469,-0.3594 -1.4063,-1.68755 C 91.9219,6.25 90.0313,1.26563 86.5781,1.26563 c -1.8906,0 -2.4531,1.75 -2.4531,3.65625 0,1.1875 0,1.32812 0.4219,3.15625 0.0625,0.21875 0.3437,1.40625 0.3437,2.18747 0,6.25 -8.4375,7.2344 -11.3906,7.4532 2.0469,1.2656 4.6406,3.5781 5.8438,4.6406 3.5781,3.375 7.0937,6.6719 11.0312,6.6719 0.8438,0 1.7656,-0.2032 2.3281,-0.9063 -3.0312,-0.5 -3.6562,-2.8906 -3.6562,-3.9375 0,-1.5469 1.1875,-2.6094 2.8125,-2.6094 1.8906,0 4,1.5469 4,4.5 0,2.3282 -1.6875,4.9219 -5.4063,4.9219 -4.0156,0 -7.6718,-2.875 -11.25,-6.1875 C 76.25,22 73.9219,19.8281 71.0469,18.625 L 78,46.6719"
           style="fill:#000000;fill-opacity:1;fill-rule:nonzero;stroke:none"
           id="path16-3"
           inkscape:connector-curvature="0" />
        <path
           d="m 131.93631,16.634984 c 0.63777,0 1.59414,0 1.59414,0.95665 0,0.992082 -0.91215,0.992082 -1.59414,0.992082 h -23.74818 c -0.63776,0 -1.59413,0 -1.59413,-0.95665 0,-0.992082 0.91215,-0.992082 1.59413,-0.992082 h 23.74818"
           style="fill:#000000;fill-opacity:1;fill-rule:nonzero;stroke:none;stroke-width:0.56690407"
           id="path18"
           inkscape:connector-curvature="0" />
        <path
           d="m 153.00368,44.7031 c 0,1.9063 -0.141,1.9688 -2.109,1.9688 -4.5,-4.4219 -10.891,-4.4844 -13.782,-4.4844 v -2.5312 c 1.688,0 6.328,0 10.203,1.9687 V 5.76563 c 0,-2.32813 0,-3.23438 -7.031,-3.23438 h -2.672 V 0 c 1.266,0.0625 9.907,0.28125 12.516,0.28125 2.172,0 11.031,-0.21875 12.578,-0.28125 v 2.53125 h -2.672 c -7.031,0 -7.031,0.90625 -7.031,3.23438 V 44.7031"
           style="fill:#000000;fill-opacity:1;fill-rule:nonzero;stroke:none"
           id="path20"
           inkscape:connector-curvature="0" />
      </g>
    </g>
    <rect
       style="opacity:1;fill:#c9c9c9;fill-opacity:1;fill-rule:nonzero;stroke:#808080;stroke-width:5;stroke-linecap:round;stroke-linejoin:round;stroke-miterlimit:4;stroke-dasharray:none;stroke-dashoffset:0;stroke-opacity:1;paint-order:markers stroke fill"
       id="rect815-7-0"
       width="64.153862"
       height="10.850014"
       x="47.260262"
       y="280.3461" />
    <path
       style="font-style:normal;font-variant:normal;font-weight:normal;font-stretch:normal;letter-spacing:normal;word-spacing:normal;text-anchor:start;fill:#000000;fill-opacity:1;fill-rule:evenodd;stroke:#000000;stroke-width:0;stroke-linecap:butt;stroke-linejoin:miter;stroke-miterlimit:10.43299961;stroke-dasharray:none;stroke-dashoffset:0;stroke-opacity:1"
       inkscape:connector-curvature="0"
       d="m 78.609677,285.96729 0.0326,-0.19856 0.52587,-2.10348 c 0.0667,-0.26992 0.0838,-0.29319 0.41573,-0.29319 h 0.74304 c 0.64222,0 1.05174,0.20787 1.05174,0.74149 0,0.3025 -0.15512,0.96643 -0.45606,1.24565 -0.38781,0.34593 -0.85008,0.40953 -1.1929,0.40953 h -1.08742 l -0.0326,0.19856 h 1.3139 c 1.09828,0 2.17173,-0.802 2.17173,-1.66759 0,-0.59567 -0.5088,-1.16808 -1.52176,-1.16808 h -2.5037 c -0.14737,0 -0.23269,0 -0.23269,0.14737 0,0.0931 0.0698,0.0931 0.22493,0.0931 0.0993,0 0.24044,0.006 0.33197,0.014 0.1241,0.0171 0.17063,0.0388 0.17063,0.1241 0,0.031 -0.008,0.0559 -0.0326,0.14737 l -1.03468,4.14957 c -0.0776,0.30249 -0.0915,0.36299 -0.70271,0.36299 -0.1303,0 -0.21562,0 -0.21562,0.14891 0,0.0915 0.0915,0.0915 0.11324,0.0915 0.21872,0 0.76631,-0.0248 0.98193,-0.0248 0.16288,0 0.33197,0.0109 0.49485,0.0109 0.17219,0 0.34127,0.014 0.50415,0.014 0.0527,0 0.15202,0 0.15202,-0.15513 0,-0.0853 -0.0667,-0.0853 -0.21562,-0.0853 -0.28543,0 -0.50105,0 -0.50105,-0.13807 0,-0.045 0.014,-0.0838 0.0217,-0.1303 z"
       id="path821-3-7" />
  </g>
</svg>
