<?xml version="1.0" encoding="UTF-8" standalone="no"?>
<!-- Created with Inkscape (http://www.inkscape.org/) -->

<svg
   xmlns:dc="http://purl.org/dc/elements/1.1/"
   xmlns:cc="http://creativecommons.org/ns#"
   xmlns:rdf="http://www.w3.org/1999/02/22-rdf-syntax-ns#"
   xmlns:svg="http://www.w3.org/2000/svg"
   xmlns="http://www.w3.org/2000/svg"
   xmlns:sodipodi="http://sodipodi.sourceforge.net/DTD/sodipodi-0.dtd"
   xmlns:inkscape="http://www.inkscape.org/namespaces/inkscape"
   width="41mm"
   height="10mm"
   viewBox="0 0 41 10"
   version="1.1"
   id="svg849"
   inkscape:version="0.92.3 (2405546, 2018-03-11)"
   sodipodi:docname="right_state.svg">
  <sodipodi:namedview
     id="base"
     pagecolor="#ffffff"
     bordercolor="#666666"
     borderopacity="1.0"
     inkscape:pageopacity="0.0"
     inkscape:pageshadow="2"
     inkscape:zoom="3.959798"
     inkscape:cx="142.85714"
     inkscape:cy="-11.901419"
     inkscape:document-units="mm"
     inkscape:current-layer="g1443"
     showgrid="false"
     inkscape:window-width="1920"
     inkscape:window-height="1172"
     inkscape:window-x="0"
     inkscape:window-y="0"
     inkscape:window-maximized="1" />
  <defs
     id="defs843" />
  <metadata
     id="metadata846">
    <rdf:RDF>
      <cc:Work
         rdf:about="">
        <dc:format>image/svg+xml</dc:format>
        <dc:type
           rdf:resource="http://purl.org/dc/dcmitype/StillImage" />
        <dc:title></dc:title>
      </cc:Work>
    </rdf:RDF>
  </metadata>
  <g
     id="layer1"
     inkscape:groupmode="layer"
     inkscape:label="Layer 1"
     transform="translate(0,-287)">
    <g
       id="g1443">
      <g
         transform="rotate(-180,24.001506,286.18981)"
         id="g1447">
        <path
           style="fill:none;stroke:#000000;stroke-width:1;stroke-linecap:round;stroke-linejoin:miter;stroke-miterlimit:4;stroke-dasharray:none;stroke-opacity:1"
           d="M 34.328583,280.36913 H 47.004608"
           id="path900-6-9-3-5-3-7"
           inkscape:connector-curvature="0" />
        <circle
           r="2.8731472"
           cy="280.36905"
           cx="32.968559"
           id="path860-6-5-3-3"
           style="opacity:1;fill:#d7263d;fill-opacity:1;fill-rule:nonzero;stroke:#d7263d;stroke-width:1;stroke-linecap:round;stroke-linejoin:round;stroke-miterlimit:4;stroke-dasharray:none;stroke-dashoffset:0;stroke-opacity:1;paint-order:markers stroke fill" />
      </g>
      <g
         id="g10"
         transform="matrix(1.0509154,0,0,-1.0509154,21.392045,296.48843)">
        <g
           id="g12"
           transform="scale(0.1)">
          <path
             d="m 64.25,47.4844 c 1.4844,0 3.375,0 3.375,1.9844 0,1.9843 -1.8906,1.9843 -3.2812,1.9843 H 4.84375 c -1.39062,0 -3.28125,0 -3.28125,-1.9843 0,-1.9844 1.89063,-1.9844 3.375,-1.9844 z m 0.0938,-19.2656 c 1.3906,0 3.2812,0 3.2812,1.9843 0,1.9844 -1.8906,1.9844 -3.375,1.9844 H 4.9375 c -1.48437,0 -3.375,0 -3.375,-1.9844 0,-1.9843 1.89063,-1.9843 3.28125,-1.9843 H 64.3438"
             style="fill:#000000;fill-opacity:1;fill-rule:nonzero;stroke:none"
             id="path14"
             inkscape:connector-curvature="0" />
          <path
             d="m 152.344,74.1094 c -1.391,-1.2969 -4.672,-4.0781 -4.672,-5.8594 0,-1 1,-1.9844 1.984,-1.9844 0.907,0 1.391,0.6875 1.891,1.2813 1.187,1.5 3.484,4.2812 7.844,6.4531 0.703,0.4063 1.687,0.9063 1.687,2.0938 0,0.9843 -0.687,1.4843 -1.39,1.9843 -2.172,1.4844 -3.266,3.2813 -4.063,5.6563 -0.203,0.9062 -0.594,2.1875 -1.984,2.1875 -1.391,0 -1.985,-1.2813 -1.985,-2.0781 0,-0.5 0.782,-3.6719 2.375,-5.7657 h -33.468 c -1.688,0 -3.485,0 -3.485,-1.9843 0,-1.9844 1.797,-1.9844 3.485,-1.9844 h 31.781"
             style="fill:#000000;fill-opacity:1;fill-rule:nonzero;stroke:none"
             id="path16"
             inkscape:connector-curvature="0" />
          <path
             d="m 122.25,57.8125 c 0,0.0938 0,1.0938 -1.297,1.0938 -2.281,0 -9.531,-0.7969 -12.109,-1 -0.797,-0.0938 -1.891,-0.1875 -1.891,-1.9844 0,-1.1875 0.891,-1.1875 2.391,-1.1875 4.765,0 4.953,-0.6875 4.953,-1.6875 0,-0.7031 -1.188,-5.3594 -1.875,-8.0469 l -6.063,-24.3437 c -0.406,-1.4844 -1.093,-4.2657 -1.093,-4.4688 0,-1.0937 1,-1.1875 1.593,-1.1875 h 1.391 c 6.953,1.1875 17.781,5.0625 28.016,14.6094 13.109,12.2187 15.781,25.7187 15.781,26.6094 0,1.6875 -1.188,2.6875 -2.875,2.6875 -0.797,0 -3.078,-0.3907 -3.875,-3.2813 -6.359,-22.5469 -21.453,-33.6719 -32.781,-37.3437 l 9.734,39.5312"
             style="fill:#000000;fill-opacity:1;fill-rule:nonzero;stroke:none"
             id="path18"
             inkscape:connector-curvature="0" />
          <path
             d="m 180.297,26.4375 c -1.828,-0.4219 -2.953,-1.9062 -2.953,-3.3125 0,-1.6094 1.406,-2.25 2.328,-2.25 0.703,0 3.375,0.4219 3.375,4.0156 0,4.5625 -5.063,6.1094 -9.359,6.1094 -10.969,0 -12.938,-8.0781 -12.938,-10.2656 0,-2.5938 1.484,-4.2813 2.469,-5.125 1.828,-1.4063 3.094,-1.6875 7.937,-2.5313 1.485,-0.2812 5.985,-1.125 5.985,-4.6406 0,-1.20312 -0.782,-3.875 -3.735,-5.625 -2.734,-1.54687 -6.187,-1.54687 -7.031,-1.54687 -2.812,0 -6.812,0.625 -8.437,2.95312 2.328,0.28125 3.875,2.03125 3.875,4 0,1.76563 -1.266,2.60935 -2.75,2.60935 -2.032,0 -4.079,-1.62497 -4.079,-4.71872 0,-4.21875 4.5,-6.812505 11.329,-6.812505 12.937,0 15.328,8.859375 15.328,11.593725 0,6.4688 -7.11,7.7344 -9.703,8.2344 -0.641,0.1406 -2.391,0.4219 -2.813,0.5625 -2.609,0.4844 -3.875,1.9688 -3.875,3.5156 0,1.6094 1.266,3.5157 2.813,4.5 1.906,1.1875 4.359,1.3282 5.562,1.3282 1.469,0 5.125,-0.2032 6.672,-2.5938"
             style="fill:#000000;fill-opacity:1;fill-rule:nonzero;stroke:none"
             id="path20"
             inkscape:connector-curvature="0" />
        </g>
      </g>
    </g>
  </g>
</svg>
