<?xml version="1.0" encoding="UTF-8" standalone="no"?>
<!-- Created with Inkscape (http://www.inkscape.org/) -->

<svg
   xmlns:dc="http://purl.org/dc/elements/1.1/"
   xmlns:cc="http://creativecommons.org/ns#"
   xmlns:rdf="http://www.w3.org/1999/02/22-rdf-syntax-ns#"
   xmlns:svg="http://www.w3.org/2000/svg"
   xmlns="http://www.w3.org/2000/svg"
   xmlns:sodipodi="http://sodipodi.sourceforge.net/DTD/sodipodi-0.dtd"
   xmlns:inkscape="http://www.inkscape.org/namespaces/inkscape"
   width="160mm"
   height="37mm"
   viewBox="0 0 160 37"
   version="1.1"
   id="svg8"
   inkscape:version="0.92.3 (2405546, 2018-03-11)"
   sodipodi:docname="scd_tn.svg">
  <sodipodi:namedview
     id="base"
     pagecolor="#ffffff"
     bordercolor="#666666"
     borderopacity="1.0"
     inkscape:pageopacity="0.0"
     inkscape:pageshadow="2"
     inkscape:zoom="1.4"
     inkscape:cx="267.79221"
     inkscape:cy="94.410859"
     inkscape:document-units="mm"
     inkscape:current-layer="layer1"
     showgrid="false"
     showguides="false"
     inkscape:guide-bbox="true"
     inkscape:window-width="1920"
     inkscape:window-height="1025"
     inkscape:window-x="0"
     inkscape:window-y="1227"
     inkscape:window-maximized="1">
    <sodipodi:guide
       position="67.496878,5.8493041"
       orientation="1,0"
       id="guide1074"
       inkscape:locked="false" />
    <sodipodi:guide
       position="172.89598,5.8493041"
       orientation="1,0"
       id="guide1076"
       inkscape:locked="false" />
  </sodipodi:namedview>
  <defs
     id="defs2" />
  <metadata
     id="metadata5">
    <rdf:RDF>
      <cc:Work
         rdf:about="">
        <dc:format>image/svg+xml</dc:format>
        <dc:type
           rdf:resource="http://purl.org/dc/dcmitype/StillImage" />
        <dc:title></dc:title>
      </cc:Work>
    </rdf:RDF>
  </metadata>
  <g
     inkscape:label="Layer 1"
     inkscape:groupmode="layer"
     id="layer1"
     transform="translate(0,-260)">
    <g
       id="g1068"
       transform="translate(-79.704485,-0.024285)">
      <g
         transform="matrix(0.66491474,0,0,0.66491474,94.871579,197.27229)"
         id="g963">
        <g
           style="font-style:normal;font-variant:normal;font-weight:normal;font-stretch:normal;letter-spacing:normal;word-spacing:normal;text-anchor:start;fill:none;fill-opacity:1;fill-rule:evenodd;stroke:#000000;stroke-linecap:butt;stroke-linejoin:miter;stroke-miterlimit:10.43299961;stroke-dasharray:none;stroke-dashoffset:0;stroke-opacity:1"
           id="content"
           transform="matrix(0.3,0,0,-0.3,-52.5,222.75)"
           xml:space="preserve"
           stroke-miterlimit="10.433"
           font-style="normal"
           font-variant="normal"
           font-weight="normal"
           font-stretch="normal"
           font-size-adjust="none"
           letter-spacing="normal"
           word-spacing="normal" />      </g>
    </g>
    <g
       id="g1068-9-9-2-9"
       transform="translate(-17.42848,-0.024096)">
      <g
         transform="matrix(0.66491474,0,0,0.66491474,94.871579,197.27229)"
         id="g963-2-6-1-0">
        <g
           style="font-style:normal;font-variant:normal;font-weight:normal;font-stretch:normal;letter-spacing:normal;word-spacing:normal;text-anchor:start;fill:none;fill-opacity:1;fill-rule:evenodd;stroke:#000000;stroke-linecap:butt;stroke-linejoin:miter;stroke-miterlimit:10.43299961;stroke-dasharray:none;stroke-dashoffset:0;stroke-opacity:1"
           id="content-7-0-8-2"
           transform="matrix(0.3,0,0,-0.3,-52.5,222.75)"
           xml:space="preserve"
           stroke-miterlimit="10.433"
           font-style="normal"
           font-variant="normal"
           font-weight="normal"
           font-stretch="normal"
           font-size-adjust="none"
           letter-spacing="normal"
           word-spacing="normal" />      </g>
    </g>
    <g
       id="g1106"
       transform="translate(-6.279305,-123.01757)">
      <g
         transform="matrix(0.73413982,0,0,-0.73413982,0.47339138,296.21714)"
         id="g10">
        <g
           transform="scale(0.1)"
           id="g12">
          <path
             inkscape:connector-curvature="0"
             id="path14"
             style="fill:#000000;fill-opacity:1;fill-rule:nonzero;stroke:none"
             d="m 204.766,83.9219 12.015,31.7971 h -2.484 c -3.875,-10.328 -14.406,-17.094 -25.828,-20.0627 -2.078,-0.5 -11.828,-3.0782 -30.891,-3.0782 H 97.6719 l 50.5621,59.2969 c 0.704,0.797 0.891,1.094 0.891,1.594 0,0.187 0,0.484 -0.687,1.484 l -46.297,63.281 h 54.437 c 13.313,0 22.36,-1.39 23.25,-1.593 5.36,-0.797 14,-2.485 21.86,-7.453 2.484,-1.579 9.234,-6.063 12.609,-14.094 h 2.484 L 204.766,223 H 87.3438 c -2.2813,0 -2.3907,-0.094 -2.6875,-0.703 -0.0938,-0.297 -0.0938,-2.172 -0.0938,-3.266 L 137.109,147.109 85.6563,86.8125 c -1,-1.2031 -1,-1.6875 -1,-1.7969 0,-1.0937 0.9062,-1.0937 2.6875,-1.0937 H 204.766" />
          <path
             inkscape:connector-curvature="0"
             id="path16"
             style="fill:#000000;fill-opacity:1;fill-rule:nonzero;stroke:none"
             d="m 26.7344,25.3906 c -0.3438,-1.4062 -0.9844,-4.0781 -1.125,-4.1562 -1.3281,-2.1719 -4.1406,-5.9688 -8.5,-5.9688 -4.8594,0 -4.8594,4.5625 -4.8594,5.8282 0,4.1562 1.9688,9.1406 3.9375,14.2812 0.5625,1.4063 0.9844,2.4531 0.9844,3.5781 C 17.1719,42.6094 14.0781,45 10.5,45 3.46875,45 0.296875,35.375 0.296875,34.25 c 0,-0.9219 0.984375,-0.9219 1.203125,-0.9219 0.98438,0 1.04688,0.3594 1.26563,1.125 1.6875,5.7657 4.78125,8.5782 7.51567,8.5782 1.2031,0 1.7656,-0.7657 1.7656,-2.4532 0,-1.625 -0.5625,-3.0937 -1.2656,-4.7187 C 6.98438,26.1563 6.98438,24.125 6.98438,22.2188 c 0,-1.1875 0,-4.4219 2.59375,-6.6719 2.04687,-1.6875 4.78127,-2.25 7.24997,-2.25 4.4219,0 6.8125,2.3906 9.1407,4.6406 1.5468,-4.5 6.25,-4.6406 7.0937,-4.6406 2.3906,0 4.2188,1.4062 5.5625,3.7187 1.5469,2.75 2.5313,6.8282 2.5313,7.0313 0,0.9219 -0.9844,0.9219 -1.2032,0.9219 -0.9843,0 -1.0468,-0.2813 -1.5468,-2.1875 -0.8438,-3.2969 -2.1719,-7.5157 -5.125,-7.5157 -1.8282,0 -2.3282,1.6094 -2.3282,3.4375 0,1.2032 0.5625,3.7344 1.0625,5.5625 0.4844,1.8907 1.1875,4.7813 1.5469,6.3282 l 1.6094,6.25 c 0.4219,1.7656 1.2031,4.8593 1.2031,5.2031 0,1.4062 -1.125,2.25 -2.3281,2.25 -2.5938,0 -3.0938,-2.0313 -3.6563,-4.2813 l -3.6562,-14.625" />
          <path
             inkscape:connector-curvature="0"
             id="path18"
             style="fill:#000000;fill-opacity:1;fill-rule:nonzero;stroke:none"
             d="m 64.0781,36.0781 c 0,1.5157 -0.1562,1.5157 -1.8281,1.5157 -3.5781,-3.2344 -9.1719,-3.2344 -10.1875,-3.2344 h -0.8437 v -2.2188 h 0.8437 c 1.1719,0 4.4375,0.1563 7.375,1.4063 V 8.34375 c 0,-1.5625 0,-2.125 -5.3437,-2.125 H 51.5625 V 4 c 2.7813,0.20313 7.2656,0.20313 10.1875,0.20313 2.9219,0 7.4219,0 10.1875,-0.20313 v 2.21875 h -2.5156 c -5.3438,0 -5.3438,0.5625 -5.3438,2.125 V 36.0781" />
          <path
             inkscape:connector-curvature="0"
             id="path20"
             style="fill:#000000;fill-opacity:1;fill-rule:nonzero;stroke:none"
             d="m 97.8281,15.125 c 0,-3.8594 -0.7031,-8.35937 -5.4843,-12.85937 -0.2813,-0.28125 -0.4844,-0.5 -0.4844,-0.84375 0,-0.500005 0.5625,-0.98438 0.9844,-0.98438 0.9843,0 6.9531,5.625 6.9531,13.9844 0,4.3594 -1.6875,7.6562 -4.9219,7.6562 -2.3125,0 -4,-1.8281 -4,-4 0,-2.25 1.6094,-4.0781 4.0781,-4.0781 1.6875,0 2.8125,1.125 2.875,1.125" />
          <path
             inkscape:connector-curvature="0"
             id="path22"
             style="fill:#000000;fill-opacity:1;fill-rule:nonzero;stroke:none"
             d="m 136.734,25.3906 c -0.343,-1.4062 -0.984,-4.0781 -1.125,-4.1562 -1.328,-2.1719 -4.14,-5.9688 -8.5,-5.9688 -4.859,0 -4.859,4.5625 -4.859,5.8282 0,4.1562 1.969,9.1406 3.938,14.2812 0.562,1.4063 0.984,2.4531 0.984,3.5781 0,3.6563 -3.094,6.0469 -6.672,6.0469 -7.031,0 -10.203,-9.625 -10.203,-10.75 0,-0.9219 0.984,-0.9219 1.203,-0.9219 0.984,0 1.047,0.3594 1.266,1.125 1.687,5.7657 4.781,8.5782 7.515,8.5782 1.203,0 1.766,-0.7657 1.766,-2.4532 0,-1.625 -0.563,-3.0937 -1.266,-4.7187 -3.797,-9.7031 -3.797,-11.7344 -3.797,-13.6406 0,-1.1875 0,-4.4219 2.594,-6.6719 2.047,-1.6875 4.781,-2.25 7.25,-2.25 4.422,0 6.813,2.3906 9.141,4.6406 1.547,-4.5 6.25,-4.6406 7.094,-4.6406 2.39,0 4.218,1.4062 5.562,3.7187 1.547,2.75 2.531,6.8282 2.531,7.0313 0,0.9219 -0.984,0.9219 -1.203,0.9219 -0.984,0 -1.047,-0.2813 -1.547,-2.1875 -0.843,-3.2969 -2.172,-7.5157 -5.125,-7.5157 -1.828,0 -2.328,1.6094 -2.328,3.4375 0,1.2032 0.563,3.7344 1.063,5.5625 0.484,1.8907 1.187,4.7813 1.547,6.3282 l 1.609,6.25 c 0.422,1.7656 1.203,4.8593 1.203,5.2031 0,1.4062 -1.125,2.25 -2.328,2.25 -2.594,0 -3.094,-2.0313 -3.656,-4.2813 l -3.657,-14.625" />
          <path
             inkscape:connector-curvature="0"
             id="path24"
             style="fill:#000000;fill-opacity:1;fill-rule:nonzero;stroke:none"
             d="m 183.703,13.7344 h -2.109 c -0.156,-0.9531 -0.656,-4.07815 -1.469,-4.59377 -0.406,-0.29688 -4.641,-0.29688 -5.391,-0.29688 h -9.89 c 3.328,2.46875 7.062,5.29685 10.078,7.31255 4.547,3.125 8.781,6.0468 8.781,11.3906 0,6.4531 -6.094,10.0469 -13.312,10.0469 -6.813,0 -11.797,-3.9375 -11.797,-8.875 0,-2.625 2.219,-3.0782 2.922,-3.0782 1.359,0 2.968,0.9063 2.968,2.9688 0,1.8125 -1.312,2.8281 -2.875,2.9844 1.422,2.2656 4.344,3.7812 7.719,3.7812 4.891,0 8.985,-2.9375 8.985,-7.875 0,-4.2344 -2.922,-7.4687 -6.813,-10.7344 L 159.188,6.3125 c -0.5,-0.45312 -0.547,-0.45312 -0.594,-0.79687 V 4 h 23.453 l 1.656,9.7344" />
          <path
             inkscape:connector-curvature="0"
             id="path26"
             style="fill:#000000;fill-opacity:1;fill-rule:nonzero;stroke:none"
             d="m 207.828,15.125 c 0,-3.8594 -0.703,-8.35937 -5.484,-12.85937 -0.281,-0.28125 -0.485,-0.5 -0.485,-0.84375 0,-0.500005 0.563,-0.98438 0.985,-0.98438 0.984,0 6.953,5.625 6.953,13.9844 0,4.3594 -1.688,7.6562 -4.922,7.6562 -2.312,0 -4,-1.8281 -4,-4 0,-2.25 1.609,-4.0781 4.078,-4.0781 1.688,0 2.813,1.125 2.875,1.125" />
          <path
             inkscape:connector-curvature="0"
             id="path28"
             style="fill:#000000;fill-opacity:1;fill-rule:nonzero;stroke:none"
             d="m 246.734,25.3906 c -0.343,-1.4062 -0.984,-4.0781 -1.125,-4.1562 -1.328,-2.1719 -4.14,-5.9688 -8.5,-5.9688 -4.859,0 -4.859,4.5625 -4.859,5.8282 0,4.1562 1.969,9.1406 3.938,14.2812 0.562,1.4063 0.984,2.4531 0.984,3.5781 0,3.6563 -3.094,6.0469 -6.672,6.0469 -7.031,0 -10.203,-9.625 -10.203,-10.75 0,-0.9219 0.984,-0.9219 1.203,-0.9219 0.984,0 1.047,0.3594 1.266,1.125 1.687,5.7657 4.781,8.5782 7.515,8.5782 1.203,0 1.766,-0.7657 1.766,-2.4532 0,-1.625 -0.563,-3.0937 -1.266,-4.7187 -3.797,-9.7031 -3.797,-11.7344 -3.797,-13.6406 0,-1.1875 0,-4.4219 2.594,-6.6719 2.047,-1.6875 4.781,-2.25 7.25,-2.25 4.422,0 6.813,2.3906 9.141,4.6406 1.547,-4.5 6.25,-4.6406 7.094,-4.6406 2.39,0 4.218,1.4062 5.562,3.7187 1.547,2.75 2.531,6.8282 2.531,7.0313 0,0.9219 -0.984,0.9219 -1.203,0.9219 -0.984,0 -1.047,-0.2813 -1.547,-2.1875 -0.843,-3.2969 -2.172,-7.5157 -5.125,-7.5157 -1.828,0 -2.328,1.6094 -2.328,3.4375 0,1.2032 0.563,3.7344 1.063,5.5625 0.484,1.8907 1.187,4.7813 1.547,6.3282 l 1.609,6.25 c 0.422,1.7656 1.203,4.8593 1.203,5.2031 0,1.4062 -1.125,2.25 -2.328,2.25 -2.594,0 -3.094,-2.0313 -3.656,-4.2813 l -3.657,-14.625" />
          <path
             inkscape:connector-curvature="0"
             id="path30"
             style="fill:#000000;fill-opacity:1;fill-rule:nonzero;stroke:none"
             d="m 272.375,20.5469 c 0.063,2.3125 0.109,6.2969 1.922,9.5781 1.469,2.7188 4.734,5.5469 9.437,5.5469 0.954,0 3.219,-0.0938 4.735,-1.3125 -0.813,-0.2031 -2.125,-0.9531 -2.125,-2.6719 0,-1.6094 1.219,-2.6719 2.672,-2.6719 0.859,0 2.687,0.4532 2.687,2.8282 0,2.7187 -1.922,5.75 -8.031,5.75 -8.672,0 -16.641,-7.1094 -16.641,-17.5625 0,-12.04692 5.907,-17.14067 13.266,-17.14067 5,0 7.359,1.85937 9.078,3.28125 3.234,2.67187 3.891,5.64062 3.891,8.17192 0,3.0781 -1.016,5.5468 -3.641,7.8593 -2.219,2.0157 -4.531,3.375 -8.922,3.375 -2.922,0 -6.203,-1.4062 -8.328,-5.0312 z m 7.922,-15.59377 c -7.766,0 -7.766,8.37497 -7.766,10.49997 0,3.875 2.782,8.4219 8.063,8.4219 2.578,0 4.187,-0.6562 5.75,-2.6719 1.515,-1.875 1.562,-3.9843 1.562,-6.8125 0,-2.9218 0,-4.84372 -1.609,-6.85935 -1.406,-1.67187 -3.172,-2.57812 -6,-2.57812" />
          <path
             inkscape:connector-curvature="0"
             id="path32"
             style="fill:#000000;fill-opacity:1;fill-rule:nonzero;stroke:none"
             d="m 350.094,159.391 h 16.89 c 14.11,0 27.922,10.328 27.922,21.453 0,7.656 -6.562,15 -19.578,15 h -32.187 c -1.875,0 -2.969,0 -2.969,-1.891 0,-1.187 0.891,-1.187 2.875,-1.187 1.297,0 3.078,-0.094 4.266,-0.203 1.593,-0.188 2.187,-0.485 2.187,-1.579 0,-0.406 -0.094,-0.703 -0.391,-1.89 L 335.797,135.75 c -1,-3.875 -1.188,-4.672 -9.047,-4.672 -1.687,0 -2.781,0 -2.781,-1.89 0,-1.188 1.203,-1.188 1.5,-1.188 2.781,0 9.828,0.297 12.609,0.297 2.094,0 4.266,-0.094 6.36,-0.094 2.187,0 4.375,-0.203 6.453,-0.203 0.703,0 1.984,0 1.984,1.984 0,1.094 -0.891,1.094 -2.781,1.094 -3.672,0 -6.453,0 -6.453,1.797 0,0.594 0.203,1.078 0.297,1.688 z M 357.25,189 c 0.891,3.469 1.094,3.766 5.359,3.766 h 9.547 c 8.235,0 13.5,-2.688 13.5,-9.532 0,-3.875 -1.984,-12.421 -5.859,-16 -4.969,-4.468 -10.922,-5.265 -15.297,-5.265 h -14 L 357.25,189" />
          <path
             inkscape:connector-curvature="0"
             id="path34"
             style="fill:#000000;fill-opacity:1;fill-rule:nonzero;stroke:none"
             d="m 430.875,104.156 c 0,0.297 0,0.5 -1.687,2.188 -12.407,12.515 -15.594,31.297 -15.594,46.484 0,17.297 3.781,34.578 16,47 1.281,1.188 1.281,1.391 1.281,1.688 0,0.687 -0.391,0.984 -0.984,0.984 -1,0 -9.938,-6.75 -15.797,-19.375 -5.063,-10.922 -6.266,-21.953 -6.266,-30.297 0,-7.734 1.094,-19.765 6.563,-30.984 5.953,-12.219 14.5,-18.672 15.5,-18.672 0.593,0 0.984,0.297 0.984,0.984" />
          <path
             inkscape:connector-curvature="0"
             id="path36"
             style="fill:#000000;fill-opacity:1;fill-rule:nonzero;stroke:none"
             d="m 488.344,187.109 c -1.391,-1.296 -4.672,-4.078 -4.672,-5.859 0,-1 1,-1.984 1.984,-1.984 0.907,0 1.391,0.687 1.891,1.281 1.187,1.5 3.484,4.281 7.844,6.453 0.703,0.406 1.687,0.906 1.687,2.094 0,0.984 -0.687,1.484 -1.39,1.984 -2.172,1.485 -3.266,3.281 -4.063,5.656 -0.203,0.907 -0.594,2.188 -1.984,2.188 -1.391,0 -1.985,-1.281 -1.985,-2.078 0,-0.5 0.782,-3.672 2.375,-5.766 h -33.468 c -1.688,0 -3.485,0 -3.485,-1.984 0,-1.985 1.797,-1.985 3.485,-1.985 h 31.781" />
          <path
             inkscape:connector-curvature="0"
             id="path38"
             style="fill:#000000;fill-opacity:1;fill-rule:nonzero;stroke:none"
             d="m 470.766,133.563 c 1.093,-4.079 4.578,-6.657 8.843,-6.657 3.469,0 5.766,2.282 7.344,5.469 1.703,3.578 2.985,9.625 2.985,9.828 0,1 -0.891,1 -1.188,1 -1,0 -1.094,-0.406 -1.391,-1.797 -1.39,-5.562 -3.281,-12.312 -7.453,-12.312 -2.078,0 -3.078,1.297 -3.078,4.562 0,2.188 1.188,6.86 1.985,10.344 l 2.781,10.719 c 0.297,1.5 1.297,5.265 1.687,6.765 0.5,2.282 1.5,6.047 1.5,6.641 0,1.797 -1.39,2.688 -2.89,2.688 -0.5,0 -3.078,-0.094 -3.875,-3.469 -1.891,-7.266 -6.25,-24.641 -7.453,-29.906 -0.094,-0.391 -4.063,-8.344 -11.313,-8.344 -5.172,0 -6.156,4.469 -6.156,8.14 0,5.563 2.781,13.422 5.359,20.266 1.188,2.984 1.688,4.375 1.688,6.266 0,4.468 -3.188,8.14 -8.141,8.14 -9.437,0 -13.125,-14.406 -13.125,-15.297 0,-1 1,-1 1.203,-1 0.985,0 1.094,0.204 1.578,1.797 2.485,8.641 6.266,12.313 10.032,12.313 0.906,0 2.484,-0.094 2.484,-3.281 0,-2.375 -1.078,-5.266 -1.688,-6.75 -3.671,-9.829 -5.75,-16 -5.75,-20.86 0,-9.437 6.844,-11.922 12.219,-11.922 6.547,0 10.125,4.469 11.813,6.657" />
          <path
             inkscape:connector-curvature="0"
             id="path40"
             style="fill:#000000;fill-opacity:1;fill-rule:nonzero;stroke:none"
             d="m 521.703,152.828 c 0,7.75 -1.094,19.781 -6.547,31 -5.968,12.219 -14.5,18.672 -15.5,18.672 -0.593,0 -1,-0.391 -1,-0.984 0,-0.297 0,-0.5 1.891,-2.297 9.734,-9.828 15.406,-25.625 15.406,-46.391 0,-16.984 -3.687,-34.469 -16,-46.984 -1.297,-1.188 -1.297,-1.391 -1.297,-1.688 0,-0.593 0.407,-0.984 1,-0.984 1,0 9.938,6.75 15.797,19.359 5.063,10.938 6.25,21.953 6.25,30.297" />
          <path
             inkscape:connector-curvature="0"
             id="path42"
             style="fill:#000000;fill-opacity:1;fill-rule:nonzero;stroke:none"
             d="m 628.25,160.484 c 1.484,0 3.375,0 3.375,1.985 0,1.984 -1.891,1.984 -3.281,1.984 h -59.5 c -1.391,0 -3.281,0 -3.281,-1.984 0,-1.985 1.89,-1.985 3.375,-1.985 z m 0.094,-19.265 c 1.39,0 3.281,0 3.281,1.984 0,1.985 -1.891,1.985 -3.375,1.985 h -59.312 c -1.485,0 -3.375,0 -3.375,-1.985 0,-1.984 1.89,-1.984 3.281,-1.984 h 59.5" />
        </g>
      </g>
      <g
         transform="translate(-68.487495,49.836161)"
         id="g982">
        <g
           id="g971"
           transform="translate(0.02119566)">
          <path
             inkscape:connector-curvature="0"
             id="path900-56-6-3"
             d="M 153.96363,233.54773 V 219.10262"
             style="fill:none;stroke:#000000;stroke-width:1;stroke-linecap:round;stroke-linejoin:miter;stroke-miterlimit:4;stroke-dasharray:none;stroke-opacity:1" />
          <path
             style="fill:none;stroke:#000000;stroke-width:1;stroke-linecap:round;stroke-linejoin:miter;stroke-miterlimit:4;stroke-dasharray:none;stroke-opacity:1"
             d="M 126.07581,233.54773 V 219.10262"
             id="path900-36-2"
             inkscape:connector-curvature="0" />
          <path
             style="fill:none;stroke:#000000;stroke-width:1;stroke-linecap:round;stroke-linejoin:miter;stroke-miterlimit:4;stroke-dasharray:none;stroke-opacity:1"
             d="M 172.55552,233.54773 V 219.10262"
             id="path900-7-9"
             inkscape:connector-curvature="0" />
          <path
             style="fill:none;stroke:#000000;stroke-width:1;stroke-linecap:round;stroke-linejoin:miter;stroke-miterlimit:4;stroke-dasharray:none;stroke-opacity:1"
             d="M 135.37174,233.54773 V 219.10262"
             id="path900-5-75-1"
             inkscape:connector-curvature="0" />
          <path
             style="fill:none;stroke:#000000;stroke-width:1;stroke-linecap:round;stroke-linejoin:miter;stroke-miterlimit:4;stroke-dasharray:none;stroke-opacity:1"
             d="M 144.66769,233.54773 V 219.10262"
             id="path900-3-3-2"
             inkscape:connector-curvature="0" />
          <path
             style="fill:none;stroke:#000000;stroke-width:1;stroke-linecap:round;stroke-linejoin:miter;stroke-miterlimit:4;stroke-dasharray:none;stroke-opacity:1"
             d="M 163.25958,233.54773 V 219.10262"
             id="path900-56-7"
             inkscape:connector-curvature="0" />
        </g>
        <rect
           style="opacity:1;fill:#c9c9c9;fill-opacity:1;fill-rule:nonzero;stroke:#808080;stroke-width:5;stroke-linecap:round;stroke-linejoin:round;stroke-miterlimit:4;stroke-dasharray:none;stroke-dashoffset:0;stroke-opacity:1;paint-order:markers stroke fill"
           id="rect815-7-0-6"
           width="55.48764"
           height="11.137322"
           x="121.59304"
           y="232.28511" />
        <path
           style="font-style:normal;font-variant:normal;font-weight:normal;font-stretch:normal;letter-spacing:normal;word-spacing:normal;text-anchor:start;fill:#000000;fill-opacity:1;fill-rule:evenodd;stroke:#000000;stroke-width:0;stroke-linecap:butt;stroke-linejoin:miter;stroke-miterlimit:10.43299961;stroke-dasharray:none;stroke-dashoffset:0;stroke-opacity:1"
           inkscape:connector-curvature="0"
           d="m 148.60935,238.04993 0.0326,-0.19856 0.52587,-2.10348 c 0.0667,-0.26992 0.0838,-0.29318 0.41573,-0.29318 h 0.74304 c 0.64222,0 1.05174,0.20787 1.05174,0.74149 0,0.3025 -0.15512,0.96643 -0.45606,1.24565 -0.38781,0.34593 -0.85008,0.40953 -1.1929,0.40953 h -1.08742 l -0.0326,0.19856 h 1.3139 c 1.09828,0 2.17173,-0.802 2.17173,-1.66759 0,-0.59567 -0.5088,-1.16808 -1.52176,-1.16808 h -2.5037 c -0.14737,0 -0.23269,0 -0.23269,0.14737 0,0.0931 0.0698,0.0931 0.22493,0.0931 0.0993,0 0.24044,0.006 0.33197,0.014 0.1241,0.0171 0.17063,0.0388 0.17063,0.1241 0,0.031 -0.008,0.0559 -0.0326,0.14737 l -1.03468,4.14957 c -0.0776,0.30249 -0.0915,0.36299 -0.70271,0.36299 -0.1303,0 -0.21562,0 -0.21562,0.14891 0,0.0915 0.0915,0.0915 0.11324,0.0915 0.21872,0 0.76631,-0.0248 0.98193,-0.0248 0.16288,0 0.33197,0.0109 0.49485,0.0109 0.17219,0 0.34127,0.014 0.50415,0.014 0.0527,0 0.15202,0 0.15202,-0.15513 0,-0.0853 -0.0667,-0.0853 -0.21562,-0.0853 -0.28543,0 -0.50105,0 -0.50105,-0.13807 0,-0.045 0.014,-0.0838 0.0217,-0.1303 z"
           id="path821-3-5-2" />
      </g>
      <rect
         y="266.0195"
         x="56.050488"
         height="2.3834167"
         width="3.1180451"
         id="rect815-3-6-0-87"
         style="opacity:1;fill:#ffda6c;fill-opacity:1;fill-rule:nonzero;stroke:#ffda6c;stroke-width:5.25542927;stroke-linecap:round;stroke-linejoin:round;stroke-miterlimit:4;stroke-dasharray:none;stroke-dashoffset:0;stroke-opacity:1;paint-order:markers stroke fill" />
      <rect
         y="266.0195"
         x="102.5302"
         height="2.3834167"
         width="3.1180451"
         id="rect815-3-6-0-87-3"
         style="opacity:1;fill:#ffda6c;fill-opacity:1;fill-rule:nonzero;stroke:#ffda6c;stroke-width:5.25542927;stroke-linecap:round;stroke-linejoin:round;stroke-miterlimit:4;stroke-dasharray:none;stroke-dashoffset:0;stroke-opacity:1;paint-order:markers stroke fill" />
      <rect
         y="266.0195"
         x="93.234261"
         height="2.3834167"
         width="3.1180451"
         id="rect815-3-6-0-87-6"
         style="opacity:1;fill:#ffda6c;fill-opacity:1;fill-rule:nonzero;stroke:#ffda6c;stroke-width:5.25542927;stroke-linecap:round;stroke-linejoin:round;stroke-miterlimit:4;stroke-dasharray:none;stroke-dashoffset:0;stroke-opacity:1;paint-order:markers stroke fill" />
      <path
         d="m 57.15951,267.07372 c 0.25554,0 0.90971,-0.0167 1.35139,-0.20279 0.61806,-0.26527 0.66111,-0.78611 0.66111,-0.90972 0,-0.38749 -0.33473,-0.75 -0.94445,-0.75 -0.98054,0 -2.31388,0.85695 -2.31388,2.4014 0,0.90138 0.52222,1.5986 1.38751,1.5986 1.26248,0 2.00415,-0.93611 2.00415,-1.04166 0,-0.0528 -0.0528,-0.11528 -0.10691,-0.11528 -0.043,0 -0.0612,0.018 -0.11388,0.0889 -0.69723,0.87362 -1.65974,0.87362 -1.76667,0.87362 -0.6889,0 -0.76806,-0.74167 -0.76806,-1.02362 0,-0.10692 0.0101,-0.38054 0.14168,-0.91943 z m -0.41528,-0.19306 c 0.34445,-1.34306 1.25416,-1.475 1.48333,-1.475 0.41528,0 0.65417,0.25555 0.65417,0.55555 0,0.91945 -1.41389,0.91945 -1.77499,0.91945 h -0.36251"
         style="fill:#000000;fill-opacity:1;fill-rule:nonzero;stroke:none;stroke-width:0.08888885"
         id="path14-68-9-8-98-9"
         inkscape:connector-curvature="0" />
      <path
         d="m 94.343283,267.07372 c 0.25554,0 0.90971,-0.0167 1.35139,-0.20279 0.618061,-0.26527 0.66111,-0.78611 0.66111,-0.90972 0,-0.38749 -0.334729,-0.75 -0.94445,-0.75 -0.98054,0 -2.31388,0.85695 -2.31388,2.4014 0,0.90138 0.52222,1.5986 1.38751,1.5986 1.26248,0 2.004151,-0.93611 2.004151,-1.04166 0,-0.0528 -0.0528,-0.11528 -0.106911,-0.11528 -0.043,0 -0.0612,0.018 -0.113879,0.0889 -0.697231,0.87362 -1.659741,0.87362 -1.766671,0.87362 -0.6889,0 -0.76806,-0.74167 -0.76806,-1.02362 0,-0.10692 0.0101,-0.38054 0.14168,-0.91943 z m -0.41528,-0.19306 c 0.34445,-1.34306 1.25416,-1.475 1.48333,-1.475 0.415281,0 0.654171,0.25555 0.654171,0.55555 0,0.91945 -1.413891,0.91945 -1.774991,0.91945 h -0.36251"
         style="fill:#000000;fill-opacity:1;fill-rule:nonzero;stroke:none;stroke-width:0.08888885"
         id="path14-68-9-8-98-9-7"
         inkscape:connector-curvature="0" />
      <path
         d="m 103.63922,267.07372 c 0.25554,0 0.90971,-0.0167 1.35139,-0.20279 0.61806,-0.26527 0.66111,-0.78611 0.66111,-0.90972 0,-0.38749 -0.33473,-0.75 -0.94445,-0.75 -0.98054,0 -2.31388,0.85695 -2.31388,2.4014 0,0.90138 0.52222,1.5986 1.38751,1.5986 1.26248,0 2.00415,-0.93611 2.00415,-1.04166 0,-0.0528 -0.0528,-0.11528 -0.10691,-0.11528 -0.043,0 -0.0612,0.018 -0.11388,0.0889 -0.69723,0.87362 -1.65974,0.87362 -1.76667,0.87362 -0.6889,0 -0.76806,-0.74167 -0.76806,-1.02362 0,-0.10692 0.0101,-0.38054 0.14168,-0.91943 z m -0.41528,-0.19306 c 0.34445,-1.34306 1.25416,-1.475 1.48333,-1.475 0.41528,0 0.65417,0.25555 0.65417,0.55555 0,0.91945 -1.41389,0.91945 -1.77499,0.91945 h -0.36251"
         style="fill:#000000;fill-opacity:1;fill-rule:nonzero;stroke:none;stroke-width:0.08888885"
         id="path14-68-9-8-98-9-5"
         inkscape:connector-curvature="0" />
    </g>
    <g
       id="g10-0"
       transform="matrix(0.70165145,0,0,-0.70165145,28.024891,241.28923)">
      <g
         id="g12-9"
         transform="scale(0.1)">
        <path
           d="m 50.3438,152.109 c -1.3907,-1.296 -4.6719,-4.078 -4.6719,-5.859 0,-1 1,-1.984 1.9844,-1.984 0.9062,0 1.3906,0.687 1.8906,1.281 1.1875,1.5 3.4844,4.281 7.8437,6.453 0.7032,0.406 1.6875,0.906 1.6875,2.094 0,0.984 -0.6875,1.484 -1.3906,1.984 -2.1719,1.485 -3.2656,3.281 -4.0625,5.656 -0.2031,0.907 -0.5937,2.188 -1.9844,2.188 -1.3906,0 -1.9843,-1.281 -1.9843,-2.078 0,-0.5 0.7812,-3.672 2.375,-5.766 H 18.5625 c -1.6875,0 -3.4844,0 -3.4844,-1.984 0,-1.985 1.7969,-1.985 3.4844,-1.985 h 31.7813"
           style="fill:#000000;fill-opacity:1;fill-rule:nonzero;stroke:none"
           id="path14-3"
           inkscape:connector-curvature="0" />
        <path
           d="m 29.8281,135.938 -13.3125,-13.5 1.7969,-1.797 11.5156,10.14 11.4375,-10.14 1.7813,1.797 -13.2188,13.5"
           style="fill:#000000;fill-opacity:1;fill-rule:nonzero;stroke:none"
           id="path16-6"
           inkscape:connector-curvature="0" />
        <path
           d="m 32.7656,72.5625 c 1.0938,-4.0781 4.5782,-6.6562 8.8438,-6.6562 3.4687,0 5.7656,2.2812 7.3437,5.4687 1.7032,3.5781 2.9844,9.625 2.9844,9.8281 0,1 -0.8906,1 -1.1875,1 -1,0 -1.0937,-0.4062 -1.3906,-1.7968 -1.3906,-5.5625 -3.2813,-12.3125 -7.4531,-12.3125 -2.0782,0 -3.0782,1.2968 -3.0782,4.5625 0,2.1875 1.1875,6.8593 1.9844,10.3437 l 2.7813,10.7188 c 0.2968,1.5 1.2968,5.2656 1.6875,6.7652 0.5,2.282 1.5,6.047 1.5,6.641 0,1.797 -1.3907,2.688 -2.8907,2.688 -0.5,0 -3.0781,-0.094 -3.875,-3.469 C 38.125,99.0781 33.7656,81.7031 32.5625,76.4375 32.4688,76.0469 28.5,68.0938 21.25,68.0938 c -5.1719,0 -6.1562,4.4687 -6.1562,8.1406 0,5.5625 2.7812,13.4219 5.3593,20.2656 1.1875,2.9844 1.6875,4.375 1.6875,6.266 0,4.468 -3.1875,8.14 -8.1406,8.14 -9.4375,0 -13.125,-14.406 -13.125,-15.2966 0,-1 1,-1 1.20313,-1 0.98437,0 1.09375,0.2031 1.57812,1.7969 2.48438,8.6407 6.26563,12.3127 10.03125,12.3127 0.9063,0 2.4844,-0.094 2.4844,-3.281 0,-2.375 -1.0781,-5.266 -1.6875,-6.7505 -3.6719,-9.8281 -5.75002,-16 -5.75002,-20.8594 0,-9.4375 6.84372,-11.9218 12.21872,-11.9218 6.5469,0 10.125,4.4687 11.8125,6.6562"
           style="fill:#000000;fill-opacity:1;fill-rule:nonzero;stroke:none"
           id="path18-0"
           inkscape:connector-curvature="0" />
        <path
           d="m 151.25,99.4844 c 1.484,0 3.375,0 3.375,1.9846 0,1.984 -1.891,1.984 -3.281,1.984 H 91.8438 c -1.3907,0 -3.2813,0 -3.2813,-1.984 0,-1.9846 1.8906,-1.9846 3.375,-1.9846 z m 0.094,-19.2656 c 1.39,0 3.281,0 3.281,1.9843 0,1.9844 -1.891,1.9844 -3.375,1.9844 H 91.9375 c -1.4844,0 -3.375,0 -3.375,-1.9844 0,-1.9843 1.8906,-1.9843 3.2813,-1.9843 h 59.5002"
           style="fill:#000000;fill-opacity:1;fill-rule:nonzero;stroke:none"
           id="path20-6"
           inkscape:connector-curvature="0" />
        <path
           d="m 221.078,74.5469 c 0.406,-3.9688 3.078,-8.1406 7.75,-8.1406 2.078,0 8.141,1.3906 8.141,9.4375 v 5.5625 h -2.485 v -5.5625 c 0,-5.7657 -2.484,-6.3594 -3.578,-6.3594 -3.265,0 -3.672,4.4687 -3.672,4.9687 v 19.8594 c 0,4.1719 0,8.0465 -3.578,11.7345 -3.875,3.859 -8.828,5.453 -13.609,5.453 -8.141,0 -15,-4.672 -15,-11.219 0,-2.9841 2,-4.6716 4.578,-4.6716 2.781,0 4.563,1.9844 4.563,4.5626 0,1.203 -0.5,4.484 -5.063,4.578 2.688,3.469 7.547,4.563 10.734,4.563 4.86,0 10.532,-3.875 10.532,-12.7036 v -3.6875 c -5.078,-0.2969 -12.032,-0.5938 -18.282,-3.5781 -7.453,-3.375 -9.937,-8.5313 -9.937,-12.9063 0,-8.0469 9.641,-10.5312 15.891,-10.5312 6.562,0 11.125,3.9687 13.015,8.6406 z m -0.687,16.2969 v -9.9375 c 0,-9.4375 -7.157,-12.8125 -11.625,-12.8125 -4.875,0 -8.938,3.4687 -8.938,8.4375 0,5.4687 4.172,13.7187 20.563,14.3125"
           style="fill:#000000;fill-opacity:1;fill-rule:nonzero;stroke:none"
           id="path22-2-2"
           inkscape:connector-curvature="0" />
        <path
           d="m 254.594,99.9844 v 10.9216 l -13.813,-1.093 v -3.079 c 6.953,0 7.75,-0.687 7.75,-5.562 V 74.5469 c 0,-4.4688 -1.093,-4.4688 -7.75,-4.4688 V 67 c 3.875,0.0938 8.547,0.2969 11.328,0.2969 3.969,0 8.641,0 12.61,-0.2969 v 3.0781 h -2.078 c -7.36,0 -7.547,1.0938 -7.547,4.6719 v 15.2969 c 0,9.8281 4.172,18.6721 11.719,18.6721 0.687,0 0.89,0 1.093,-0.094 -0.297,-0.109 -2.297,-1.297 -2.297,-3.875 0,-2.781 2.094,-4.266 4.282,-4.266 1.781,0 4.265,1.188 4.265,4.36 0,3.187 -3.078,6.062 -7.343,6.062 -7.25,0 -10.829,-6.656 -12.219,-10.9216"
           style="fill:#000000;fill-opacity:1;fill-rule:nonzero;stroke:none"
           id="path24-6"
           inkscape:connector-curvature="0" />
        <path
           d="m 300.047,84.0938 c -8.641,0 -8.641,9.9218 -8.641,12.2031 0,2.6875 0.11,5.8751 1.594,8.3591 0.797,1.188 3.078,3.969 7.047,3.969 8.641,0 8.641,-9.9375 8.641,-12.2187 0,-2.6875 -0.094,-5.8594 -1.579,-8.3438 -0.796,-1.1875 -3.078,-3.9687 -7.062,-3.9687 z m -11.516,-3.875 c 0,0.3906 0,2.6718 1.688,4.6562 3.875,-2.7812 7.953,-3.0781 9.828,-3.0781 9.25,0 16.094,6.8594 16.094,14.5 0,3.6875 -1.578,7.3591 -4.063,9.6411 3.578,3.375 7.141,3.875 8.938,3.875 0.203,0 0.687,0 0.984,-0.094 -1.094,-0.406 -1.578,-1.5 -1.578,-2.688 0,-1.687 1.281,-2.875 2.875,-2.875 1,0 2.875,0.688 2.875,2.969 0,1.703 -1.188,4.875 -5.063,4.875 -1.984,0 -6.359,-0.594 -10.531,-4.672 -4.172,3.281 -8.344,3.578 -10.531,3.578 -9.234,0 -16.094,-6.859 -16.094,-14.4997 0,-4.375 2.188,-8.1407 4.672,-10.2344 -1.281,-1.4844 -3.078,-4.7656 -3.078,-8.25 0,-3.0781 1.297,-6.8438 4.375,-8.8281 -5.969,-1.7032 -9.141,-5.9688 -9.141,-9.9375 0,-7.1563 9.828,-12.625 21.953,-12.625 11.719,0 22.047,5.0781 22.047,12.8125 0,3.4843 -1.39,8.5468 -6.453,11.3281 -5.265,2.7812 -11.031,2.7812 -17.078,2.7812 -2.484,0 -6.766,0 -7.453,0.1094 -3.188,0.3906 -5.266,3.4688 -5.266,6.6563 z m 14.297,-31.3907 c -10.031,0 -16.875,5.0625 -16.875,10.3282 0,4.5625 3.766,8.2343 8.141,8.5468 h 5.859 c 8.547,0 19.672,0 19.672,-8.5468 0,-5.375 -7.062,-10.3282 -16.797,-10.3282"
           style="fill:#000000;fill-opacity:1;fill-rule:nonzero;stroke:none"
           id="path26-1"
           inkscape:connector-curvature="0" />
        <path
           d="M 355.922,101.172 V 74.5469 c 0,-4.4688 -1.094,-4.4688 -7.75,-4.4688 V 67 c 3.484,0.0938 8.547,0.2969 11.234,0.2969 2.578,0 7.75,-0.2031 11.125,-0.2969 v 3.0781 c -6.656,0 -7.75,0 -7.75,4.4688 v 18.2812 c 0,10.3279 7.047,15.8909 13.407,15.8909 6.265,0 7.359,-5.36 7.359,-11.0315 V 74.5469 c 0,-4.4688 -1.094,-4.4688 -7.75,-4.4688 V 67 c 3.469,0.0938 8.547,0.2969 11.219,0.2969 2.593,0 7.75,-0.2031 11.125,-0.2969 v 3.0781 c -6.657,0 -7.75,0 -7.75,4.4688 v 18.2812 c 0,10.3279 7.062,15.8909 13.422,15.8909 6.25,0 7.343,-5.36 7.343,-11.0315 V 74.5469 c 0,-4.4688 -1.093,-4.4688 -7.75,-4.4688 V 67 c 3.485,0.0938 8.547,0.2969 11.235,0.2969 2.578,0 7.75,-0.2031 11.125,-0.2969 v 3.0781 c -5.172,0 -7.657,0 -7.75,2.9844 v 18.9688 c 0,8.5467 0,11.6247 -3.078,15.2027 -1.391,1.688 -4.672,3.672 -10.438,3.672 -8.344,0 -12.719,-5.953 -14.406,-9.734 -1.391,8.641 -8.735,9.734 -13.203,9.734 -7.25,0 -11.922,-4.265 -14.703,-10.422 v 10.422 l -14.016,-1.093 v -3.079 c 6.953,0 7.75,-0.687 7.75,-5.562"
           style="fill:#000000;fill-opacity:1;fill-rule:nonzero;stroke:none"
           id="path28-8"
           inkscape:connector-curvature="0" />
        <path
           d="m 461.078,74.5469 c 0.406,-3.9688 3.078,-8.1406 7.75,-8.1406 2.078,0 8.141,1.3906 8.141,9.4375 v 5.5625 h -2.485 v -5.5625 c 0,-5.7657 -2.484,-6.3594 -3.578,-6.3594 -3.265,0 -3.672,4.4687 -3.672,4.9687 v 19.8594 c 0,4.1719 0,8.0465 -3.578,11.7345 -3.875,3.859 -8.828,5.453 -13.609,5.453 -8.141,0 -15,-4.672 -15,-11.219 0,-2.9841 2,-4.6716 4.578,-4.6716 2.781,0 4.563,1.9844 4.563,4.5626 0,1.203 -0.5,4.484 -5.063,4.578 2.688,3.469 7.547,4.563 10.734,4.563 4.86,0 10.532,-3.875 10.532,-12.7036 v -3.6875 c -5.078,-0.2969 -12.032,-0.5938 -18.282,-3.5781 -7.453,-3.375 -9.937,-8.5313 -9.937,-12.9063 0,-8.0469 9.641,-10.5312 15.891,-10.5312 6.562,0 11.125,3.9687 13.015,8.6406 z m -0.687,16.2969 v -9.9375 c 0,-9.4375 -7.157,-12.8125 -11.625,-12.8125 -4.875,0 -8.938,3.4687 -8.938,8.4375 0,5.4687 4.172,13.7187 20.563,14.3125"
           style="fill:#000000;fill-opacity:1;fill-rule:nonzero;stroke:none"
           id="path30-7-8"
           inkscape:connector-curvature="0" />
        <path
           d="m 506.516,90.3438 c 2.968,3.7812 6.75,8.6406 9.14,11.2192 3.078,3.578 7.141,5.078 11.813,5.171 v 3.079 c -2.578,-0.204 -5.563,-0.297 -8.141,-0.297 -2.984,0 -8.25,0.203 -9.547,0.297 v -3.079 c 2.094,-0.203 2.891,-1.484 2.891,-3.078 0,-1.593 -1,-2.875 -1.5,-3.484 l -6.156,-7.7345 -7.75,10.0315 c -0.891,0.984 -0.891,1.187 -0.891,1.781 0,1.484 1.5,2.391 3.484,2.484 v 3.079 c -2.593,-0.094 -9.14,-0.297 -10.734,-0.297 -2.078,0 -6.75,0.093 -9.437,0.297 v -3.079 c 6.953,0 7.046,-0.093 11.718,-6.062 l 9.844,-12.8126 -9.344,-11.8125 c -4.765,-5.7656 -10.625,-5.9688 -12.718,-5.9688 V 67 c 2.593,0.2031 5.671,0.2969 8.25,0.2969 2.875,0 7.046,-0.2031 9.437,-0.2969 v 3.0781 C 494.688,70.375 494,71.6719 494,73.1563 c 0,2.1875 2.875,5.4687 8.938,12.625 l 7.546,-9.9375 c 0.797,-1.0938 2.079,-2.6875 2.079,-3.2813 0,-0.8906 -0.891,-2.3906 -3.563,-2.4844 V 67 c 2.969,0.0938 8.531,0.2969 10.719,0.2969 2.687,0 6.562,-0.0938 9.547,-0.2969 v 3.0781 c -5.375,0 -7.157,0.2032 -9.438,3.0782 l -13.312,17.1875"
           style="fill:#000000;fill-opacity:1;fill-rule:nonzero;stroke:none"
           id="path32-9"
           inkscape:connector-curvature="0" />
        <path
           d="m 454.703,42.5469 c -0.562,-0.4844 -3.015,-2.6719 -3.015,-3.7969 0,-0.9844 0.843,-1.75 1.75,-1.75 0.781,0 1.203,0.4844 1.625,1.0469 1.75,2.0469 3.921,3.5156 5.75,4.3594 0.984,0.4218 1.765,0.7812 1.765,1.9062 0,0.9063 -0.703,1.3281 -1.344,1.6719 -2.312,1.4062 -2.937,3.1719 -3.296,4.0781 -0.141,0.4219 -0.563,1.4844 -1.75,1.4844 -0.5,0 -1.688,-0.4219 -1.688,-1.7656 0,-0.9844 1.047,-2.9532 1.688,-3.7969 h -25.25 c -1.125,0 -2.813,0 -2.813,-1.6719 0,-1.7656 1.625,-1.7656 2.813,-1.7656 h 23.765"
           style="fill:#000000;fill-opacity:1;fill-rule:nonzero;stroke:none"
           id="path34-2"
           inkscape:connector-curvature="0" />
        <path
           d="m 443.734,12.3906 c -0.343,-1.4062 -0.984,-4.0781 -1.125,-4.15622 -1.328,-2.17188 -4.14,-5.96875 -8.5,-5.96875 -4.859,0 -4.859,4.5625 -4.859,5.82812 0,4.15625 1.969,9.14065 3.938,14.28125 0.562,1.4063 0.984,2.4531 0.984,3.5781 0,3.6563 -3.094,6.0469 -6.672,6.0469 -7.031,0 -10.203,-9.625 -10.203,-10.75 0,-0.9219 0.984,-0.9219 1.203,-0.9219 0.984,0 1.047,0.3594 1.266,1.125 1.687,5.7657 4.781,8.5782 7.515,8.5782 1.203,0 1.766,-0.7657 1.766,-2.4532 0,-1.625 -0.563,-3.0937 -1.266,-4.7187 -3.797,-9.7031 -3.797,-11.7344 -3.797,-13.64065 0,-1.1875 0,-4.42187 2.594,-6.67187 2.047,-1.687505 4.781,-2.250005 7.25,-2.250005 4.422,0 6.813,2.390625 9.141,4.640625 1.547,-4.5 6.25,-4.640625 7.094,-4.640625 2.39,0 4.218,1.406255 5.562,3.718755 1.547,2.75 2.531,6.82817 2.531,7.03127 0,0.9219 -0.984,0.9219 -1.203,0.9219 -0.984,0 -1.047,-0.2813 -1.547,-2.18755 -0.843,-3.29687 -2.172,-7.51562 -5.125,-7.51562 -1.828,0 -2.328,1.60937 -2.328,3.4375 0,1.20312 0.563,3.73437 1.063,5.56247 0.484,1.8907 1.187,4.7813 1.547,6.3282 l 1.609,6.25 c 0.422,1.7656 1.203,4.8593 1.203,5.2031 0,1.4062 -1.125,2.25 -2.328,2.25 -2.594,0 -3.094,-2.0313 -3.656,-4.2813 l -3.657,-14.625"
           style="fill:#000000;fill-opacity:1;fill-rule:nonzero;stroke:none"
           id="path36-0"
           inkscape:connector-curvature="0" />
      </g>
    </g>
    <path
       d="m 72.674326,253.28884 c 0,-0.10831 0,-0.18243 -0.328361,-0.79811 -2.414066,-4.56635 -3.034305,-11.41868 -3.034305,-16.95985 0,-6.31081 0.735774,-12.61591 3.113362,-17.14801 0.249304,-0.43325 0.249304,-0.5074 0.249304,-0.61568 0,-0.25084 -0.07601,-0.35916 -0.19155,-0.35916 -0.194583,0 -1.933684,2.46274 -3.073821,7.06898 -0.985086,3.98488 -1.219195,8.00962 -1.219195,11.05387 0,2.82186 0.212828,7.21149 1.276961,11.30464 1.158397,4.45804 2.821472,6.81247 3.016055,6.81247 0.115543,0 0.19155,-0.1083 0.19155,-0.35915"
       style="fill:#000000;fill-opacity:1;fill-rule:nonzero;stroke:none;stroke-width:0.26644772"
       id="path14-5"
       inkscape:connector-curvature="0" />
    <g
       id="g1044">
      <g
         transform="matrix(0.65923886,0,0,-0.65923886,0.28939006,283.49359)"
         id="g10-2">
        <g
           transform="scale(0.1)"
           id="g12-6">
          <path
             inkscape:connector-curvature="0"
             id="path14-1"
             style="fill:#000000;fill-opacity:1;fill-rule:nonzero;stroke:none"
             d="m 28.8281,138.938 -13.3125,-13.5 1.7969,-1.797 11.5156,10.14 11.4375,-10.14 1.7813,1.797 -13.2188,13.5" />
          <path
             inkscape:connector-curvature="0"
             id="path16-8"
             style="fill:#000000;fill-opacity:1;fill-rule:nonzero;stroke:none"
             d="m 31.7656,75.5625 c 1.0938,-4.0781 4.5782,-6.6562 8.8438,-6.6562 3.4687,0 5.7656,2.2812 7.3437,5.4687 1.7032,3.5781 2.9844,9.625 2.9844,9.8281 0,1 -0.8906,1 -1.1875,1 -1,0 -1.0937,-0.4062 -1.3906,-1.7968 -1.3906,-5.5625 -3.2813,-12.3125 -7.4531,-12.3125 -2.0782,0 -3.0782,1.2968 -3.0782,4.5625 0,2.1875 1.1875,6.8593 1.9844,10.3437 l 2.7813,10.7188 c 0.2968,1.5 1.2968,5.2652 1.6875,6.7652 0.5,2.282 1.5,6.047 1.5,6.641 0,1.797 -1.3907,2.688 -2.8907,2.688 -0.5,0 -3.0781,-0.094 -3.875,-3.469 C 37.125,102.078 32.7656,84.7031 31.5625,79.4375 31.4688,79.0469 27.5,71.0938 20.25,71.0938 c -5.1719,0 -6.1562,4.4687 -6.1562,8.1406 0,5.5625 2.7812,13.4219 5.3593,20.2656 1.1875,2.984 1.6875,4.375 1.6875,6.266 0,4.468 -3.1875,8.14 -8.1406,8.14 -9.4375,0 -13.125,-14.406 -13.125,-15.2966 0,-1 1,-1 1.20313,-1 0.98437,0 1.09375,0.2031 1.57812,1.7969 2.48438,8.6407 6.26563,12.3127 10.03125,12.3127 0.9063,0 2.4844,-0.094 2.4844,-3.281 0,-2.375 -1.0781,-5.266 -1.6875,-6.75 C 9.8125,91.8594 7.73438,85.6875 7.73438,80.8281 c 0,-9.4375 6.84372,-11.9218 12.21872,-11.9218 6.5469,0 10.125,4.4687 11.8125,6.6562" />
          <path
             inkscape:connector-curvature="0"
             id="path18-7"
             style="fill:#000000;fill-opacity:1;fill-rule:nonzero;stroke:none"
             d="m 77.7813,98.9375 c 0,1.1255 -0.8438,2.6715 -2.8125,2.6715 -1.9063,0 -3.9375,-1.8277 -3.9375,-3.859 0,-1.2031 0.9062,-2.6719 2.8125,-2.6719 2.0312,0 3.9375,1.9688 3.9375,3.8594 z M 63.4375,63.2188 c -0.2812,-0.9063 -0.6406,-1.75 -0.6406,-2.9532 0,-3.2968 2.8125,-5.9687 6.6875,-5.9687 7.0312,0 10.125,9.7031 10.125,10.75 0,0.9219 -0.9219,0.9219 -1.125,0.9219 -0.9844,0 -1.0625,-0.4219 -1.3438,-1.2032 -1.6093,-5.625 -4.7031,-8.5 -7.4531,-8.5 -1.4062,0 -1.75,0.9063 -1.75,2.4532 0,1.625 0.4844,2.9531 1.125,4.5 0.7031,1.9062 1.4688,3.7968 2.25,5.625 0.625,1.6875 3.1563,8.0937 3.4375,8.9375 0.2188,0.7031 0.4219,1.5468 0.4219,2.25 C 75.1719,83.3281 72.3594,86 68.5,86 61.5313,86 58.2969,76.4375 58.2969,75.25 c 0,-0.9219 0.9844,-0.9219 1.2031,-0.9219 0.9844,0 1.0469,0.3594 1.2656,1.125 1.8282,6.0469 4.9219,8.5782 7.5157,8.5782 1.125,0 1.7656,-0.5625 1.7656,-2.4532 0,-1.625 -0.4219,-2.6718 -2.1875,-7.0312 L 63.4375,63.2188" />
          <path
             inkscape:connector-curvature="0"
             id="path20-9"
             style="fill:#000000;fill-opacity:1;fill-rule:nonzero;stroke:none"
             d="m 184.25,102.484 c 1.484,0 3.375,0 3.375,1.985 0,1.984 -1.891,1.984 -3.281,1.984 h -59.5 c -1.391,0 -3.281,0 -3.281,-1.984 0,-1.985 1.89,-1.985 3.375,-1.985 z m 0.094,-19.2652 c 1.39,0 3.281,0 3.281,1.9843 0,1.9844 -1.891,1.9844 -3.375,1.9844 h -59.312 c -1.485,0 -3.375,0 -3.375,-1.9844 0,-1.9843 1.89,-1.9843 3.281,-1.9843 h 59.5" />
          <path
             inkscape:connector-curvature="0"
             id="path22-2"
             style="fill:#000000;fill-opacity:1;fill-rule:nonzero;stroke:none"
             d="m 253.078,77.5469 c 0.406,-3.9688 3.078,-8.1406 7.75,-8.1406 2.078,0 8.141,1.3906 8.141,9.4375 v 5.5625 h -2.485 v -5.5625 c 0,-5.7657 -2.484,-6.3594 -3.578,-6.3594 -3.265,0 -3.672,4.4687 -3.672,4.9687 v 19.8594 c 0,4.1715 0,8.0465 -3.578,11.7345 -3.875,3.859 -8.828,5.453 -13.609,5.453 -8.141,0 -15,-4.672 -15,-11.219 0,-2.984 2,-4.6716 4.578,-4.6716 2.781,0 4.563,1.9846 4.563,4.5626 0,1.203 -0.5,4.484 -5.063,4.578 2.688,3.469 7.547,4.563 10.734,4.563 4.86,0 10.532,-3.875 10.532,-12.7036 v -3.6875 c -5.078,-0.2969 -12.032,-0.5938 -18.282,-3.5781 -7.453,-3.375 -9.937,-8.5313 -9.937,-12.9063 0,-8.0469 9.641,-10.5312 15.891,-10.5312 6.562,0 11.125,3.9687 13.015,8.6406 z m -0.687,16.2969 v -9.9375 c 0,-9.4375 -7.157,-12.8125 -11.625,-12.8125 -4.875,0 -8.938,3.4687 -8.938,8.4375 0,5.4687 4.172,13.7187 20.563,14.3125" />
          <path
             inkscape:connector-curvature="0"
             id="path24-0"
             style="fill:#000000;fill-opacity:1;fill-rule:nonzero;stroke:none"
             d="m 287.594,102.984 v 10.922 l -13.813,-1.093 v -3.079 c 6.953,0 7.75,-0.687 7.75,-5.562 V 77.5469 c 0,-4.4688 -1.093,-4.4688 -7.75,-4.4688 V 70 c 3.875,0.0938 8.547,0.2969 11.328,0.2969 3.969,0 8.641,0 12.61,-0.2969 v 3.0781 h -2.078 c -7.36,0 -7.547,1.0938 -7.547,4.6719 v 15.2969 c 0,9.8281 4.172,18.6721 11.719,18.6721 0.687,0 0.89,0 1.093,-0.094 -0.297,-0.109 -2.297,-1.297 -2.297,-3.875 0,-2.781 2.094,-4.266 4.282,-4.266 1.781,0 4.265,1.188 4.265,4.36 0,3.187 -3.078,6.062 -7.343,6.062 -7.25,0 -10.829,-6.656 -12.219,-10.922" />
          <path
             inkscape:connector-curvature="0"
             id="path26-2"
             style="fill:#000000;fill-opacity:1;fill-rule:nonzero;stroke:none"
             d="m 332.047,87.0938 c -8.641,0 -8.641,9.9218 -8.641,12.2031 0,2.6871 0.11,5.8751 1.594,8.3591 0.797,1.188 3.078,3.969 7.047,3.969 8.641,0 8.641,-9.937 8.641,-12.2187 0,-2.6875 -0.094,-5.8594 -1.579,-8.3438 -0.796,-1.1875 -3.078,-3.9687 -7.062,-3.9687 z m -11.516,-3.875 c 0,0.3906 0,2.6718 1.688,4.6562 3.875,-2.7812 7.953,-3.0781 9.828,-3.0781 9.25,0 16.094,6.8594 16.094,14.5 0,3.6871 -1.578,7.3591 -4.063,9.6411 3.578,3.375 7.141,3.875 8.938,3.875 0.203,0 0.687,0 0.984,-0.094 -1.094,-0.406 -1.578,-1.5 -1.578,-2.688 0,-1.687 1.281,-2.875 2.875,-2.875 1,0 2.875,0.688 2.875,2.969 0,1.703 -1.188,4.875 -5.063,4.875 -1.984,0 -6.359,-0.594 -10.531,-4.672 -4.172,3.281 -8.344,3.578 -10.531,3.578 -9.234,0 -16.094,-6.859 -16.094,-14.4997 0,-4.375 2.188,-8.1407 4.672,-10.2344 -1.281,-1.4844 -3.078,-4.7656 -3.078,-8.25 0,-3.0781 1.297,-6.8438 4.375,-8.8281 -5.969,-1.7032 -9.141,-5.9688 -9.141,-9.9375 0,-7.1563 9.828,-12.625 21.953,-12.625 11.719,0 22.047,5.0781 22.047,12.8125 0,3.4843 -1.39,8.5468 -6.453,11.3281 -5.265,2.7812 -11.031,2.7812 -17.078,2.7812 -2.484,0 -6.766,0 -7.453,0.1094 -3.188,0.3906 -5.266,3.4688 -5.266,6.6563 z m 14.297,-31.3907 c -10.031,0 -16.875,5.0625 -16.875,10.3282 0,4.5625 3.766,8.2343 8.141,8.5468 h 5.859 c 8.547,0 19.672,0 19.672,-8.5468 0,-5.375 -7.062,-10.3282 -16.797,-10.3282" />
          <path
             inkscape:connector-curvature="0"
             id="path28-3"
             style="fill:#000000;fill-opacity:1;fill-rule:nonzero;stroke:none"
             d="M 388.922,104.172 V 77.5469 c 0,-4.4688 -1.094,-4.4688 -7.75,-4.4688 V 70 c 3.484,0.0938 8.547,0.2969 11.234,0.2969 2.578,0 7.75,-0.2031 11.125,-0.2969 v 3.0781 c -6.656,0 -7.75,0 -7.75,4.4688 v 18.2812 c 0,10.3279 7.047,15.8909 13.407,15.8909 6.265,0 7.359,-5.36 7.359,-11.031 V 77.5469 c 0,-4.4688 -1.094,-4.4688 -7.75,-4.4688 V 70 c 3.469,0.0938 8.547,0.2969 11.219,0.2969 2.593,0 7.75,-0.2031 11.125,-0.2969 v 3.0781 c -6.657,0 -7.75,0 -7.75,4.4688 v 18.2812 c 0,10.3279 7.062,15.8909 13.422,15.8909 6.25,0 7.343,-5.36 7.343,-11.031 V 77.5469 c 0,-4.4688 -1.093,-4.4688 -7.75,-4.4688 V 70 c 3.485,0.0938 8.547,0.2969 11.235,0.2969 2.578,0 7.75,-0.2031 11.125,-0.2969 v 3.0781 c -5.172,0 -7.657,0 -7.75,2.9844 v 18.9688 c 0,8.5467 0,11.6247 -3.078,15.2027 -1.391,1.688 -4.672,3.672 -10.438,3.672 -8.344,0 -12.719,-5.953 -14.406,-9.734 -1.391,8.641 -8.735,9.734 -13.203,9.734 -7.25,0 -11.922,-4.265 -14.703,-10.422 v 10.422 l -14.016,-1.093 v -3.079 c 6.953,0 7.75,-0.687 7.75,-5.562" />
          <path
             inkscape:connector-curvature="0"
             id="path30-7"
             style="fill:#000000;fill-opacity:1;fill-rule:nonzero;stroke:none"
             d="m 493.078,77.5469 c 0.406,-3.9688 3.078,-8.1406 7.75,-8.1406 2.078,0 8.141,1.3906 8.141,9.4375 v 5.5625 h -2.485 v -5.5625 c 0,-5.7657 -2.484,-6.3594 -3.578,-6.3594 -3.265,0 -3.672,4.4687 -3.672,4.9687 v 19.8594 c 0,4.1715 0,8.0465 -3.578,11.7345 -3.875,3.859 -8.828,5.453 -13.609,5.453 -8.141,0 -15,-4.672 -15,-11.219 0,-2.984 2,-4.6716 4.578,-4.6716 2.781,0 4.563,1.9846 4.563,4.5626 0,1.203 -0.5,4.484 -5.063,4.578 2.688,3.469 7.547,4.563 10.734,4.563 4.86,0 10.532,-3.875 10.532,-12.7036 v -3.6875 c -5.078,-0.2969 -12.032,-0.5938 -18.282,-3.5781 -7.453,-3.375 -9.937,-8.5313 -9.937,-12.9063 0,-8.0469 9.641,-10.5312 15.891,-10.5312 6.562,0 11.125,3.9687 13.015,8.6406 z m -0.687,16.2969 v -9.9375 c 0,-9.4375 -7.157,-12.8125 -11.625,-12.8125 -4.875,0 -8.938,3.4687 -8.938,8.4375 0,5.4687 4.172,13.7187 20.563,14.3125" />
          <path
             inkscape:connector-curvature="0"
             id="path32-5"
             style="fill:#000000;fill-opacity:1;fill-rule:nonzero;stroke:none"
             d="m 539.516,93.3438 c 2.968,3.7812 6.75,8.6402 9.14,11.2192 3.078,3.578 7.141,5.078 11.813,5.171 v 3.079 c -2.578,-0.204 -5.563,-0.297 -8.141,-0.297 -2.984,0 -8.25,0.203 -9.547,0.297 v -3.079 c 2.094,-0.203 2.891,-1.484 2.891,-3.078 0,-1.593 -1,-2.875 -1.5,-3.484 l -6.156,-7.7345 -7.75,10.0315 c -0.891,0.984 -0.891,1.187 -0.891,1.781 0,1.484 1.5,2.391 3.484,2.484 v 3.079 c -2.593,-0.094 -9.14,-0.297 -10.734,-0.297 -2.078,0 -6.75,0.093 -9.437,0.297 v -3.079 c 6.953,0 7.046,-0.093 11.718,-6.062 l 9.844,-12.8126 -9.344,-11.8125 c -4.765,-5.7656 -10.625,-5.9688 -12.718,-5.9688 V 70 c 2.593,0.2031 5.671,0.2969 8.25,0.2969 2.875,0 7.046,-0.2031 9.437,-0.2969 v 3.0781 C 527.688,73.375 527,74.6719 527,76.1563 c 0,2.1875 2.875,5.4687 8.938,12.625 l 7.546,-9.9375 c 0.797,-1.0938 2.079,-2.6875 2.079,-3.2813 0,-0.8906 -0.891,-2.3906 -3.563,-2.4844 V 70 c 2.969,0.0938 8.531,0.2969 10.719,0.2969 2.687,0 6.562,-0.0938 9.547,-0.2969 v 3.0781 c -5.375,0 -7.157,0.2032 -9.438,3.0782 l -13.312,17.1875" />
          <path
             inkscape:connector-curvature="0"
             id="path34-9"
             style="fill:#000000;fill-opacity:1;fill-rule:nonzero;stroke:none"
             d="m 459.734,21.3906 c -0.343,-1.4062 -0.984,-4.0781 -1.125,-4.1562 -1.328,-2.1719 -4.14,-5.9688 -8.5,-5.9688 -4.859,0 -4.859,4.5625 -4.859,5.8282 0,4.1562 1.969,9.1406 3.938,14.2812 0.562,1.4063 0.984,2.4531 0.984,3.5781 0,3.6563 -3.094,6.0469 -6.672,6.0469 -7.031,0 -10.203,-9.625 -10.203,-10.75 0,-0.9219 0.984,-0.9219 1.203,-0.9219 0.984,0 1.047,0.3594 1.266,1.125 1.687,5.7657 4.781,8.5782 7.515,8.5782 1.203,0 1.766,-0.7657 1.766,-2.4532 0,-1.625 -0.563,-3.0937 -1.266,-4.7187 -3.797,-9.7031 -3.797,-11.7344 -3.797,-13.6406 0,-1.1875 0,-4.4219 2.594,-6.6719 2.047,-1.68752 4.781,-2.25002 7.25,-2.25002 4.422,0 6.813,2.39062 9.141,4.64062 1.547,-4.5 6.25,-4.64062 7.094,-4.64062 2.39,0 4.218,1.40622 5.562,3.71872 1.547,2.75 2.531,6.8282 2.531,7.0313 0,0.9219 -0.984,0.9219 -1.203,0.9219 -0.984,0 -1.047,-0.2813 -1.547,-2.1875 -0.843,-3.2969 -2.172,-7.5157 -5.125,-7.5157 -1.828,0 -2.328,1.6094 -2.328,3.4375 0,1.2032 0.563,3.7344 1.063,5.5625 0.484,1.8907 1.187,4.7813 1.547,6.3282 l 1.609,6.25 c 0.422,1.7656 1.203,4.8593 1.203,5.2031 0,1.4062 -1.125,2.25 -2.328,2.25 -2.594,0 -3.094,-2.0313 -3.656,-4.2813 l -3.657,-14.625" />
          <path
             inkscape:connector-curvature="0"
             id="path36-2"
             style="fill:#000000;fill-opacity:1;fill-rule:nonzero;stroke:none"
             d="m 496.969,31.4688 c 0,1.2187 -0.906,2.1718 -2.219,2.1718 -1.406,0 -3.078,-1.3593 -3.078,-3.0312 0,-1.4063 1.109,-2.1719 2.172,-2.1719 1.672,0 3.125,1.5156 3.125,3.0313 z m 2.375,-24.20317 c 0,0.70312 -0.86,0.70312 -1.063,0.70312 -0.859,0 -0.906,-0.20312 -1.203,-1.15625 -0.859,-2.78125 -3.125,-5.65625 -5.656,-5.65625 -1.156,0 -1.516,0.8125 -1.516,1.92188 0,1.0625 0.25,1.60937 0.657,2.57812 0.406,1 0.812,2.01563 1.062,2.71875 0.203,0.45313 2.172,5.1406 2.875,6.9531 0.406,1.0157 0.703,1.6719 0.703,2.5313 0,2.4219 -2.312,4.4375 -5.5,4.4375 -5.297,0 -8.109,-6.4688 -8.109,-7.8281 0,-0.7032 0.797,-0.7032 1.062,-0.7032 0.844,0 0.907,0.25 1.157,1.0157 1.109,3.5781 3.531,5.7968 5.687,5.7968 0.969,0 1.516,-0.5625 1.516,-1.9218 0,-0.2032 0,-0.8594 -0.297,-1.8125 -0.36,-0.9063 -2.625,-6.2969 -3.328,-8.01567 -0.36,-0.85938 -0.36,-0.95313 -1.11,-2.67188 -0.25,-0.70312 -0.562,-1.42187 -0.562,-2.26562 0,-2.625 2.484,-4.45313 5.5,-4.45313 5.297,0 8.125,6.5625 8.125,7.82813" />
        </g>
      </g>
      <g
         transform="translate(-7.4083336,2.6458334)"
         id="g1337">
        <path
           inkscape:connector-curvature="0"
           id="path900-7-2"
           d="M 102.3067,280.36141 V 265.9163"
           style="fill:none;stroke:#000000;stroke-width:1;stroke-linecap:round;stroke-linejoin:miter;stroke-miterlimit:4;stroke-dasharray:none;stroke-opacity:1" />
        <path
           inkscape:connector-curvature="0"
           id="path900-7-3"
           d="M 154.20337,280.36141 V 265.9163"
           style="fill:none;stroke:#000000;stroke-width:1;stroke-linecap:round;stroke-linejoin:miter;stroke-miterlimit:4;stroke-dasharray:none;stroke-opacity:1" />
        <path
           inkscape:connector-curvature="0"
           id="path900-56-6"
           d="M 143.82403,280.36141 V 265.9163"
           style="fill:none;stroke:#000000;stroke-width:1;stroke-linecap:round;stroke-linejoin:miter;stroke-miterlimit:4;stroke-dasharray:none;stroke-opacity:1" />
        <g
           id="g979-7"
           transform="translate(43.07277,172.57567)">
          <g
             word-spacing="normal"
             letter-spacing="normal"
             font-size-adjust="none"
             font-stretch="normal"
             font-weight="normal"
             font-variant="normal"
             font-style="normal"
             stroke-miterlimit="10.433"
             xml:space="preserve"
             transform="matrix(0.3,0,0,-0.3,-52.5,222.75)"
             id="g977-5"
             style="font-style:normal;font-variant:normal;font-weight:normal;font-stretch:normal;letter-spacing:normal;word-spacing:normal;text-anchor:start;fill:none;fill-opacity:1;fill-rule:evenodd;stroke:#000000;stroke-linecap:butt;stroke-linejoin:miter;stroke-miterlimit:10.43299961;stroke-dasharray:none;stroke-dashoffset:0;stroke-opacity:1"><path
               id="path971-3"
               d="m 465.08,408.84 v 0.13 l -0.01,0.14 -0.02,0.13 -0.02,0.13 -0.03,0.12 -0.04,0.13 -0.04,0.12 -0.05,0.12 -0.05,0.12 -0.06,0.11 -0.06,0.11 -0.07,0.11 -0.07,0.1 -0.08,0.1 -0.09,0.1 -0.08,0.09 -0.1,0.09 -0.09,0.08 -0.1,0.08 -0.1,0.07 -0.11,0.07 -0.11,0.07 -0.12,0.06 -0.11,0.05 -0.12,0.05 -0.13,0.04 -0.12,0.04 -0.13,0.03 -0.13,0.02 -0.13,0.02 -0.13,0.01 h -0.14 c -1.44,0 -2.64,-1.2 -2.64,-2.64 0,-1.44 1.2,-2.64 2.64,-2.64 1.45,0 2.64,1.2 2.64,2.64 z"
               inkscape:connector-curvature="0"
               style="fill:#000000;stroke-width:0" /><path
               id="path973-5"
               d="m 478.88,408.84 v 0.13 l -0.01,0.14 -0.02,0.13 -0.02,0.13 -0.03,0.12 -0.04,0.13 -0.04,0.12 -0.05,0.12 -0.05,0.12 -0.06,0.11 -0.06,0.11 -0.07,0.11 -0.08,0.1 -0.08,0.1 -0.08,0.1 -0.09,0.09 -0.09,0.09 -0.09,0.08 -0.1,0.08 -0.11,0.07 -0.11,0.07 -0.11,0.07 -0.11,0.06 -0.12,0.05 -0.12,0.05 -0.12,0.04 -0.12,0.04 -0.13,0.03 -0.13,0.02 -0.13,0.02 -0.14,0.01 h -0.13 c -1.44,0 -2.64,-1.2 -2.64,-2.64 0,-1.44 1.2,-2.64 2.64,-2.64 1.45,0 2.64,1.2 2.64,2.64 z"
               inkscape:connector-curvature="0"
               style="fill:#000000;stroke-width:0" /><path
               id="path975-6"
               d="m 492.68,408.84 -0.01,0.13 -0.01,0.14 -0.01,0.13 -0.03,0.13 -0.03,0.12 -0.03,0.13 -0.04,0.12 -0.05,0.12 -0.06,0.12 -0.05,0.11 -0.07,0.11 -0.07,0.11 -0.07,0.1 -0.08,0.1 -0.08,0.1 -0.09,0.09 -0.09,0.09 -0.1,0.08 -0.1,0.08 -0.1,0.07 -0.11,0.07 -0.11,0.07 -0.11,0.06 -0.12,0.05 -0.12,0.05 -0.12,0.04 -0.13,0.04 -0.12,0.03 -0.13,0.02 -0.14,0.02 -0.13,0.01 h -0.13 c -1.44,0 -2.65,-1.2 -2.65,-2.64 0,-1.44 1.21,-2.64 2.65,-2.64 1.45,0 2.64,1.2 2.64,2.64 z"
               inkscape:connector-curvature="0"
               style="fill:#000000;stroke-width:0" /></g>        </g>
        <path
           inkscape:connector-curvature="0"
           id="path900"
           d="M 60.789418,280.36131 V 265.9162"
           style="fill:none;stroke:#000000;stroke-width:1;stroke-linecap:round;stroke-linejoin:miter;stroke-miterlimit:4;stroke-dasharray:none;stroke-opacity:1" />
        <path
           inkscape:connector-curvature="0"
           id="path900-7"
           d="M 123.06536,280.36132 V 265.91621"
           style="fill:none;stroke:#000000;stroke-width:1;stroke-linecap:round;stroke-linejoin:miter;stroke-miterlimit:4;stroke-dasharray:none;stroke-opacity:1" />
        <path
           inkscape:connector-curvature="0"
           id="path900-5"
           d="M 71.168751,280.36132 V 265.91621"
           style="fill:none;stroke:#000000;stroke-width:1;stroke-linecap:round;stroke-linejoin:miter;stroke-miterlimit:4;stroke-dasharray:none;stroke-opacity:1" />
        <path
           inkscape:connector-curvature="0"
           id="path900-3"
           d="M 81.548093,280.36132 V 265.91621"
           style="fill:none;stroke:#000000;stroke-width:1;stroke-linecap:round;stroke-linejoin:miter;stroke-miterlimit:4;stroke-dasharray:none;stroke-opacity:1" />
        <path
           inkscape:connector-curvature="0"
           id="path900-56"
           d="M 112.68603,280.36132 V 265.91621"
           style="fill:none;stroke:#000000;stroke-width:1;stroke-linecap:round;stroke-linejoin:miter;stroke-miterlimit:4;stroke-dasharray:none;stroke-opacity:1" />
        <g
           id="g979"
           transform="translate(1.5554318,172.57558)">
          <g
             word-spacing="normal"
             letter-spacing="normal"
             font-size-adjust="none"
             font-stretch="normal"
             font-weight="normal"
             font-variant="normal"
             font-style="normal"
             stroke-miterlimit="10.433"
             xml:space="preserve"
             transform="matrix(0.3,0,0,-0.3,-52.5,222.75)"
             id="g977"
             style="font-style:normal;font-variant:normal;font-weight:normal;font-stretch:normal;letter-spacing:normal;word-spacing:normal;text-anchor:start;fill:none;fill-opacity:1;fill-rule:evenodd;stroke:#000000;stroke-linecap:butt;stroke-linejoin:miter;stroke-miterlimit:10.43299961;stroke-dasharray:none;stroke-dashoffset:0;stroke-opacity:1"><path
               id="path971"
               d="m 465.08,408.84 v 0.13 l -0.01,0.14 -0.02,0.13 -0.02,0.13 -0.03,0.12 -0.04,0.13 -0.04,0.12 -0.05,0.12 -0.05,0.12 -0.06,0.11 -0.06,0.11 -0.07,0.11 -0.07,0.1 -0.08,0.1 -0.09,0.1 -0.08,0.09 -0.1,0.09 -0.09,0.08 -0.1,0.08 -0.1,0.07 -0.11,0.07 -0.11,0.07 -0.12,0.06 -0.11,0.05 -0.12,0.05 -0.13,0.04 -0.12,0.04 -0.13,0.03 -0.13,0.02 -0.13,0.02 -0.13,0.01 h -0.14 c -1.44,0 -2.64,-1.2 -2.64,-2.64 0,-1.44 1.2,-2.64 2.64,-2.64 1.45,0 2.64,1.2 2.64,2.64 z"
               inkscape:connector-curvature="0"
               style="fill:#000000;stroke-width:0" /><path
               id="path973"
               d="m 478.88,408.84 v 0.13 l -0.01,0.14 -0.02,0.13 -0.02,0.13 -0.03,0.12 -0.04,0.13 -0.04,0.12 -0.05,0.12 -0.05,0.12 -0.06,0.11 -0.06,0.11 -0.07,0.11 -0.08,0.1 -0.08,0.1 -0.08,0.1 -0.09,0.09 -0.09,0.09 -0.09,0.08 -0.1,0.08 -0.11,0.07 -0.11,0.07 -0.11,0.07 -0.11,0.06 -0.12,0.05 -0.12,0.05 -0.12,0.04 -0.12,0.04 -0.13,0.03 -0.13,0.02 -0.13,0.02 -0.14,0.01 h -0.13 c -1.44,0 -2.64,-1.2 -2.64,-2.64 0,-1.44 1.2,-2.64 2.64,-2.64 1.45,0 2.64,1.2 2.64,2.64 z"
               inkscape:connector-curvature="0"
               style="fill:#000000;stroke-width:0" /><path
               id="path975"
               d="m 492.68,408.84 -0.01,0.13 -0.01,0.14 -0.01,0.13 -0.03,0.13 -0.03,0.12 -0.03,0.13 -0.04,0.12 -0.05,0.12 -0.06,0.12 -0.05,0.11 -0.07,0.11 -0.07,0.11 -0.07,0.1 -0.08,0.1 -0.08,0.1 -0.09,0.09 -0.09,0.09 -0.1,0.08 -0.1,0.08 -0.1,0.07 -0.11,0.07 -0.11,0.07 -0.11,0.06 -0.12,0.05 -0.12,0.05 -0.12,0.04 -0.13,0.04 -0.12,0.03 -0.13,0.02 -0.14,0.02 -0.13,0.01 h -0.13 c -1.44,0 -2.65,-1.2 -2.65,-2.64 0,-1.44 1.21,-2.64 2.65,-2.64 1.45,0 2.64,1.2 2.64,2.64 z"
               inkscape:connector-curvature="0"
               style="fill:#000000;stroke-width:0" /></g>        </g>
        <g
           id="g1110"
           transform="translate(-12.700002)">
          <rect
             y="278.42584"
             x="67.49688"
             height="11.137322"
             width="105.3991"
             id="rect815-7-0-6-6"
             style="opacity:1;fill:#c9c9c9;fill-opacity:1;fill-rule:nonzero;stroke:#808080;stroke-width:5;stroke-linecap:round;stroke-linejoin:round;stroke-miterlimit:4;stroke-dasharray:none;stroke-dashoffset:0;stroke-opacity:1;paint-order:markers stroke fill" />
          <path
             id="path821-3-5-2-7"
             d="m 119.46892,284.19066 0.0326,-0.19856 0.52587,-2.10348 c 0.0667,-0.26992 0.0838,-0.29318 0.41573,-0.29318 h 0.74304 c 0.64222,0 1.05174,0.20787 1.05174,0.74149 0,0.3025 -0.15512,0.96643 -0.45606,1.24565 -0.38781,0.34593 -0.85008,0.40953 -1.1929,0.40953 h -1.08742 l -0.0326,0.19856 h 1.3139 c 1.09828,0 2.17173,-0.802 2.17173,-1.66759 0,-0.59567 -0.5088,-1.16808 -1.52176,-1.16808 h -2.5037 c -0.14737,0 -0.23269,0 -0.23269,0.14737 0,0.0931 0.0698,0.0931 0.22493,0.0931 0.0993,0 0.24044,0.006 0.33197,0.014 0.1241,0.0171 0.17063,0.0388 0.17063,0.1241 0,0.031 -0.008,0.0559 -0.0326,0.14737 l -1.03468,4.14957 c -0.0776,0.30249 -0.0915,0.36299 -0.70271,0.36299 -0.1303,0 -0.21562,0 -0.21562,0.14891 0,0.0915 0.0915,0.0915 0.11324,0.0915 0.21872,0 0.76631,-0.0248 0.98193,-0.0248 0.16288,0 0.33197,0.0109 0.49485,0.0109 0.17219,0 0.34127,0.014 0.50415,0.014 0.0527,0 0.15202,0 0.15202,-0.15513 0,-0.0853 -0.0667,-0.0853 -0.21562,-0.0853 -0.28543,0 -0.50105,0 -0.50105,-0.13807 0,-0.045 0.014,-0.0838 0.0217,-0.1303 z"
             inkscape:connector-curvature="0"
             style="font-style:normal;font-variant:normal;font-weight:normal;font-stretch:normal;letter-spacing:normal;word-spacing:normal;text-anchor:start;fill:#000000;fill-opacity:1;fill-rule:evenodd;stroke:#000000;stroke-width:0;stroke-linecap:butt;stroke-linejoin:miter;stroke-miterlimit:10.43299961;stroke-dasharray:none;stroke-dashoffset:0;stroke-opacity:1" />
        </g>
        <g
           id="g1132"
           transform="translate(-22.064137,25.326719)">
          <rect
             style="opacity:1;fill:#ffda6c;fill-opacity:1;fill-rule:nonzero;stroke:#ffda6c;stroke-width:5.25542927;stroke-linecap:round;stroke-linejoin:round;stroke-miterlimit:4;stroke-dasharray:none;stroke-dashoffset:0;stroke-opacity:1;paint-order:markers stroke fill"
             id="rect815-3-6-0-87-6-3"
             width="3.1180451"
             height="2.3834167"
             x="81.294533"
             y="235.67265" />
          <path
             inkscape:connector-curvature="0"
             id="path14-68-9-8-98-9-7-5"
             style="fill:#000000;fill-opacity:1;fill-rule:nonzero;stroke:none;stroke-width:0.08888885"
             d="m 82.403553,236.72686 c 0.25554,0 0.90971,-0.0167 1.351391,-0.20279 0.61806,-0.26527 0.661109,-0.78611 0.661109,-0.90972 0,-0.38749 -0.334728,-0.75 -0.94445,-0.75 -0.98054,0 -2.31388,0.85695 -2.31388,2.4014 0,0.90138 0.52222,1.5986 1.38751,1.5986 1.26248,0 2.004151,-0.93611 2.004151,-1.04166 0,-0.0528 -0.0528,-0.11528 -0.106911,-0.11528 -0.043,0 -0.0612,0.018 -0.113879,0.0889 -0.69723,0.87362 -1.65974,0.87362 -1.76667,0.87362 -0.688901,0 -0.76806,-0.74167 -0.76806,-1.02362 0,-0.10692 0.0101,-0.38054 0.141679,-0.91943 z m -0.415279,-0.19306 c 0.344449,-1.34306 1.254159,-1.475 1.483329,-1.475 0.415281,0 0.654172,0.25555 0.654172,0.55555 0,0.91945 -1.413891,0.91945 -1.774992,0.91945 h -0.362509" />
        </g>
        <g
           id="g1132-6"
           transform="translate(-11.684799,25.326719)">
          <rect
             style="opacity:1;fill:#ffda6c;fill-opacity:1;fill-rule:nonzero;stroke:#ffda6c;stroke-width:5.25542927;stroke-linecap:round;stroke-linejoin:round;stroke-miterlimit:4;stroke-dasharray:none;stroke-dashoffset:0;stroke-opacity:1;paint-order:markers stroke fill"
             id="rect815-3-6-0-87-6-3-2"
             width="3.1180451"
             height="2.3834167"
             x="81.294533"
             y="235.67265" />
          <path
             inkscape:connector-curvature="0"
             id="path14-68-9-8-98-9-7-5-9"
             style="fill:#000000;fill-opacity:1;fill-rule:nonzero;stroke:none;stroke-width:0.08888885"
             d="m 82.403553,236.72686 c 0.25554,0 0.90971,-0.0167 1.351391,-0.20279 0.61806,-0.26527 0.661109,-0.78611 0.661109,-0.90972 0,-0.38749 -0.334728,-0.75 -0.94445,-0.75 -0.98054,0 -2.31388,0.85695 -2.31388,2.4014 0,0.90138 0.52222,1.5986 1.38751,1.5986 1.26248,0 2.004151,-0.93611 2.004151,-1.04166 0,-0.0528 -0.0528,-0.11528 -0.106911,-0.11528 -0.043,0 -0.0612,0.018 -0.113879,0.0889 -0.69723,0.87362 -1.65974,0.87362 -1.76667,0.87362 -0.688901,0 -0.76806,-0.74167 -0.76806,-1.02362 0,-0.10692 0.0101,-0.38054 0.141679,-0.91943 z m -0.415279,-0.19306 c 0.344449,-1.34306 1.254159,-1.475 1.483329,-1.475 0.415281,0 0.654172,0.25555 0.654172,0.55555 0,0.91945 -1.413891,0.91945 -1.774992,0.91945 h -0.362509" />
        </g>
        <g
           id="g1132-1"
           transform="translate(-1.3054561,25.326719)">
          <rect
             style="opacity:1;fill:#ffda6c;fill-opacity:1;fill-rule:nonzero;stroke:#ffda6c;stroke-width:5.25542927;stroke-linecap:round;stroke-linejoin:round;stroke-miterlimit:4;stroke-dasharray:none;stroke-dashoffset:0;stroke-opacity:1;paint-order:markers stroke fill"
             id="rect815-3-6-0-87-6-3-27"
             width="3.1180451"
             height="2.3834167"
             x="81.294533"
             y="235.67265" />
          <path
             inkscape:connector-curvature="0"
             id="path14-68-9-8-98-9-7-5-0"
             style="fill:#000000;fill-opacity:1;fill-rule:nonzero;stroke:none;stroke-width:0.08888885"
             d="m 82.403553,236.72686 c 0.25554,0 0.90971,-0.0167 1.351391,-0.20279 0.61806,-0.26527 0.661109,-0.78611 0.661109,-0.90972 0,-0.38749 -0.334728,-0.75 -0.94445,-0.75 -0.98054,0 -2.31388,0.85695 -2.31388,2.4014 0,0.90138 0.52222,1.5986 1.38751,1.5986 1.26248,0 2.004151,-0.93611 2.004151,-1.04166 0,-0.0528 -0.0528,-0.11528 -0.106911,-0.11528 -0.043,0 -0.0612,0.018 -0.113879,0.0889 -0.69723,0.87362 -1.65974,0.87362 -1.76667,0.87362 -0.688901,0 -0.76806,-0.74167 -0.76806,-1.02362 0,-0.10692 0.0101,-0.38054 0.141679,-0.91943 z m -0.415279,-0.19306 c 0.344449,-1.34306 1.254159,-1.475 1.483329,-1.475 0.415281,0 0.654172,0.25555 0.654172,0.55555 0,0.91945 -1.413891,0.91945 -1.774992,0.91945 h -0.362509" />
        </g>
        <g
           id="g1132-9"
           transform="translate(19.453208,25.326719)">
          <rect
             style="opacity:1;fill:#ffda6c;fill-opacity:1;fill-rule:nonzero;stroke:#ffda6c;stroke-width:5.25542927;stroke-linecap:round;stroke-linejoin:round;stroke-miterlimit:4;stroke-dasharray:none;stroke-dashoffset:0;stroke-opacity:1;paint-order:markers stroke fill"
             id="rect815-3-6-0-87-6-3-3"
             width="3.1180451"
             height="2.3834167"
             x="81.294533"
             y="235.67265" />
          <path
             inkscape:connector-curvature="0"
             id="path14-68-9-8-98-9-7-5-6"
             style="fill:#000000;fill-opacity:1;fill-rule:nonzero;stroke:none;stroke-width:0.08888885"
             d="m 82.403553,236.72686 c 0.25554,0 0.90971,-0.0167 1.351391,-0.20279 0.61806,-0.26527 0.661109,-0.78611 0.661109,-0.90972 0,-0.38749 -0.334728,-0.75 -0.94445,-0.75 -0.98054,0 -2.31388,0.85695 -2.31388,2.4014 0,0.90138 0.52222,1.5986 1.38751,1.5986 1.26248,0 2.004151,-0.93611 2.004151,-1.04166 0,-0.0528 -0.0528,-0.11528 -0.106911,-0.11528 -0.043,0 -0.0612,0.018 -0.113879,0.0889 -0.69723,0.87362 -1.65974,0.87362 -1.76667,0.87362 -0.688901,0 -0.76806,-0.74167 -0.76806,-1.02362 0,-0.10692 0.0101,-0.38054 0.141679,-0.91943 z m -0.415279,-0.19306 c 0.344449,-1.34306 1.254159,-1.475 1.483329,-1.475 0.415281,0 0.654172,0.25555 0.654172,0.55555 0,0.91945 -1.413891,0.91945 -1.774992,0.91945 h -0.362509" />
        </g>
        <rect
           y="260.99268"
           x="121.49773"
           height="2.3968327"
           width="3.1355963"
           id="rect815-3-6-1-3-6-2-8-7-0-6-9-0-0-3-1-7-9-2"
           style="opacity:1;fill:#82d0dd;fill-opacity:1;fill-rule:nonzero;stroke:#82d0dd;stroke-width:5.28501177;stroke-linecap:round;stroke-linejoin:round;stroke-miterlimit:4;stroke-dasharray:none;stroke-dashoffset:0;stroke-opacity:1;paint-order:markers stroke fill" />
        <rect
           y="260.99268"
           x="142.25645"
           height="2.3968327"
           width="3.1355963"
           id="rect815-3-6-1-3-6-2-8-7-0-6-9-0-0-3-1-7-9-2-0"
           style="opacity:1;fill:#82d0dd;fill-opacity:1;fill-rule:nonzero;stroke:#82d0dd;stroke-width:5.28501177;stroke-linecap:round;stroke-linejoin:round;stroke-miterlimit:4;stroke-dasharray:none;stroke-dashoffset:0;stroke-opacity:1;paint-order:markers stroke fill" />
        <rect
           y="260.99268"
           x="152.6358"
           height="2.3968327"
           width="3.1355963"
           id="rect815-3-6-1-3-6-2-8-7-0-6-9-0-0-3-1-7-9-2-6"
           style="opacity:1;fill:#82d0dd;fill-opacity:1;fill-rule:nonzero;stroke:#82d0dd;stroke-width:5.28501177;stroke-linecap:round;stroke-linejoin:round;stroke-miterlimit:4;stroke-dasharray:none;stroke-dashoffset:0;stroke-opacity:1;paint-order:markers stroke fill" />
        <path
           d="m 52.083346,294.04744 c 0,-0.10831 0,-0.18243 -0.328361,-0.79811 -2.414067,-4.56635 -3.034306,-11.41868 -3.034306,-16.95985 0,-6.31081 0.735774,-12.61591 3.113363,-17.14801 0.249304,-0.43325 0.249304,-0.5074 0.249304,-0.61568 0,-0.25084 -0.07601,-0.35916 -0.191551,-0.35916 -0.194582,0 -1.933684,2.46274 -3.073821,7.06898 -0.985086,3.98488 -1.219195,8.00962 -1.219195,11.05387 0,2.82186 0.212828,7.21149 1.276961,11.30464 1.158397,4.45804 2.821473,6.81247 3.016055,6.81247 0.115543,0 0.191551,-0.1083 0.191551,-0.35915"
           style="fill:#000000;fill-opacity:1;fill-rule:nonzero;stroke:none;stroke-width:0.26644775"
           id="path14-5-9"
           inkscape:connector-curvature="0" />
        <path
           d="m 162.52461,258.52578 c 0,0.10831 0,0.18243 0.32836,0.79811 2.41407,4.56635 3.03431,11.41868 3.03431,16.95985 0,6.31081 -0.73578,12.61591 -3.11337,17.14801 -0.2493,0.43325 -0.2493,0.5074 -0.2493,0.61568 0,0.25084 0.076,0.35916 0.19155,0.35916 0.19458,0 1.93368,-2.46274 3.07382,-7.06898 0.98509,-3.98488 1.2192,-8.00962 1.2192,-11.05387 0,-2.82186 -0.21283,-7.21149 -1.27697,-11.30464 -1.15839,-4.45804 -2.82147,-6.81247 -3.01605,-6.81247 -0.11554,0 -0.19155,0.1083 -0.19155,0.35915"
           style="fill:#000000;fill-opacity:1;fill-rule:nonzero;stroke:none;stroke-width:0.26644775"
           id="path14-5-9-7"
           inkscape:connector-curvature="0" />
      </g>
      <g
         transform="matrix(0.51502146,0,0,-0.51502146,144.5002,266.35383)"
         id="g10-3">
        <g
           transform="scale(0.1)"
           id="g12-61">
          <path
             inkscape:connector-curvature="0"
             id="path14-2"
             style="fill:#000000;fill-opacity:1;fill-rule:nonzero;stroke:none"
             d="m 32.7656,20.5625 c 1.0938,-4.0781 4.5782,-6.6562 8.8438,-6.6562 3.4687,0 5.7656,2.2812 7.3437,5.4687 1.7032,3.5781 2.9844,9.625 2.9844,9.8281 0,1 -0.8906,1 -1.1875,1 -1,0 -1.0937,-0.4062 -1.3906,-1.7968 -1.3906,-5.5625 -3.2813,-12.3125 -7.4531,-12.3125 -2.0782,0 -3.0782,1.2968 -3.0782,4.5625 0,2.1875 1.1875,6.8593 1.9844,10.3437 l 2.7813,10.7188 c 0.2968,1.5 1.2968,5.2656 1.6875,6.7656 0.5,2.2812 1.5,6.0469 1.5,6.6406 0,1.7969 -1.3907,2.6875 -2.8907,2.6875 -0.5,0 -3.0781,-0.0937 -3.875,-3.4687 C 38.125,47.0781 33.7656,29.7031 32.5625,24.4375 32.4688,24.0469 28.5,16.0938 21.25,16.0938 c -5.1719,0 -6.1562,4.4687 -6.1562,8.1406 0,5.5625 2.7812,13.4219 5.3593,20.2656 1.1875,2.9844 1.6875,4.375 1.6875,6.2656 0,4.4688 -3.1875,8.1407 -8.1406,8.1407 -9.4375,0 -13.125,-14.4063 -13.125,-15.2969 0,-1 1,-1 1.20313,-1 0.98437,0 1.09375,0.2031 1.57812,1.7969 2.48438,8.6406 6.26563,12.3125 10.03125,12.3125 0.9063,0 2.4844,-0.0938 2.4844,-3.2813 0,-2.375 -1.0781,-5.2656 -1.6875,-6.75 -3.6719,-9.8281 -5.75002,-16 -5.75002,-20.8594 0,-9.4375 6.84372,-11.9218 12.21872,-11.9218 6.5469,0 10.125,4.4687 11.8125,6.6562" />
          <path
             inkscape:connector-curvature="0"
             id="path16-9"
             style="fill:#000000;fill-opacity:1;fill-rule:nonzero;stroke:none"
             d="m 78.5469,44.7031 c 0,1.9063 -0.1406,1.9688 -2.1094,1.9688 -4.5,-4.4219 -10.8906,-4.4844 -13.7812,-4.4844 v -2.5312 c 1.6875,0 6.3281,0 10.2031,1.9687 V 5.76563 c 0,-2.32813 0,-3.23438 -7.0313,-3.23438 H 63.1563 V 0 C 64.4219,0.0625 73.0625,0.28125 75.6719,0.28125 77.8438,0.28125 86.7031,0.0625 88.25,0 v 2.53125 h -2.6719 c -7.0312,0 -7.0312,0.90625 -7.0312,3.23438 V 44.7031" />
        </g>
      </g>
      <g
         transform="matrix(0.50209205,0,0,-0.50209205,134.12199,266.31574)"
         id="g10-31">
        <g
           transform="scale(0.1)"
           id="g12-94">
          <path
             inkscape:connector-curvature="0"
             id="path14-7"
             style="fill:#000000;fill-opacity:1;fill-rule:nonzero;stroke:none"
             d="m 32.7656,20.5625 c 1.0938,-4.0781 4.5782,-6.6562 8.8438,-6.6562 3.4687,0 5.7656,2.2812 7.3437,5.4687 1.7032,3.5781 2.9844,9.625 2.9844,9.8281 0,1 -0.8906,1 -1.1875,1 -1,0 -1.0937,-0.4062 -1.3906,-1.7968 -1.3906,-5.5625 -3.2813,-12.3125 -7.4531,-12.3125 -2.0782,0 -3.0782,1.2968 -3.0782,4.5625 0,2.1875 1.1875,6.8593 1.9844,10.3437 l 2.7813,10.7188 c 0.2968,1.5 1.2968,5.2656 1.6875,6.7656 0.5,2.2812 1.5,6.0469 1.5,6.6406 0,1.7969 -1.3907,2.6875 -2.8907,2.6875 -0.5,0 -3.0781,-0.0937 -3.875,-3.4687 C 38.125,47.0781 33.7656,29.7031 32.5625,24.4375 32.4688,24.0469 28.5,16.0938 21.25,16.0938 c -5.1719,0 -6.1562,4.4687 -6.1562,8.1406 0,5.5625 2.7812,13.4219 5.3593,20.2656 1.1875,2.9844 1.6875,4.375 1.6875,6.2656 0,4.4688 -3.1875,8.1407 -8.1406,8.1407 -9.4375,0 -13.125,-14.4063 -13.125,-15.2969 0,-1 1,-1 1.20313,-1 0.98437,0 1.09375,0.2031 1.57812,1.7969 2.48438,8.6406 6.26563,12.3125 10.03125,12.3125 0.9063,0 2.4844,-0.0938 2.4844,-3.2813 0,-2.375 -1.0781,-5.2656 -1.6875,-6.75 -3.6719,-9.8281 -5.75002,-16 -5.75002,-20.8594 0,-9.4375 6.84372,-11.9218 12.21872,-11.9218 6.5469,0 10.125,4.4687 11.8125,6.6562" />
          <path
             inkscape:connector-curvature="0"
             id="path16-84"
             style="fill:#000000;fill-opacity:1;fill-rule:nonzero;stroke:none"
             d="M 90.5,12.7969 H 88.1094 C 87.9063,11.25 87.2031,7.09375 86.2813,6.39063 85.7188,5.96875 80.3125,5.96875 79.3281,5.96875 H 66.3906 c 7.375,6.54685 9.8438,8.51565 14.0625,11.81255 5.2032,4.1562 10.0469,8.5156 10.0469,15.1875 0,8.5156 -7.4531,13.7031 -16.4531,13.7031 -8.7188,0 -14.625,-6.1094 -14.625,-12.5781 0,-3.5782 3.0312,-3.9375 3.7344,-3.9375 1.6875,0 3.7187,1.2031 3.7187,3.7343 0,1.2657 -0.4844,3.7188 -4.1406,3.7188 2.1719,5 6.9531,6.5469 10.2656,6.5469 7.0313,0 10.6875,-5.4844 10.6875,-11.1875 0,-6.1094 -4.3594,-10.9688 -6.6094,-13.5 L 60.125,2.73438 C 59.4219,2.10938 59.4219,1.96875 59.4219,0 H 88.3906 L 90.5,12.7969" />
        </g>
      </g>
      <g
         transform="matrix(0.50327612,0,0,-0.50327612,111.96727,266.30154)"
         id="g10-5">
        <g
           transform="scale(0.1)"
           id="g12-0">
          <path
             inkscape:connector-curvature="0"
             id="path14-36"
             style="fill:#000000;fill-opacity:1;fill-rule:nonzero;stroke:none"
             d="m 31.7656,20.5625 c 1.0938,-4.0781 4.5782,-6.6562 8.8438,-6.6562 3.4687,0 5.7656,2.2812 7.3437,5.4687 1.7032,3.5781 2.9844,9.625 2.9844,9.8281 0,1 -0.8906,1 -1.1875,1 -1,0 -1.0937,-0.4062 -1.3906,-1.7968 -1.3906,-5.5625 -3.2813,-12.3125 -7.4531,-12.3125 -2.0782,0 -3.0782,1.2968 -3.0782,4.5625 0,2.1875 1.1875,6.8593 1.9844,10.3437 l 2.7813,10.7188 c 0.2968,1.5 1.2968,5.2656 1.6875,6.7656 0.5,2.2812 1.5,6.0469 1.5,6.6406 0,1.7969 -1.3907,2.6875 -2.8907,2.6875 -0.5,0 -3.0781,-0.0937 -3.875,-3.4687 C 37.125,47.0781 32.7656,29.7031 31.5625,24.4375 31.4688,24.0469 27.5,16.0938 20.25,16.0938 c -5.1719,0 -6.1562,4.4687 -6.1562,8.1406 0,5.5625 2.7812,13.4219 5.3593,20.2656 1.1875,2.9844 1.6875,4.375 1.6875,6.2656 0,4.4688 -3.1875,8.1407 -8.1406,8.1407 -9.4375,0 -13.125,-14.4063 -13.125,-15.2969 0,-1 1,-1 1.20313,-1 0.98437,0 1.09375,0.2031 1.57812,1.7969 2.48438,8.6406 6.26563,12.3125 10.03125,12.3125 0.9063,0 2.4844,-0.0938 2.4844,-3.2813 0,-2.375 -1.0781,-5.2656 -1.6875,-6.75 -3.6719,-9.8281 -5.75002,-16 -5.75002,-20.8594 0,-9.4375 6.84372,-11.9218 12.21872,-11.9218 6.5469,0 10.125,4.4687 11.8125,6.6562" />
          <path
             inkscape:connector-curvature="0"
             id="path16-1"
             style="fill:#000000;fill-opacity:1;fill-rule:nonzero;stroke:none"
             d="m 77.7813,43.9375 c 0,1.125 -0.8438,2.6719 -2.8125,2.6719 -1.9063,0 -3.9375,-1.8281 -3.9375,-3.8594 0,-1.2031 0.9062,-2.6719 2.8125,-2.6719 2.0312,0 3.9375,1.9688 3.9375,3.8594 z M 63.4375,8.21875 c -0.2812,-0.90625 -0.6406,-1.75 -0.6406,-2.95312 0,-3.29688 2.8125,-5.968755 6.6875,-5.968755 7.0312,0 10.125,9.703125 10.125,10.750025 0,0.9219 -0.9219,0.9219 -1.125,0.9219 -0.9844,0 -1.0625,-0.4219 -1.3438,-1.20317 -1.6093,-5.625 -4.7031,-8.5 -7.4531,-8.5 -1.4062,0 -1.75,0.90625 -1.75,2.45312 0,1.625 0.4844,2.95313 1.125,4.5 0.7031,1.90625 1.4688,3.79685 2.25,5.62505 0.625,1.6875 3.1563,8.0937 3.4375,8.9375 0.2188,0.7031 0.4219,1.5468 0.4219,2.25 C 75.1719,28.3281 72.3594,31 68.5,31 61.5313,31 58.2969,21.4375 58.2969,20.25 c 0,-0.9219 0.9844,-0.9219 1.2031,-0.9219 0.9844,0 1.0469,0.3594 1.2656,1.125 1.8282,6.0469 4.9219,8.5782 7.5157,8.5782 1.125,0 1.7656,-0.5625 1.7656,-2.4532 0,-1.625 -0.4219,-2.6718 -2.1875,-7.0312 L 63.4375,8.21875" />
          <path
             inkscape:connector-curvature="0"
             id="path18-06"
             style="fill:#000000;fill-opacity:1;fill-rule:nonzero;stroke:none;stroke-width:0.80077761"
             d="m 115.60846,15.8906 c 0.72141,0 1.80319,0 1.80319,1.6875 0,1.75 -1.03177,1.75 -1.80319,1.75 H 88.746267 c -0.7214,0 -1.803501,0 -1.803501,-1.6875 0,-1.75 1.031955,-1.75 1.803501,-1.75 h 26.862193" />
          <path
             inkscape:connector-curvature="0"
             id="path20-3"
             style="fill:#000000;fill-opacity:1;fill-rule:nonzero;stroke:none"
             d="m 137.05814,44.7031 c 0,1.9063 -0.141,1.9688 -2.109,1.9688 -4.5,-4.4219 -10.891,-4.4844 -13.782,-4.4844 v -2.5312 c 1.688,0 6.328,0 10.203,1.9687 V 5.76563 c 0,-2.32813 0,-3.23438 -7.031,-3.23438 h -2.672 V 0 c 1.266,0.0625 9.907,0.28125 12.516,0.28125 2.172,0 11.031,-0.21875 12.578,-0.28125 v 2.53125 h -2.672 c -7.031,0 -7.031,0.90625 -7.031,3.23438 V 44.7031" />
        </g>
      </g>
      <rect
         y="263.63852"
         x="103.7099"
         height="2.3968327"
         width="3.1355963"
         id="rect815-3-6-1-3-6-2-8-7-0-6-9-0-0-3-1-7-9-2-7"
         style="opacity:1;fill:#d58384;fill-opacity:1;fill-rule:nonzero;stroke:#d58384;stroke-width:5.28501177;stroke-linecap:round;stroke-linejoin:round;stroke-miterlimit:4;stroke-dasharray:none;stroke-dashoffset:0;stroke-opacity:1;paint-order:markers stroke fill" />
      <g
         transform="matrix(1.045918,0,0,1.045918,124.70587,-35.457653)"
         id="g956">
        <path
           d="m -19.00944,287.03381 c -0.02261,0.0927 -0.06487,0.26884 -0.07416,0.27399 -0.08755,0.14318 -0.272925,0.39349 -0.560353,0.39349 -0.320324,0 -0.320324,-0.30078 -0.320324,-0.38422 0,-0.27399 0.129804,-0.60258 0.259608,-0.94147 0.03705,-0.0927 0.06487,-0.16172 0.06487,-0.23588 0,-0.24104 -0.203969,-0.39864 -0.439844,-0.39864 -0.463511,0 -0.672622,0.63452 -0.672622,0.70868 0,0.0608 0.06487,0.0608 0.07931,0.0608 0.06487,0 0.06902,-0.0237 0.08346,-0.0742 0.111214,-0.38009 0.315183,-0.56551 0.495418,-0.56551 0.07931,0 0.116422,0.0505 0.116422,0.16173 0,0.10713 -0.03712,0.20395 -0.08346,0.31107 -0.250313,0.63967 -0.250313,0.77358 -0.250313,0.89925 0,0.0783 0,0.2915 0.171007,0.43983 0.134946,0.11125 0.315182,0.14833 0.477948,0.14833 0.291516,0 0.44914,-0.1576 0.60261,-0.30592 0.101985,0.29665 0.412025,0.30592 0.467664,0.30592 0.157558,0 0.278067,-0.0927 0.366669,-0.24515 0.101984,-0.18129 0.166853,-0.45014 0.166853,-0.46353 0,-0.0608 -0.06487,-0.0608 -0.07931,-0.0608 -0.06487,0 -0.06902,0.0186 -0.101984,0.14421 -0.05557,0.21735 -0.143187,0.49547 -0.33786,0.49547 -0.120509,0 -0.153471,-0.1061 -0.153471,-0.22662 0,-0.0793 0.03712,-0.24618 0.07008,-0.3667 0.03191,-0.12464 0.07825,-0.3152 0.101985,-0.41718 l 0.106071,-0.41202 c 0.02782,-0.1164 0.07931,-0.32035 0.07931,-0.34301 0,-0.0927 -0.07416,-0.14833 -0.153471,-0.14833 -0.171006,0 -0.203968,0.13391 -0.241017,0.28224 l -0.241084,0.96414"
           style="fill:#000000;fill-opacity:1;fill-rule:nonzero;stroke:none;stroke-width:0.06592388"
           id="path34-9-3"
           inkscape:connector-curvature="0" />
        <path
           d="m -16.554764,286.36941 c 0,-0.0803 -0.05973,-0.14317 -0.146285,-0.14317 -0.09269,0 -0.202914,0.0896 -0.202914,0.19983 0,0.0927 0.07311,0.14318 0.143187,0.14318 0.110225,0 0.206012,-0.0999 0.206012,-0.19984 z m 0.156569,1.59557 c 0,-0.0464 -0.05669,-0.0464 -0.07008,-0.0464 -0.05663,0 -0.05973,0.0134 -0.07931,0.0762 -0.05663,0.18335 -0.206012,0.37288 -0.372865,0.37288 -0.07621,0 -0.09994,-0.0536 -0.09994,-0.12669 0,-0.07 0.01648,-0.1061 0.04331,-0.16996 0.02677,-0.0659 0.05353,-0.13288 0.07001,-0.17923 0.01338,-0.0299 0.143186,-0.33889 0.189531,-0.45838 0.02677,-0.067 0.04635,-0.11022 0.04635,-0.16687 0,-0.15966 -0.152416,-0.29254 -0.362582,-0.29254 -0.349199,0 -0.534576,0.42645 -0.534576,0.51606 0,0.0464 0.05254,0.0464 0.07001,0.0464 0.05564,0 0.05979,-0.0165 0.07627,-0.067 0.07311,-0.23588 0.232777,-0.38215 0.374909,-0.38215 0.06388,0 0.09994,0.0371 0.09994,0.12669 0,0.0134 0,0.0567 -0.01958,0.11949 -0.02373,0.0598 -0.17305,0.41512 -0.219395,0.52842 -0.02373,0.0567 -0.02373,0.0628 -0.07318,0.17615 -0.01648,0.0464 -0.03705,0.0937 -0.03705,0.14935 0,0.17305 0.163755,0.29357 0.362582,0.29357 0.349198,0 0.535631,-0.43262 0.535631,-0.51606"
           style="fill:#000000;fill-opacity:1;fill-rule:nonzero;stroke:none;stroke-width:0.06592388"
           id="path36-2-6"
           inkscape:connector-curvature="0" />
      </g>
    </g>
  </g>
</svg>
